<?xml version="1.0" encoding="utf-8"?>
<!-- Generator: Adobe Illustrator 19.1.1, SVG Export Plug-In . SVG Version: 6.00 Build 0)  -->
<svg version="1.0" id="Layer_1" xmlns="http://www.w3.org/2000/svg" xmlns:xlink="http://www.w3.org/1999/xlink" x="0px" y="0px"
	 viewBox="0 0 612 644.2" style="enable-background:new 0 0 612 644.2;" xml:space="preserve">
<style type="text/css">
	.st0{fill:#F0F9FE;stroke:#A7B4C0;stroke-miterlimit:10;}
</style>
<path class="st0" d="M334.5,222.6c0.9,0.2,1,2.8,1.6,3.7c0.1,0.2,0.2,0.8,0.3,0.8c0.1,0.2,1,0.5,1.3,1c0.6,1-0.4,2.5,0.3,3.4
	c1.1,1.5,3.1,0,3.9,1.3c0.7,1.1,0,1.9,1,2.9c0.6,0.5,2.3-0.4,2.1,1.3c-0.1,1.8-5.4,1-6.6,1.6c0.2-0.1-1.4,1-1.3,0.9
	c-0.5,0.4-1.5-0.1-1.1,1.2c0.3,1.1,3.7,0.9,4.5,1.9c1.7,2.1-1,3.6-2.8,3.8c1.2,2.2,3.3,4,5.4,5.2c1.2,0.7,1.9,1.2,3,1.7
	c0.8,0.4,2.2,0.5,2.8,1.2c3.4,3.9-4.3,2.5-5.4,2.8c-1,0.2-1.1,1.3-2.4,1c-0.3-0.1-0.1-1.7-1.7-0.7c-0.3,0.2-0.2,1.2-0.5,1.5
	c-0.6,0.6-1.3,0.7-2,1.1c-0.9,0.6-1.3,1.1-2,2c-1.3,1.7-2,1.8-3.8,2.9c-1.2,0.7-3,1.4-4.1,2.1c-2.6,1.9-2.3,6.1-1,8.7
	c0.8,1.6,5.9,5.4,1.9,7.2c2,1.2,4.4,0.9,6.7,1c0.7,0,2.5,0.4,3.1-0.1c0.3-0.3,0.1-1.4,0.2-1.4c0,0,0.2-0.2,0.4-0.3
	c1.6-0.6,2.2,1.6,2.9,2c0,0.6,0.2,0.9,0.7,0.8c0.4,0.1,0.8-0.1,1.1-0.4c1.4,0.1,2.2-1.6,3.2,0.6c0.4,1-0.3,1.8,0.6,2.7
	c1,1.1,2.8,0.6,3.4,0.2c0.3-0.2-0.2-1.1,0.1-1.4c0.2-0.2,0.7,0.1,0.9,0c0.6,0.1,1.1,0,1.5-0.5c0.1-0.5,0.3-0.9,0.5-1.3
	c0.9-0.4,1.5-1,2.5-0.3c1.6,1.1,0.9,3,3.3,2.4c0,0,1.8-0.9,2-1c0.5,0,0.9-0.1,1.3-0.3c0.1-0.3,0.1-0.6,0.1-0.8
	c1.4-0.8,3.2-0.4,4.5-1c0.8-0.3,0.5-0.7,1.1-1.1c0.2-0.1,1.2-0.6,1.3-0.7c0.5-0.6,1-1.4,1.3-2.4c1.3-4,2.8-1.4,5.3-1.5
	c1.4-0.1,1.4-0.6,2.5,0c1.4,0.8,1.7,2.7,1.6,4.2c0.7,0,1.8-0.9,2.5-0.4c0.8,0.6,0.2,1.6,0.6,2.3c0.5,1-0.1,0.8,0.6,1.3
	c0.5,0.4,1.5,0.7,2,0.2c-0.1,0.1,3.2-8.5,3.9-3.2c1-0.1,1.8-1,1.7-2c0.9,0.1,2.1,1.7,2.8,1.6c0.1-2,1.4-1.5,2.1-3.2
	c0.3-0.8-0.1-1.9,0.2-2.7c0.4-1.1,1.1-0.6,1.3-2.2c0.2-1.4-0.5-2.2,0.5-3.3c0.6-0.6,1.3-0.4,1.9-1.2c0.4-0.5,0.3-1.9,0.8-2.3
	c0.6-0.4,2.5-0.1,3.2-0.2c0-0.1,0.7-2.7,0.8-2.7c1.9-1.3,4.4,1.4,5.9,2.2c0-0.9,1.4-1.4,1.4-2c0-0.1-0.9-1.7-1-1.8
	c-0.3-0.6-1.4-2.1-0.9-2.9c0-0.1,0.9-0.1,0.9,0c0.3,0,0.7,0,1,0c0-0.2,0-0.4,0.1-0.6c0.8-0.6,0-1.1,1.4-1.4c0.8-0.2,1.3,0.4,1.9,0.7
	c-0.2-1.4-0.2-3.6-1.6-4.5c-0.5-0.4-1.4-0.4-1.8-0.6c-3-1.7-1.1-3.8-1.1-6.4c1.6,0.5,1.4-0.3,2.2-1c1.2-1,2.2-2.1,3.3-3.3
	c1.8-1.9,1.1-1.5,0.8-4.3c-0.3-2,0.7-2.8-1.2-3.8c0,0.8-1.2,4.3-1.9,1.7c-0.9,0.9-0.2,4.1-1.6,4.2c-0.8,0-1.7-2-2.5-2.3
	c0.1,1.2-2.5,1.2-3.4,1.5c-0.7,0.2-1.2,0.5-1.9,0.6c-0.9,0-2.2-0.9-3.1-0.5c-2.2,1.1-0.4,2.3-3.6,1.1c0.3,0.1-2.3-0.9-2.1-0.6
	c-0.5-0.5-0.4-2.9-0.8-3.7c-0.4,0.1-2,1.7-2.4,2c-1.3,1-3.1,2.1-4.3,1.8c-0.7-0.2-2-1.6-2.7-1.9c-1-0.5-1.8-0.7-2.9-1
	c-0.7-0.2-1.3-0.7-2.1-0.7c-0.7-0.1-1.3,0.6-2.3,0.4c-1-0.2-1.7-1.1-2.7-1.1c-0.9,0-1.6,1.2-2.4,1.5c-1.2,0.5-0.4,0.4-1.6,0.3
	c0.1,0-2.4-1.3-2.2-1c-1.3-1.8,2-6-2.3-4.8c-1.6,0.5-2.4,2.1-3.8,2.6c-0.4,0.1-2,0.3-2.4,0c-0.9-0.5-0.5-1.4-1-1.9
	c-1-0.8-1.4-0.2-2.4-0.6c-0.7-0.3-1.2-1.4-2.1-2c-1.7-1-4.7,0.2-6-1c-1.2-1.3,0.8-4.1-0.1-5.8c-0.7-1.4-0.3-0.9-1.9-1.3
	c-0.9-0.2-1.9,0.1-2.8-0.1c-2.2-0.5-2.4-2.1-4.4-2.7c-0.7-0.2-0.8-0.7-1.7-0.6c1-0.1-1.5,1.4-1.1,1.3c-0.8,0.3-2.5,0.1-3.3,0.8
	C333.3,221.3,332.9,222.7,334.5,222.6z"/>
<path class="st0" d="M413.9,221.8c0.8,1.5,0.8,1.2,2.8,1.4c1.4,0.1,3.1,1,4.2,0.2c1.7-1.3,0.1-1.9,3-1.8c0.3,0,0.7,0.4,1,0.5
	c0.2,0,0.6-0.4,0.9-0.4c0.8,0.1,0.3,0.3,1.1,0.1c0.5-0.1,0.3-0.1,1,0.2c0-1.5,1.8-1.2,1.5-3c-0.3-1.5-2.2-1.8-2.2-3.9
	c0-1,0.6-1.9,0.9-2.9c0.5-1.7,0.5-2.4,0.5-3.8c-0.1-1.3-0.2-4.6-2.2-5.4c-0.7-0.3-1,0.2-1.6,0c-0.3-0.1-0.4-0.8-0.4-0.8
	c-1.1-0.1-1.9-0.1-2,1.7c-0.5-0.2-0.9-0.4-1.3-0.7c0,0.1-1.1,2.2-1.3,1.9c-1-1.5-0.6-0.1-1.7,0.2c-1,0.3-2.5,0.3-3.5,0.3
	c0,1.5,1.2,1.8,0.9,3.5c-0.2,1.1-1,2.9-1.6,3.9c-0.8,1.6-0.8,1.7-0.9,3.5c0,0.7,0,4-0.5,4.4C413,221.1,413.6,221.2,413.9,221.8z"/>
<path class="st0" d="M325.9,291.2c0.3,0.5,2.3,0.2,2.9,1c1,1.2,0.4,2.4,1.8,3.7c1.1,1,1.8,1.3,2.6,2.5c0.5,0.7,0.3,1.6,1.5,1.3
	c-0.1,2.5,0.7,1.6,2.3,2.1c2.6,0.8,1.7,2.5,1.5,4.7c-0.2,1.9,0.7,1.5,1.2,2.9c0.4,1.2,0.3,2.3,0.8,3.2c1.2,2.5,2.8,2.3,5.2,2.5
	c-0.4,1.4-0.3,3.9-1.1,5c-1,1.3-4.1,1.5-3.9,3.8c0-0.5,2.2,2.6,2.1,2.5c0.6,0.5,1.2,0.6,1.9,0.9c2.6,1,3.3-0.1,5.6-0.9
	c2.1-0.8,4.6,0,6.8-0.7c1.1-0.3,3.5-2.2,4.7-1.5c0.4,0.3,0.3,6.5,0,7.1c-0.2,0.5-0.8,1.1-1.3,1.4c2.1,0.4,3.1,1.6,5,0.4
	c2-1.3,2.4-2.3,5.2-1.6c1.6,0.4,2.6,1.2,4.2,1.3c0.7,0,0.5-0.7,1.1-0.5c1.1,0.4,1.2,1.3,0.5,2.2c2,0.5,1.1-0.2,2-1.1
	c-0.3,0.3,1.6-2.2,1.4-1.3c0.2-0.7-0.7-1.7-0.7-2.4c0-1,0.6-1.1,0.5-2.4c-0.1-1.2-1.2-2.5-1.7-3.6c2.5-0.2,3.6,0.1,5.6,0.7
	c2.5,0.6,4.1,1.1,5.1,3.9c0.6-0.1,0.6-1.1,1.4-1.3c1.4-0.4,2.2,0.7,3.2,1.4c1,0.8,0.1,1.3,1.3,1.4c0.8,0,1.4-0.5,1.9-1
	c-0.8-0.3-0.8-1.7-1.2-2.3c-0.6-0.8-2.5-0.9-0.4-1.9c-0.2-1.4-2.2-2.4-3.4-2.1c0.8-1.7-1.6-2.2-2.5-3.4c-1-1.4-1.7-3.3,0.6-4.3
	c-0.8-0.6-2.5,0-3.4,0c-1.6-0.1-3.4-1.2-4.7-2.4c0,0-0.7,0-0.8,0c-0.4-0.2-0.3-0.9-0.9-1.1c-1-0.4-2.7,0.7-2.7-1.1
	c-0.3-0.2-1.3,0.2-1.5-0.1c-0.4-0.9,0.3-2.2,0.6-3c0.4-1.1,1.3-2.5-0.7-3.4c1.4-0.1,2.7-0.1,4.1-0.1c-0.3-1.4,0.1-3.3,2.6-1.9
	c0.7,0.4,0.1,1.2,0.7,1.8c2.2,2.5,3.3-1.3,4.5-2.3c0.7-0.6,1.5-1.2,2.3-1.7c1-0.5,2.5-0.5,3.3-1c1.2-0.7,0.6-1.1,1.3-2.3
	c0,0,1.7-1.3,1.4-1.2c0.9-0.4,0.7-0.5,1.9-0.3c1.1,0.1,1.9,0.9,3.1,0.9c0.1-1.8-1.1-1.4,1.6-1.2c0.1-0.7,0.6-1.4,0.6-1.9
	c0-0.9-1.6-1-0.6-2c1.4-1.4,3,1.2,3.9,1.2c0.1-2.2,1-3.9,3.5-4c-1.1-1.3-0.3-1.2,0.9-2.6c1.3-1.4,1-2.3,0.9-3.7
	c-0.1-0.6-0.3-1.8-0.4-2.6c1.5-0.1,3.5,0.2,2.4-2.2c-0.6-1.1-1.5-0.4-1.5-2.1c0-0.5,0.7-0.2,0.7-0.5c0.5-2.3,0.6-4.5-1.4-6.2
	c-1.3-1.1-4.3-2.8-6-2.6c0,0.9-0.4,2.4-1,2.8c-0.7,0.5-2.3-0.5-3,0c-0.4,0.3-0.4,1.7-0.7,2.2c-0.7,1-2,1-2.4,1.9
	c-0.4,0.7,0.3,1.8,0.2,2.4c-0.2,1.2-0.9,1.3-1.1,2.1c-0.3,0.9-0.1,2.6-0.6,3.5c-0.6,1-1.3,1-2,1.5c-1.5,1.2,1,0.8-0.6,1.4
	c-1,0.3-1.6-0.8-2.3-1.3c-0.6,1.9-2.5,1.3-3.1,1.4c-0.3,0,0-1-0.8-0.7c0,0-1.1,1.5-1.2,1.8c-0.7,2-0.3,2.9-2.5,2.8
	c-1.4-0.1-1.7-1.2-2-2.6c-0.8-3.4-0.7,0.5-2.9-1.2c-0.4-0.3,0.2-0.6-0.1-1.2c-0.6-1.2,0.1-1.4-1.2-2.4c-1.6-1.3,0.3-0.2-2.2-0.4
	c-0.7,0.2-1.4,0.2-2-0.1c0-0.4-0.2-0.7-0.5-0.7c-2,0-1.8,0.7-2.4,2.5c-0.2,0.5,0.1,1.3-0.3,1.7c-0.5,0.5-1.3,0.2-1.7,0.6
	c-0.5,0.4-0.3,1.2-1,1.6c-0.8,0.5-2.4-0.1-3.4,0.3c-1.4,0.6-1.8,1.3-3.3,1.9c-0.3,0.1-1.7,1.1-1.8,1.1c-1.1,0.2-2.4,0-3.2-0.8
	c-0.5-0.6-0.4-1.8-1.3-1.9c-1.4-0.2-0.8,0.9-1.4,1.4c-0.3,0.2-2.4,0.9-2.3,0.9c-1.2,1.8,0.8,2.5-2.6,1.9c-1.6-0.3-2.3-0.9-2.9-2.3
	c-0.5-1.2,0.6-2-1.1-2.3c-1.6-0.3-1.8,1.8-3.7,0.3c-0.9-0.8-0.4-1.6-2-2.1c-0.3,4.3-9.5,1.1-11.8,0.4c-0.1,1,0.4,1.7,0.4,2.6
	c0,0.4-0.5,1.2-0.6,1.7c-0.1,0.6,0.3,1.1,0.1,1.9C326.6,290.4,325,290,325.9,291.2z"/>
<path class="st0" d="M87.8,273.3c-0.1,0.8,0.5,1.4,1.3,1.2c0.1-2.4,2.8-1.4,4.7-1.1c0.9,0.1,2,0,2.8,0.2c1.6,0.3,1.6,2,2.6,2.3
	c0.3-2.4,1.5-1.2,2.2-0.9c0.4-1,2.2-2.2,3.3-1.7c0.4,0.2,0.1,1.8,0.8,2.2c1.4,0.9,2.3-0.1,3.5,1.2c0.6,0.7,1.9,2.2,2,3.1
	c0.9-0.7,0.5-1.4,1.6-1.5c0.3,0,2.5,1.5,2.6,1.7c0.1,0.1,0.3,0.5,0.3,0.6c0.4,0.5-0.1,0.9,0.4,1.3c0.3,0.2,1.7-0.1,2-0.1
	c0.4,0.1,2,1,2.1,1c0.6-0.3,0.5-2.2,1.1-2.7c0.4-0.3,2.4-0.7,2.9-0.2c0.5,0.5-0.1,1.8-0.1,2.5c0.8,0,1.5,0.2,2.1,0.7
	c-1.2,0.7-2.7,1.1-3,2.7c-0.2,1.5,0.9,2.5,2.3,2.3c-1,2.3,0,1.5,0.9,1.3c1.2-0.3,0.3-1.5,2.1-0.6c1,0.6,1.2,2,1,3
	c-0.3,1.2-2.9,2.6-2.4,3.8c0.2,0.6,1.1,0.2,1.4,0.6c0.9,1.1,0.5,1.7,1.2,2.9c2.5-1.2,2.3,0.5,2.5,2.2c0.3,3,0.5,0.9,3,2.1
	c0.8,0.4,1.1,1.3,1.8,1.7c0.4,0.2,0.9,0.1,1.4,0.3c1.2,0.3,2.1-0.1,2.7,1.4c0.1,0.3-0.3,2-0.1,2.1c0.3,0.3,3.1,0.1,3.3,0.1
	c0.8,0,0.8-0.6,1.9-0.1c0.6,0.3,0.9,1.5,1.3,1.9c0.3-0.6,1.1,0,1.6-0.1c0.8-0.1,3.6-1.2,4.4-1.7c2.3-1.5-0.8-2-2.5-2.7
	c0.7-0.5,0.6-1.1,0.8-1.7c0.8-1.7-0.5-1.3,2.1-2.1c2.9-1,5.2-1.3,5.4-4.8c0.1-1.3-0.4-2.7,0-4c0.4-1.1,1.3-1.7,1.4-2.9
	c0-0.4-0.5-1-0.6-1.4c-0.4-1.5,0-2.1-1.1-2.6c-0.7-0.3-2.2,0-3.1-0.1c0.4-0.6,1.1-1.1,1.3-1.7c0.3-0.7,0.1-2.2,0.7-2.8
	c-1.2-1.2-1.4,0-2-1.3c-0.8-1.9,1.3-2.7,1.6-3.9c0.3-1.2-0.9-3.2,1.5-2.3c0.1,0,1.3,1.7,1.9,1.9c-0.1-0.6-4.7-6.1-2.2-6.6
	c1.9-0.4,1.6,4,4.3,2.5c1.2-0.7,0.5-2.3,1.6-3.2c0.6-0.5,3.1-0.9,3.7-0.4c0.7,0.7,0.4,2.5,0.3,3.7c-1.4-0.2-0.6,0.6-1.1,1.3
	c0.5-0.7-0.9,2.2-0.8,1.2c-0.1,0.6-1,0.1-0.3,1c0.2,0.2,1.8,0.3,2,0.3c1.5,0.2,3,0.3,4.5,0.4c-0.1,0.4-0.1,0.6,0,1
	c1.3-0.6,2.7-2.2,4.3-1.8c1.9,0.6,0.2,2.2,1.3,3.6c1.1,1.3,1.6-0.8,1.5,1.8c-0.1,3.5-3.3,0.4-3.3,3.2c0,0.9,0.6-0.1,0.7,0.6
	c0.2,1.2-0.3,2.9,0.1,4c0.6,1.6,2.2,0.7,0.6,2.3c-0.7,0.6-1.8,0.9-2.7,1c-0.7,0.1-3.1-0.8-3.3-0.7c-0.6,0.3-0.8,2.2-0.5,2.7
	c0.2,0.4,2.2,1.5,2.9,2.1c0.4-3.7,2-0.8,4.4-2.2c2-1.2-0.2-1,0.5-2.5c0.2-0.4,1-0.2,1.3-0.5c0.9-0.9,1.5-1,2.1-2.5
	c0.2-0.5,0.1-1.6,0.5-1.8c1.3-1,6.8,0.7,8.3,1.1c0-0.3,0.1-0.6,0-1c1.2,0,2.2,0.2,2.6-1.1c0.2,1.9,0,3.3,2.5,2.8
	c0,0.5-0.3,1.5,0.4,1.6c0.3-1,1.6-0.8,2-1.6c-2-1.2-0.9-5.5-1.6-7.5c1.6-0.5,5.8,2.8,4.8-1.7c-0.6-2.6-4.2-1.5-5.2-4.6
	c5.3-0.4-0.6-2.4,1.5-5c0.5-0.7,3.6,0,4.4-0.1c1.8-0.2,3-1.2,4.6-1.8c-0.2,0.5-0.2,1-0.2,1.5c3.3-0.9,0.3-4.3,0.3-6.4
	c-1.5,0-0.9,1.3-1.7,1.9c-0.8,0.5-0.2-0.2-1.4-0.1c-1.9,0.2-4.3,0.4-6.4,0.2c-1.9-0.2-4.2-0.7-5.2-2.4c-1.1-1.9-1.5-4.9-2.2-7.1
	c1.8,0.6,1.2-1.8,2.2-2.6c1.1-1,2.8-0.5,3.9-1.8c1.9-2.2,2.5-3.5,5.4-4.7c2.1-0.8,3.4-2.4,5.5-3.4c0.7-0.3,1.4-1.1,1.9-1.3
	c1.3-0.6,2.5-0.4,3.7-1.3c0.5-0.5,1-1,1.5-1.5c0.6-0.2,1.3-0.4,2-0.5c0.6-0.4,0.6-1.6,1.6-2.1c0.8-0.4,1.8-0.4,2.7-0.4
	c0.6,0,1.1,0,1.7,0c0.8,0.2,1.1-0.1,1.1-0.9c0.2-0.1,1.2-2.2,1.2-2.1c0.3-1.5-0.1-1.2-0.7-2.6c-0.6,0.4-2.6,5.1-3.2,1
	c-1,0-1.2,1.1-2.4,0.9c-0.8-0.1-0.7-1.1-1.7-1c-0.9,0.1-1.1,0.6-0.8,1.6c-1.6,0.1-5.6-0.9-4.8,1.9c-2.9,0.6-1.5-3.1-0.2-4
	c0.4-0.3,0.4-0.4,0.7-0.5c0.7-0.2,1.5,0.1,2.2,0c0.8-0.2,0.7-1,2.1-1c-1.3-1.6-5.2,0.9-3-3c0.5-0.8,1.8-0.7,1.3-1.8
	c-0.2-0.5-1.5-0.3-1.5-1.3c0.1,0,1.1-0.2,0.4-0.4c0.2,0,0.4-0.1,0.6-0.2c-0.3-0.6-2.2-0.5-2.6-0.8c-1.4-0.8-1.5-2-2-3.5
	c-0.4-1.2-0.8-2.1-0.9-3.4c0-0.6-0.2-1.4,0-2.1c0.2-0.6,1.3-1.5,1.2-1.8c-1.9,1.7-3.1,2.6-5.8,2.2c0-0.1,0,1.1,0,1.4
	c-2-0.6-1.7,2.5-3.6,1.1c-1.4-1.1-0.2-9.1,1.1-9.9c-0.7-0.3-1.7-1.8-2.5-1.6c-0.1,1.7,0.3,1.4-0.4,1.8c-0.5,0.3-1.6-0.4-2.1,0
	c-0.3,0.3,0.1,1.1-0.2,1.4c-0.7,0.7-1,1.3-2.5,0.4c-1.7-1.1-1.6-2.6-4-3.2c0.3,1.1,0,2,0.6,3.3c-0.6,0-2.4-0.4-2.9,0
	c-1.1,0.9,0.7,2.9,0,3.6c-0.3,0.3-2.8,0.1-3.1-0.3c-0.4,0.7-1,0.2-1.5-0.3c-1-1.1-0.5-2.3-0.2-3.4c0.6-2.7,1.8-4.3-0.8-6.7
	c-0.7-0.6-1.8-0.9-2.4-1.5c-0.6-0.7-0.5-1.6-1-1.9c-0.8,0.1-1.5,0-2.2-0.4c-0.4-0.4-0.6-0.9-0.6-1.4c-0.5-0.9-1.2-2.2-1.5-3.2
	c-0.4-1.3-0.4-2.6-0.3-4c0-0.9,0.1-1.9,0.2-2.8c-0.3-0.1-0.6-0.2-0.9-0.4c-0.3-1-0.1-2.7-0.5-3.6c-0.5-1.1-0.7-0.7-1.6-1
	c-0.1,0,0.1-0.7-0.1-0.7c-0.9-0.1-1.7,0.9-2.7,0.9c-1.5,0-2.6-1.5-3.9-1.1c0.5-1.7-1.2-2.8-2.8-2.7c0,0-0.2,1-0.2,1.2
	c-1.4-0.5-3-0.5-4.5,0c0.6-2.1-4-3.1,0.3-3.2c0-1.1,0-2.1,0.1-3.2c0.1-0.8,0.9-1,0.3-2c-0.5-0.8-1.3,0.4-1.7-0.8
	c-0.5-1.2,0.8-1.9,0.8-2.5c0.1-0.1,0.3-0.1,0.4-0.2c0.2-0.6-0.1-0.9-0.8-0.8c-0.1-0.2-1.1-1.2-1.2-1.4c0.1-1-0.3-1.3-1.3-0.9
	c-0.6,0.1-1.2,0-1.9-0.1c-1.2-0.2-2.3-0.6-3.6-0.6c-2.5-0.1-1.9,0-2.7-1.8c-0.3-0.6,0.3-1.7-1.1-1.6c-1,0.1-1.1,2-1.8,2.5
	c-1.5,1-4.2-0.2-5.9,0.4c-2.5,0.8-2.1,3.7-2.8,5.9c-0.7,2.3-1.2,5-2.6,7c-2.6,3.7-4.9,7.3-9.1,9.4c-3.8,1.9-7.4,2.9-9.7,6.5
	c-0.5,0.7-1,1.1-1.2,1.9c-0.2,0.7,0.4,1.6,0.1,2.3c-0.7,1.8-3.3,1.9-4.5,3.4c-1.3,1.6-1.1,3.8-2.6,5.3c-1.5,1.4-3.5,1.5-5.5,1.5
	c-2.6,0-5.1-0.5-7.6,0.3c-2.2,0.6-4.6,3.1-7.1,2.5c-4.1-1-2.3-6-5.2-7.4c-4.6-2.3-7.7,3.8-9.8,6.5c-1.3,1.7-2.6,3.7-4.3,5.1
	c-1.6,1.3-3.9,1.9-5.4,3.4c-1.3,1.4-1,2.7-1.5,4.4c-0.6,2-2.2,3.8-0.7,5.9c1.1,1.5,5.3,4.1,6.6,4.4c1.2,0.3,3.2-0.6,4.6,0.6
	c1.3,1.2,1.5,4.4,0.9,6c-0.8,2.1-2.7,2.7-2.4,5.3c0.2,1.4,1,2.2,1.6,3.3c0,0.3,0,0.5,0,0.8c-0.2,0.7,0,1,0.8,1.1
	c0.7,1,0.8,1.3,2.1,1.8c1.5,0.6,4.7-0.1,5.8,0.7c1.4,1,0.7,3.2,0.9,4.8c0.3,2.5,1.5,4.9,2.7,7c1.2,2.1,2,4.3,3.5,6.3
	C85.3,269.5,88,272,87.8,273.3z"/>
<g>
	<path class="st0" d="M433.7,343.7c0.3,0,2.1-2.8,2.1-3c0.2-0.6,0-1.7-0.1-2.3c-0.1-0.8-0.4-1.5-0.7-2.2c-0.6,0.1-1.1,0-1.6-0.1
		c-0.2,0.4-0.8,4-0.4,4c-0.3-0.1-0.5,0-0.7,0.3C434.4,340.6,433.6,342,433.7,343.7z"/>
	<path class="st0" d="M419.6,342.6c1.5,0,1.2-0.9,1.5-2.1c0.1-0.7,0.8-1.2,0.5-2c-0.5-1.6-1.2,2.7-1.1,2.6
		C420.4,341.2,419.3,342.6,419.6,342.6z"/>
	<path class="st0" d="M436.6,338.6c0.4,1,0.9,3,1.8,3.3c2.3,0.7,1.1-1.8,0.9-2.6c-0.3-0.9-0.7-3.7-2-3.8
		C435.6,335.3,436.2,337.6,436.6,338.6z"/>
	<path class="st0" d="M435.8,332.4c-0.2,0.6,2.1,2.3,2.9,1.8c0.5-0.3,0.6-1.4,0.2-1.9C438.3,331.6,436.6,332.4,435.8,332.4z"/>
	<path class="st0" d="M433.4,333.4c-0.6,0.7-1.1,0.4-1.6,0.9c1.9,0.6,3.5,1.7,3.8-0.7c0.1-1,0.5-1.4-0.7-1.7
		C433.1,331.5,434.2,332.6,433.4,333.4z"/>
	<path class="st0" d="M432.2,336.5c0.2,0,1.5-0.8,1.8-0.8c0.1-0.1,0.1-0.3,0-0.4c-0.3,0-1.7-0.7-2-0.4
		C431.7,335.3,431.4,336.5,432.2,336.5z"/>
	<path class="st0" d="M438.7,329.7c-0.3-0.6-2-1.8-2.6-1.8c-0.1,1.3,0.6,0.4,0.8,1.4c0.2,0.9-0.3,1.9-0.4,2.8
		C436.8,330.8,440.1,332.7,438.7,329.7z"/>
	<path class="st0" d="M435.7,328.2c0.2,0-2.2,1.7-2.1,1.5c-0.3,0.5,0.2,1.7,1.2,1.8C436.4,331.6,437.1,328.3,435.7,328.2z"/>
	<path class="st0" d="M423.9,342.2c0.1-1.1-0.8-1.6-0.3-2.9C422.7,339.8,422.2,342.5,423.9,342.2z"/>
	<path class="st0" d="M432.9,332.4c0-0.1,0.9-1.3,0.6-1.3c-1.6-0.2-3.9,0.8-3.3,2.8C430.3,334.4,432.7,332.9,432.9,332.4z"/>
	<path class="st0" d="M427.4,342.3c0.2-0.8,0.6-4.3-0.1-4C426.4,338.8,425.4,341.9,427.4,342.3z"/>
	<path class="st0" d="M410,342.6c-0.2,3.3-3.3,1.7-5.3,2c-2.9,0.5-6.8,3.8-7.9,6.5c-1.2,3.2,1,5.5,2,8.3c1.2,3.6-2.9,1-3.1,4.7
		c0.9-0.6,4.1-2.5,5.1-2.3c-0.7,2-2.1,3.3-3.8,4.4c-1.3,0.9-3.3,1.6-3,3.5c1.9,0,1.3,1.8,0.1,2.8c-1,0.9-2.7,1-3.7,1.7
		c-2.4,1.6-2.4,3.9-4.4,5.7c-2.7,2.3-7,2.4-10.1,3.7c-2,0.9-3.8,1.9-5.8,2.5c-0.8,0.3-2.9,1.7-3.6,1.6c-0.1-2.1,1.2-1.5,2.7-2.7
		c2.1-1.7,1.4-3.8-1.2-3.2c-1.4,0.3-4,2.3-4.8,3.3c-1.1,1.4-0.4,3.4-2,4.2c2.3,0,2.1-3.3,3.9-2.7c-0.4,0.5-1.3,0.7-1.4,1.4
		c4.7-1.5,0.7,1.3-0.9,2.7c-1.2,1-2.6,1.7-3.6,2.9c-1,1.2-1.3,2.7-2.2,3.9c-0.3,0.4-1.9,2.2-2.2,2.1c-0.8-0.2,0.2-1.5-0.3-2
		c-1.2-1.1-4.3,1.5-2.1,2.1c0-0.5-3,0.8-3.1,0.9c0.1-0.1-1.2,0.8-1.1,0.7c-0.3-0.1-0.5,0-0.7,0.3c0,0.6,0.3,1.1,0.7,1.6
		c-0.7,1.8-3.5,2.9-5.1,2.5c-1-0.2-1.7-0.9-2.8-1.1c-0.3,0-1.4,0.1-1.7,0c-1.7-0.6-1.1-1.1-2.3-2.8c-1.6-2.3-1.6-0.1-3-1.8
		c-0.8-1,0-2.5-1.9-2.4c0,0.5,0.1,2.4-0.3,2.6c-0.7,0.2-0.4-1-1.1,0.1c-0.5-1.3-0.6-0.6-1-1.2c-0.4,0.9-0.6,1.8-0.7,2.7
		c-0.6-0.8-1.7-1.4-2.6-0.5c-1.6,1.6,0.7,1,0.8,2c0.2,2.8-2.9,1.7-4.6,2.6c-1.3,0.6-0.3,0.9-0.9,2.1c-0.5,0.9-1.8-0.2-1.7,1.9
		c0,1,1.7,1.8,1.7,2.2c-1.3,0.1-0.9,2.1-2,2.7c-1.9,1-1.9-2.1-4-1.4c-0.8,0.3,0.2,1-0.4,1.5c-0.2,0.2-3.2,2.4-3.2,2.4
		c0.2,0.1,0.4-1.8,0.3-2.2c-0.2-0.9-0.5-0.9-0.9-1.4c-0.5-0.8-1.1-2.5-2.4-2.3c0.6-0.1-2.7,2.5-2.5,2.1c-0.4,0.7,0.1,2.6,0.4,3.2
		c-1.5,0.7-1.3,2.7,0,3c0,0.4-0.6,0.9-0.6,1.6c-1.3,0-1,1.6-1.6,1.8c-0.8,0.2-1.3-1.3-2.1-1.6c-1.4-0.6-2.2,0.3-3.3,0.9
		c-0.8,0.5-1.7,0.6-2.5,1c-1.1,0.5-0.8,1.1-1.6,1.7c-0.8,0.6-2.3,0.5-3.3,0.7c-1.4,0.2-3.1,0.4-4.7,0.6c-0.7,0.1-1.5,0.4-2.1,0.3
		c-0.8,0-1.3-0.9-2.3-0.6c1.2-0.7,2.2-0.6,3.3-1.5c0.9-0.7,1.9-1.8,2.4-2.9c1-2.3,0.2-4.2,2.9-5.5c0.8-0.4,1.6-0.1,2.4-0.6
		c1.3-0.8,1.1-3.3,2.4-4.1c1-0.6,4.4-0.7,1.3-3.2c0.7-0.1,1.5-0.2,2-0.4c-0.2,0.1,0.9-1,0.8-0.9c0.4-0.3,0.9-0.2,1.2-0.5
		c0.7-0.7,0.2-1.7,0.7-2.4c0.1-0.1,0.6-0.8,0.6-0.8c0.1-0.1,0.8,0,0.9-0.1c0.1-0.3-0.1-0.7,0-1c0.6-1.3-0.5-4-0.7-5.4
		c-0.2-1.4,0.1-3-0.2-4.3c-0.5-1.7-1.5-3-3.1-3.1c0.1-1.9,2.1-4.2,0.7-6c-0.6-0.9-2-0.2-1.9-1.7c-2.2,0.9-2.6-1.6-1.5-3.2
		c0.7-1-0.5-0.9,1.1-0.9c0.8,0,0.7,0.4,0.6,1c1.8,0.1,5.6-0.5,6.6,1.2c0.5,0.8-0.6,2.9,1,3.1c0.6,0.1,0.8-0.4,1-0.4
		c0.3-0.1,0.4-1,1.7-1.1c2.7-0.2,0.9,1.1,1.9,2.3c0.7,0.8,2.3,0,2.8-1c0.3-0.5,0.3-2.3,0-2.8c-0.7-1.4-1-0.8-2.5-0.9
		c-3.5-0.1-3.8-1.1-3.3-4.2c0.2-1.2,0.8-2.7,0.6-4c-0.2-1.5-0.9-1.4-1.5-2.5c-1.2-2-0.6-6.4-0.5-8.9c1.4,0.1,1.3,3,3.4,0.7
		c1.3-1.5,0.9-4.5,2-5.7c0.9-1,4.4-0.4,6.1-0.4c1,0,4.1,1.1,4.8,0.8c2-0.8,0.4-4.1,2.8-4.9c0.8-0.3,2,0.5,2.4-0.3
		c0.4-0.8-0.8-1.4-0.9-2c-0.2-0.8-0.1-1.6,0.1-2.4c0.3-1,1.1-1.4,1.4-1.9c0.4-0.7,0.3-1.3,0.5-1.9c-0.1,0.3,1-1.8,0.6-1.3
		c0.3-0.4,2.4-1.8,2.5-2.1c0.2-0.9-1.8-1.8-1.7-2.8c0.1-1.4,0.7-0.5,1.2-1.4c0.5-0.8,0.2-1.2,0.8-1.9c1.1-1.3,3.9-2.9,5.4-3.7
		c2.2-1.2,2.7-1.2,2.4-4c1.7-0.1,2.3,2.4,3.7,3.2c2.7,1.4,4,0.4,6.5-0.5c1.8-0.6,3.7-0.2,5.6-0.5c1.7-0.3,3.8-2,5.3-1.9
		c0.1,1.9,0.4,4.6-0.3,6.1c-0.4,0.9-1.2,1.4-1.6,2.3c1.7,0,3.2,1.3,4.8,1.2c2.4-0.1,2.9-2.6,5.5-2.6c1.8,0,3.4,1.3,5.1,1.6
		c1,0.1,1.1-0.8,1.6,0c0.2,0.3-0.7,1.2-1,1.4c0.9,0.2,2.9,1.1,3.7,0.5c0.5-0.3,0.3-1.7,0.5-2.1c0.2-0.4,1.1-0.5,1.1-0.5
		c0.4-1.1-0.5-2.1-0.5-3.4c0-0.6,0.6-1.2,0.5-2.2c-0.1-1-0.9-2.1-1.3-3c1.1-0.2,1.9,0.3,2.3,0.4c0.2,0.1,1.2,0.3,2.1,0.4
		c2,0.1,4.5,1.5,4.4,3.9c1.6,0.2,1.5-1.2,2.5-1.3c1.6-0.2,2.9,1.4,2.5,2.9c1.7-0.4,1.5,0.9,2.5,1.6c1.3,0.9,3.1,0,3.8,1.7
		c0.6,1.4-0.9,3.5,1.6,4.1c0.9,0.2,2.4-1.6,2.7-2.3c1.1,0.1,0.8,2,1.3,2.7c0.7,0.9,1.9,1,2.8,1.4C409,340.3,410.1,341,410,342.6z
		 M295.6,425.6c0.6-0.2,0.7-0.5,0.7-1.2C295.6,424.5,295.6,425,295.6,425.6z"/>
	<path class="st0" d="M431.6,336.9c-0.3-0.8-1.9-0.9-2.5-0.3c-0.2,0.2,0,1.3,0,1.5c-0.3,1.5,0.1,3.2-0.1,4.7
		C431.1,343.1,432.1,338.4,431.6,336.9z"/>
	<path class="st0" d="M431.3,335.7c0.2-2.4-2.4-0.4-2.2,0.4C429.5,336.1,431.3,336.3,431.3,335.7z"/>
	<path class="st0" d="M436.8,335.2"/>
</g>
<path class="st0" d="M150,337.4c0.3,1.6,0,3.5,1.2,4.8c1.3,1.3,2.3,0.6,3.9,0.4c3.2-0.3,4.7,0.1,6.2,2.8c1.3,2.3,2.3,2.7,5,2.7
	c2.8,0,5.5,0,8.5-0.2c2.1-0.2,4.3,0.2,6,1.4c1.3,1,1,2.5,1.3,4.1c0.4,1.7-0.4,1.4,1.9,1.5c0.3,0,2.8,0.2,3,0
	c0.4-0.3-0.3-1.4,0.1-1.7c0.6-0.5,2.2,0.2,3-0.4c1.2-0.8,1-1.2-0.5-1.4c1-2,4.7-3.2,3.7-5.6c1.3,0.1,1-1.1,1.6-1.5
	c1.9-1.2,4.4-1.1,6.4-0.9c1.6,0.2,1,0,2-0.6c1.1-0.7,1.7-1.6,3.4-1.3c2.8,0.4,3,3.5,4.7,5.4c-0.8,0.1-1.5,0.7-1.8,1.4
	c0.7,0,0.6,0.6,1,0.9c0.4,0.3,0.9,0,1.4,0.1c2.3,0.5,5-0.1,7.1-1.1c0.7,0.2,1.1,0,1.2-0.7c0.2-0.6,0.5-1,1-1.4
	c1.4-0.9,2.1,0.6,3.2,0.3c0.8-0.2,1.2-1.8,2.3-1.2c0.9,0.5-0.8,2,0.8,2.2c-0.5-0.1,1.5-0.7,1.5-0.7c0.7,0.1,1.2,0.9,1.8,1.2
	c1.4,0.6,2.2,0.8,3.8,0.4c1.6-0.4,1.2-0.1,1.8-1.1c0.6-1.1-0.4-1.3,0.1-1.7c0.6-0.5,3.1,0.5,3.7,0.6c0.1-1.2,0.2-0.1,1.3-1
	c1.3-1.1,0.2-1.7,2.3-1.2c0.2,0.3,0.4,0.7,0.6,1c0.4,0.3,0.9,0.4,1.4,0.3c2.3,0.9,1.9,1.8,4.4,1.7c1.4-0.1,2.3-0.4,3.7,0
	c1.1,0.3,1.9,0.8,3.1,0.9c2.5,0.2,3.5-1.6,5.5-1.6c0.2,0,1.4,0.6,1.7,0.7c1.6,0.8,1.7,1.8,3.1,3.3c1.2,1.3,1.2,0.9,2.7,0.9
	c0.8,0,1.3-0.7,1.7,0.1c0.4-1,1.5-1.1,1.9-2.7c0.4-1.7-0.3-3.5-0.3-5.2c1.3,0.3,2.2-0.3,2.4-1.5c0.2-0.8-0.6-1.6-0.6-2.4
	c0-1.5,0.3-1,0.7-2.1c0-0.1,0.7-0.3,0.8-0.6c0.2-0.5-0.3-1.6,0-2c0.6-0.6,1.8,0.3,2.5,0.3c0-1.2-0.4-1.6-0.1-2.8
	c0.1-0.5,0.5-1,0.6-1.6c0.4,0.2,1.2,0.3,1.5,0.2c0.2-4.3-0.8-3.5,3.2-4.2c0.4-0.1,0.9-0.5,1.3-0.5c0.5,0,1.4,0.4,1.9,0.4
	c0.2,0,2.6-1.3,3-1.6c0.5-0.4,1.1-1.3,1.6-1.8c0.3-0.3,1-0.3,1.3-0.7c0.4-0.5,0-1.1,0.2-1.6c0.4-0.9,1.3-1.3,1.8-2.2
	c0.3-0.6,0.1-1.3,0.4-1.9c0.4-0.9,1.5-1.1,1.2-2.3c2.2-0.1,4.2,0.2,4.2-2.5c0-1.4-0.8-2.6-1.8-3.5c-0.5-0.5-1.6-0.8-1.9-1.1
	c-0.6-0.6-0.6-1-1.2-1.3c0.1,0-1.7-0.7-2-0.7c-1.4-0.3-2,0.8-3.3,0.2c-1.1-0.5-1.3-2-0.9-2.9c0.4-0.9,2.4-1.5,2.2-2.6
	c-0.1-0.9-1.9-0.7-2.1-1.8c-0.3-1.5,1.8-1.8,2.7-1.6c0.7,0.1,0.7,1.3,1,1.4c0.8,0.3,1.4-0.1,2.2-0.1c2.3-0.2,4.3-0.1,6.5,0.4
	c0.7,0.2,5.8,0.4,6,1.8c0.1-0.3,0.1-1.3,0.4-1.4c0,0,1.4-0.3,1.3-0.2c0.2-0.2,0.5-0.7,0.7-0.8c0.1-0.4,0.2-0.7,0.3-1.1
	c0.4-0.4,0.9-0.6,1.5-0.6c2.1-2-0.5-2.2-0.8-4.2c-0.1-0.7,1.4-1.9,1.7-2.8c0.1-0.2,0.1-0.5,0.2-0.7c0.1-0.3,0.2-0.6,0.2-0.9
	c0.2-0.6,0-0.9-0.7-0.8c0-0.2-0.4-0.9-0.4-1.8c-0.2,0-0.4,0-0.6,0.1c-0.1-0.9-0.1-1.9,0-2.8c2.3,1.3,2-0.4,0.6-1.5
	c-0.8-0.6-0.4-0.8-1.7-0.7c-1.5,0.1-3,0.4-4.6,0.4c0.1,3.2-0.3,0.9-2.3,1.2c0.4-1.9-1-0.8-1.3-1.6c-0.2-0.4,0.2-1.2,0-1.6
	c-0.5-0.6-1.1-0.1-1.9-0.4c-0.6-0.2-0.4-0.3-0.4-1.1c-3.2,0.1-4-0.1-3.9-3.4c-0.8-0.1-1.7,0.3-2.5-0.1c-0.4-0.2-0.9-1.3-1-1.3
	c-0.6-0.2-2.1,0.3-2.4,0c-0.6-0.6,0.8-2.3,0.1-3c-1.3-1.4-1.8,1.4-1.8,2.2c-1.3,0.2-2.1-0.5-2.5-1.5c-0.8,0-1.1,0.6-1.3,1.2
	c-0.1-0.3-0.3-1.4-1.3-1c0.8,1.6-1.1,2.7-0.1,4.4c-1.7,0.1-3.6-0.1-5.3,0.1c-0.9,0.1-2.5,0.9-3.6,0.5c0.9-1.2,0.8-2.4,1-3.9
	c-0.1,0.4-0.4,0.7-0.5,1c0.2-1.1-0.1-1.9-1.3-1.7c0.4,0.6,0.1,0.4,0,1.1c-0.5,0-1,0.3-1.4,0.2c-0.1,0-1.3-1.1-1.3-1.2
	c-0.1,0.3-0.5,0.9-0.6,1.4c-0.2-0.5-0.3-1.2-1-0.9c0.3,0.8,0.3,3.7-1.4,2.7c-0.5-0.3,0.3-1.7-0.2-2c-1.2-0.8-1.3,0.4-1.5,0.5
	c-0.8,0.3-1.2,0.9-2.1,0.8c0-1.2,1.1-1.1,1.6-1.8c0-0.1,0.1-1.3,0.3-1.7c0.7-1.5,1.5-0.6,0.1-2.5c-0.9-1.1-1.6-0.8-1.7-2.5
	c-0.9,0.2-1.8,0.4-1.8,1.4c-0.6-0.2-1.3-0.4-2-0.4c0.3,1.9-1.8,1.7-2.8,2.3c-0.4,0.2-0.4-0.4-0.7-0.1c-0.8,0.6,0.2,1.8-0.3,2.4
	c-0.5,0.6-1.5,0.5-2.6,0.5c-0.8,0-1.9,0.2-2.7,0c-0.4-0.1-0.2-0.8-0.5-1.1c-0.4-0.5-0.4,0.9-0.4,1.1c-1.5,0.1-2.3-0.4-2.7,1.5
	c-4.2-0.2,0.6-3.7,0.7-4.6c-1.6,0-1.9-0.9-3.2-1.7c0.2,1.1,1.4,3.1,0.3,4c-0.2,0.2-4.5,0.2-5.1,0.2c0-0.5-0.2-2-0.5-2.2
	c-1-0.2-1.2,1.1-1.9,1.1c-1.5-0.1-0.1-0.4-0.8-1.4c-0.2-0.3-1.2-0.4-1.2-0.7c-0.3-1.5,0.7-2.4,2.2-2.5c-0.7-1.8-0.1-1.8,0-3.2
	c-1.1,0.4-2.2,1.5-1.9,2.7c-1.5-0.4-1.6,2.3-3.5,1.2c-0.7-0.4,0.5-1.2-0.8-1.3c-1.3-0.2-1.3,1.7-2,2.2c1.6,0.1,1.5,1.2,2,2.4
	c0,0.5,0.1,0.9,0.1,1.3c0.2,0.1,0.5,0.2,0.7,0.2c0.4,1,0.3,1.3,0.4,2.4c0.1,0.9-0.1,1.5,0.4,2.2c0.3,0.4,1.2,0.1,1.4,0.5
	c0.9,1.7,0,3.7,0,5.5c1.4,0,2.2-0.7,2.9-0.1c1,0.8,0.9,2.1,0.7,3.2c-0.2,0-0.7-0.2-0.7,0.1c0.9,0.4,1.5,1.3,2.1,2.1
	c-1.3,0.5-0.6,1.8-1.3,2.4c-0.6,0.6-2.9,1.8-3.7,2c0.2-0.8-0.1-1.4-1.1-1.2c0,0.3-0.1,0.7,0.1,1c-1.5,0-1.5-1-2.3-1.8
	c-0.4-0.4-0.2-0.9-0.7-1.4c-0.5-0.5-1.4,0.1-2-0.7c-0.6,0.6-0.4,3.9-2.6,2.2c-0.5-0.4-0.1-1-0.2-1.8c-0.1-0.8,0.3-1.3-0.3-2.1
	c-0.3-0.4-1.1-0.1-1.4-0.4c-1.7-2-0.1-1.3,0-2.9c0.1-2.3-2.3-4.4-2-6.5c2.6,0.2,3.1-2.3,3.2-4.4c0.6-0.1,0.7,0.1,1-0.6
	c0.4-0.8,0.7-0.2,0.6-1.1c-0.1-0.7-0.9-0.5-1.2-1.1c-1-2-0.7-4.8,1.6-4.8c0-3.2,1.3-2.1,3.8-2.6c1.1-0.2,3.8-0.9,3.9-1.7
	c0.1-0.4-0.8-1.3-0.8-1.9c0,0.2,0.6-1.7,0.4-1.1c0.1-0.6,0.5-0.8,1-0.7c0.3-0.8,0.7-1.5,1-2.3c0.2-0.4,0.6-0.8,0.8-1.2
	c0.7-1.3,1-3,1.6-4.1c0.9-1.7,2-2.5,1.5-4.9c-0.2-1.1-1.1-2.1-1.5-3.2c-0.3-0.9,0.2-1.2-0.4-2c-0.2-0.2-1.8-1.2-2.1-1.4
	c-0.8-0.6-1.4-1.1-2.4-1.1c-0.4,2.7-10.4-3.7-11,2.7c0,0.4-1.4,0.5-2.5,0.5c-1.4,0-2.6,0-3.8,0.8c-0.4,0.3-0.2,1-0.5,1.3
	c-0.7,0.6,0.4-0.5-1.3,0.6c-2.7,1.6-5.4,3-8.2,4.4c-1.9,0.9-2.3,1.6-3.8,2.8c-1.4,1-3,0.8-4.3,2c-1,0.8-1.5,2.1-2.3,3
	c-1.1,1.3-1.7,1.2-3.2,2c-1.8,0.9-0.6,0.2-1.5,1.5c0,0-1,1.4-1,1.4c-0.1,1.2,1.1,2.7,1.4,3.8c0.9,3,1.7,3.7,5,4.1
	c2.5,0.3,4.9-0.8,7.1,0.1c0.3-1,1.9-3.2,3.2-2.1c0.7,0.6-0.8,2.5,1,2.2c0,0.9,0.6,4.4,0,5.3c-0.4,0.5-2.1,0.5-2.9,0.6
	c0.1-0.4,0.1-0.7,0.1-1.1c-1.2,0.7-2.2,1.2-3.6,1.3c-0.8,0.1-3.4-0.4-3.8,0.1c-1.2,1.6,3.6,4.8-1.1,4.8c1.1,2.5,4.6,0.6,4.8,4.2
	c0.1,1-0.3,2.8-1.4,3.2c-1.4,0.5-1.9-1.1-3.1-1.2c0.3,1.4,0,2.8,0.3,4.2c0.1,0.3,0.9,2.1,0.9,2.1c0,1-0.7,1.9-1.9,2.4
	c-0.9,0.4-0.5,0.5-1.9-0.3c0-0.7-0.3-1-1.2-0.9c-0.3-0.2-0.7-0.2-1-0.2c-0.3-0.2-0.2-0.9-0.2-1.3c-1.2-0.3-1.5,0.4-1,1.4
	c-1.6-0.6-5.6-1.8-7.2-1.6c-2.4,0.3-1.1,1.4-2.5,3.1c-0.9,1.2-1.2,1.1-2.5,1.5c0.4,1.7,0.8,2.6-1,3.1c-0.7,0.2-1.7-0.2-2.5-0.1
	c-2,0.4-1.1,0.7-1.9,2.5c-0.6-0.4-1-1-1.5-1.3c-0.4-0.2-2-0.8-2.1-0.9c-0.4-0.4-0.4-0.7-0.5-1.7c-0.1-2.5,0.4-2.7,2.4-2.5
	c1.9,0.2,3,0.3,4.8-0.9c-2.5-0.2-0.9-3.4-1.2-4.8c-0.1-0.4-0.9-0.4-0.9-1.5c0-1,0.7-1.8,1.6-2.1c0.4-0.1,1.1,1.1,1.6,0.6
	c0.2-0.3,0.3-2.1,0.2-2.3c-0.2-0.3-1.5,0-1.8-0.4c-0.3-0.4,0-2.9-0.1-3.3c-1.5-0.1-2.1,0.8-3.4,1.3c-2,0.8-1-0.2-1.9-0.4
	c-1.2-0.3-3.4-0.2-4.7-0.6c-0.5-0.1-1.3,0-1.7-0.5c-1.2-1.5,0.6-1.5,1-2.4c0.2-0.5,0-1.1,0.2-1.7c0.5-0.9,1.1-0.5,0.9-1.8
	c-0.2-1.7-2.3-1.6-3.3-0.3c-0.9,1.1,0.1,2.3-1.8,2.9c-2.5,0.8-2.4-1.4-3.8-2.4c-0.7,1.8,3.8,5.2,2.6,6.3c-0.6,0.6-3.4-1.6-3.4-2.1
	c-0.2,0-0.3,0-0.4,0c-0.3,0.4,0.7,1.4,0.6,1.9c-0.2,1.4-0.4,0.4-0.9,1.4c-0.5,0.9-0.8-0.3-0.8,1.2c0,2.1-0.1,0.1,0.9,1.2
	c0.7,0.8,1,1,1.1,1.5c0.1,0.8-0.6,2.7-1.3,3.3c2.8,0,2.7-0.5,3.1,1.9c0.2,1.3,1.2,2.5,0.9,3.8c-0.3,1.4-1.3,1.9-1.5,3.5
	c-0.2,2.5,0.7,4.7-1.8,6.4c-1.2,0.8-2.7,0.9-3.9,1.5c-2.5,1.1-0.6,1-1.9,2.8c2.4,0.9,4.3,2.1,1.5,3.7c-0.8,0.5-2.9,1.5-3.8,1.7
	c-0.1,0-0.1,0.2-0.3,0.2c0.1,0-2.2,0.1-2,0.1c-1.3-0.5-2.1-3.8-3.5-1.6c-0.2,0.3-0.2,2.4-0.1,3c0.2,1.7,0.3,1.2,1.4,1.9
	c0.8,0.5,0.9-0.4,1.6,0.7c0.4,0.6,0,1.8-0.2,2.4c-0.3,0.7-1.2,1.9-1.8,2.4c-0.8,0.6-1.4,0.4-2.2,0.8c-0.9,0.4-0.8,0.9-1.6,1.5
	c-1.2,0.9-1.9,0.6-3.3,0.6c-0.1,1.5,6.6,1.4,4.2,4c-0.5,0.5-5-0.7-5,1.3c0,0.6,1.6,1.9,1.8,2.9c0.2,1.3-0.7,1.8-0.4,3.3
	c0.5,2.5,1.8,0.9,3.1,1.1c0.8,0.1,1.9,0.9,2.7,0.8c1.4-0.1,0.8-0.8,1.6-1.2c2.4-1,1.6,0.6,3.6,1.3c-0.3,0-0.4,0.1-0.4,0.4
	C149.4,337.4,149.7,337.4,150,337.4z"/>
<path class="st0" d="M239.2,265.7c-0.5,0-0.6,0.8-0.6,1.3C239.1,266.7,239.3,266.3,239.2,265.7z"/>
<path class="st0" d="M276.9,269.7c-0.2,0-0.5,0.2-0.6,0.3c0,0.1,0.2,0.3,0.4,0.2C276.8,270.2,276.9,270,276.9,269.7z"/>
<path class="st0" d="M209.5,348.2c0-1.6-1.1-1.2-2.3-1.3c0.2,0.8,0.4,1.6,0.9,2.3C208.2,348.6,208.9,348.2,209.5,348.2z"/>
<path class="st0" d="M264.7,407.1c0.1,0.1,0.3,0.2,0.4,0.3c-0.2,0.1-0.5,0.3-0.7,0.4c1.4,0.9,1.2,1.7,3,1.8c1,0-0.1-0.9,1.7-0.4
	c0.4,0.1,1.8,1.6,2,1.9c1.2,1.4,1.9,2.9,2.6,4.5c0.1,0.4,0.4,0.9,0.5,1.2c0.2,1.1-0.3,1.7-0.3,2.6c0.8,0.3,1.5-1.1,2.6-0.8
	c0.6,0.2,0.3,0.6,0.5,1.4c2.2-0.4,1-0.4,1.4,1.3c0.2,0.7,0.7,1.4,0.9,2.3c0.3,0.9-0.1,1.9,0.1,2.8c0.7,2.4,1.8-0.2,3.6-1.1
	c0.9-0.5,1.1-0.1,2-0.6c0.8-0.5,1.9-1.8,2.4-2.6c0.6-1.3,0.2-3.3,0.8-4.3c0.7-1.2,3-1.7,4.1-2.2c1.8-0.9,2-3,3.5-4.5
	c0.7-0.7,2.1,0.5,1.3-1.4c-0.2-0.6-1.3-1-1.9-1.3c3.2-1.2,6.4-1.1,5.9-5.5c3.2,1.1,0.6-5.9,0.5-7.6c-0.1-1.6-0.2-5.4-3-4.5
	c-0.2-2.6,1.8-4.7,0.3-6.6c0.2,0.3-1.9-1.4-1.4-1.1c-0.3-0.2-1.3,0.3-1.6,0c-0.9-1.1-0.5-3.8,0.2-4.9c1.1-1.9,3.1,0.1,5.2,0.1
	c1.2,0,3.8,0,4.5,1.3c0.2,0.4-0.5,3,0.4,3c0.1-1.7,3.2-2,4.3-1.3c1.1,0.7,0.7,0.7,0.8,2.4c1.2,0,1.5-1.4,1.4-2.3
	c-0.1-2-1.2-1.1-2.9-1.3c-4.9-0.7-2.8-3.8-2.5-7.6c0.2-2.6-1.5-2.9-1.7-5.3c-0.1-1.5-1.1-7.8,0.6-8.1c2.2-0.3,1.5,3.7,3.4-0.1
	c0.6-1.1,0.7-4.4,1.4-5.2c0.6-0.7-0.3-0.2,1.6-0.4c1.8-0.2,3.8,0.1,5.6,0.2c0.9,0,3.5,1.1,4.1,0.8c1.1-0.5,0.5-2.9,1-3.8
	c0.8-1.4,2.3-1.1,3.7-1.1c-0.3-1.8-1.4-1.9-0.8-4.2c0.4-1.3,1.2-1.5,1.7-2.4c0.3-0.4,0.2-1.1,0.4-1.7c0.5-1.5,1.2-2.2,2.6-3.1
	c-0.5-0.8-1.6-1.6-1.5-2.7c0.1-1,0.9-0.9,1.3-1.6c0.5-0.8,0.1-1.1,0.9-2c0.7-0.9,2-1.4,3-2.1c1.3-0.9,4.2-1.7,4.7-3.1
	c0.4-1.1-0.2-2.2-1.2-2.6c2.2,0.4,2.4-2.1,3.9-3.3c1.2-0.9,1.6-0.8,2.2-2c0.3-0.7,0.3-2.1,0.5-2.9c-2.2,0-4-0.7-5-2.7
	c-0.3-0.5-0.3-1.5-0.5-2.4c-0.3-1.2-1.1-1.2-1.2-1.7c-0.6-1.7,1.1-4.7,0-6c-0.9-1.1-2.2,0.3-3.3-0.7c-0.5-0.5-0.7-1.5-1-1.9
	c-0.2-0.4-0.8-1.3-1.2-1.8c-0.9-1.3-2.3-1.6-3.3-2.8c-1.3-1.7,0-3.5-2.9-3.8c0.1,0.2,0.1,0.4,0.1,0.6c-1-0.2-1.9,0.5-2.4,1.1
	c-1.1,1.8,0.3,3.3-2.8,3.8c-0.9,0.1-2.7,0.2-3.5-0.2c-0.8-0.3-0.7-1-1.4-1.3c-1.7-0.7-1.2-0.1-2.4,0.5c-0.5,0.2-1.2,0-1.7,0.4
	c-0.5,0.5-0.1,1.5-0.8,2.1c-0.5,0.4-1.1,0.1-1.6,0.4c-0.4,0.3,0.2,1.1-0.6,1.4c-0.9,0.4-0.7-0.6-1-0.6c-0.4-0.1-2.1-0.6-2.7-0.6
	c-0.5,0-2.1-0.1-3-0.1c0.2-1.6-4.1-1.2-5.3-1.1c-1.2,0.1-2.4,0.7-3.6,0.1c-0.6-0.3,0.2-1.9-1.5-1.3c-1.9,0.6,1,1.4,1.2,1.8
	c1,1.8-1,2.1-1.7,3.4c-0.5,1-0.7,2.1,0.7,2.4c0.2,0.1,1.5-0.8,2.1-0.7c0.8,0.1,1.2,0.7,1.8,1.1c1.1-1.3,2.6,0.8,3.6,1.8
	c2,2,4.3,6.5,0.2,7.8c-1.6,0.5-2-0.2-3,1.5c-0.4,0.7-0.3,1.7-0.7,2.4c-0.3,0.5-1,0.8-1.3,1.3c-0.3,0.6-0.2,1.7-0.5,2.3
	c-0.5,0.8-1.2,0.7-1.8,1.2c-0.7,0.6-0.9,1.2-1.7,1.8c-1.6,1.3-2.4,1.3-4,1.5c-1,0.1-2,0.3-3.1,0.5c-2.9,0.5-1.3,0.1-2,2.7
	c-0.4,1.7,0.1,0.7-0.4,1.4c-0.9,1.4-1.2-0.8-1.9,1.2c-0.2,0.5,0.2,0.6,0.2,0.8c-0.1,2.7,0.5,2.2-2.4,1.7c-0.1,3.3-0.5,1.3-1.5,3.2
	c-1,1.7,2.7,5.4-1.8,5.6c0.8,3.6,0.6,6.8-3.4,7.6c3.1,0.4,1.4,3-0.3,4c-0.7,0.4-1.5,0.6-2.2,1c-0.2,0.1,0-0.7-0.4-0.7
	c0.2,0.9,0,2.4,0.3,3.2c0.4,1,0.9,0.5,1.5,1.2c2.4,2.5,0.2,4.3-0.2,7.2c3-0.8,2.1,0.4,1.9,3.2c-0.1,1.9-0.2,2.5-1.7,3.6
	c-1.3,0.9-2.5,0.5-2.3,2.6c3-1.2,4.5,5,0.8,4.9c0.1,0.4,0.6,0.8,0.5,1.3c-0.1,0.4-0.7,1-0.8,1.3c3.7-2.7,3.9,2,5.1,3.8
	c-0.7-1.1,2.3,1.4,1.3,0.9c0.9,0.4,2.2-0.2,2.9,0.9c0.9,1.4-0.3,1.3-0.4,2.4c0.4,0.2,0.7,0.3,1.1,0.4c-0.9,0.6-1.1,1.6-1.8,2.2
	c-0.9,0.7-1.2,0.8-2.3,0.9c-2,0.1-2.3-1.2-3.7-2c-1,1-2.8,1.9-3.6,2.9c-0.5,0.6-0.8,1.8-1.1,2.7c-0.6,1.8-0.3,1.9,0.5,3.6
	C267.3,405.8,262.8,405.4,264.7,407.1z"/>
<path class="st0" d="M112.7,372.1c0.3-1.6,1.2-0.9,2.2-1.5c1.1-0.7,2-2.6,3.9-2.1c1.7,0.4,2.2,1.7,0.9,2.7c-0.3,0.3-1.3,0.2-1.8,0.6
	c0,0.7,2.2-0.4,2.6-0.3c0.8,0.2,0.1,0.9,1.2,1c0.5,0.1,1-0.2,1.3-0.3c0.3-0.6,0.4,0,0.8-0.4c0.4-0.4,1.2-2.5,1.4-3.3
	c0.3-1.2,1.7-5.7-0.5-5.7c1-1.8,0.3-2.5,2.4-1.9c0.1,0,1,1.1,1.2,1.2c0.4,0.2,1.2-0.2,1.5,0c0.4,0.3,0.1,0.9,0.4,1.1
	c0.8,0.6,1.3,1,2.6,0.4c2.3-1.1-0.2-0.6,0.7-2.2c0.5-0.9,2-0.1,2.5-0.7c0.2-0.3,0-1.8-0.1-2.1c-0.3-1.7-1-2.6-2.3-3.6
	c-0.7-0.5-1-0.7-1.8-1.1c-0.3-0.2-0.9,0.1-1.2-0.1c-0.6-0.3-1.2-1-0.6-1.6c0.4-0.4,2.6-0.1,3.4-0.4c1.6-0.8,0.8-1.1,1.8-2.3
	c0.7-0.9,1.5-0.3,2.3-0.9c0,0,1.4-1.2,0.8-1c0,0,1.2-0.3,1.2-0.3c1.8-1.4,3.3-0.7,5.3-1.5c-1.1-0.9-2.5-1.3-3.9-1.1
	c-1.1,0.1-1.8,1.1-2.7,1.2c-1,0.1-2.8-1.6-2.9-2.4c-0.1-1.1,1.1-1.7,1-2.6c-0.1-0.9-1.8-1-1.2-2.1c0.1-0.3,0.2-0.1,0.3-0.3
	c0.1-0.1,1.8-0.1,2-0.2c0.7-0.3,0.6-1.1,1.5-1.3c-2.2-2.1,0.1-3.9-1.2-6.1c-0.8-1.3-1.7-1.5-0.6-3c1.1-1.3,3.2-1,4.6-1
	c-0.1-2.2-4-0.5-4.5-2.8c-0.4-2,1.1-0.7,2.3-1.1c1.4-0.4,1.1-1.5,2-2c0.2-0.1,1.5-0.3,1.4-0.3c0.4-0.3,1.1-0.2,1.6-0.5
	c0.7-0.5,2.2-2.3,1.9-3.4c-0.4-1.6-2-0.5-2.9-2.1c-0.7-1.1,0.3-2.6-0.1-3.7c-0.6-1.9,0-0.6-1.4-1.3c-1.2-0.6-1.3,0.5-2-1.1
	c-0.1-0.2,0.4-1,0.4-1.2c-1-1.8-1.5-0.8-3.2-1.4c-0.9-0.3-1.3-1.3-2-1.7c-2.8-1.3-3.5,0.5-3.9-3.3c-0.1-0.8,0.4-1.2-0.3-1.6
	c-0.4-0.3-1.3,0.7-1.6,0.6c-0.8-0.3-0.5-1.5-0.8-2c-0.3-0.7-0.7-0.8-1.1-1.3c-0.9-1.2-1.8-0.7-0.8-2.7c0.4-0.9,1.9-1.5,2-2.6
	c0.1-0.6,0-1.9-0.8-2.1c-0.9-0.3-0.6,0.8-1.4,1c-1.3,0.5-1.1,0.5-2.1-0.4c-0.1-0.3-0.1-0.7,0-1.1c-0.6-0.1-1-0.3-1.4-0.7
	c-1.1-2.1-0.7-3.9,1.5-5c-1.8-0.1-1.1-0.9-1-2.6c-2.6-0.4-1.3,0.1-2.3,1.4c-1.8,2.3-1.2,0.8-2.9,0.5c-1-0.2-2.6,0.3-3.3-0.1
	c-0.4-0.2,0.1-1.4-0.2-1.8c0,0.1-2.4-1.7-2.3-1.8c-0.6,0.9-1.1,1.7-2.1,1.9c0-0.6-0.1-1.3-0.4-1.9c0-0.1-1.8-2.6-1.7-2.5
	c-1.6-1.2-4,0.6-4.2-2.6c-0.9,0.1-2.7,3.2-3.6,1c-1,0.6,0.1,2.7-1.9,1.3c-1.2-0.8-0.6-1.5-2.2-1.9c-0.9-0.3-3-0.6-4-0.7
	c0,0-1.3,0.1-1.3,0.1c-0.4,0-0.7,0.1-1.1,0.1c0,0.3,0,0.5,0,0.8c-0.1,0,0,0.3-0.3,0.4c-0.5,0.1-1.2,0.3-1.7,0
	c-0.3-0.2-0.7-1.4-0.9-1.5c-0.6-0.3-2.1-0.1-2.3,1.1c1.1,0.2,0,1.8,0.1,2.4c0.4,1.7,0.9,1,2.8,1.1c-0.3,2.2-3.8,1.5-5,2.3
	c-0.5,0.3-0.4,1.5-0.7,1.6c-0.5,0.3-1.8,0.1-2.4,0.1c-1.8-0.1-2.9-0.3-3.2-2.1c-0.4-2.3,0.7-2.5-2.2-2.4c-1.7,0-2.5,0.5-4,1.1
	c-1,0.4-2.2,0.3-3.1,0.8c-1.2,0.5-2,2.1-3.2,2.5c-1.7,0.6-4.7,0.2-6.1-1c-0.9-0.8-1.1-1.9-2.2-2.3c-0.6-0.3-2.9-0.3-3.5-0.2
	c-1.1,0.1-1.2,0.3-2.2,0.4c-0.6,0.1-2,0.1-2.7,0.1c-1.2,0-2-0.6-3-0.7c-1.5-0.2-1.5,1.1-2.2-1c-0.9-0.1-1.4,1.6-1.5,2.2
	c-1.3,0-0.4-2.7-1.4-3.1c-0.1-0.1-1,4.7-1,5.1c-0.1,0.7-0.1,2.4-0.6,3c-0.6,0.6-4.2,0-5,0c-3,0-5.5-1-6.9,2.1
	c-0.8,1.9-3.4,7.2,1.6,5.8c1.5-0.4,0.8-0.5,1.6-1.5c0.9-1.1,0.6-1.1,2-1.7c0.9-0.4,1.7,0,2.7-0.5c0.6-0.3,1.5-1.7,2.2-1.5
	c-1.1,1.8-0.8,1.8-2.7,2.8c-0.5,0.3-2.7,0.9-3,1.3c-0.5,0.6-0.6,2.5-0.3,3.2c0.2,0.5,1,0.4,1.6,1c0.4,0.5-0.7,0.9-0.9,1.1
	c0.5,0,2.4,0.3,2.6,1.1c0.1,0.5-1,1-0.8,1.8c0.8,0,0.7-1.1,1.5-1.1c0.1,0.7-1,1.9-0.8,2.3c0.6-0.3,1.3-1.5,2.2-1.3
	c0,0.2-1.2,2-1.6,1.9c2.3,3,5.5,4.4,8.6,6.7c1.4,1.1,2.5,2.5,4.2,3c0.6,0.2,1.3,0,1.9,0.2c1.8,0.5-0.9,0.7,1.9,1
	c0.5,0,2.2-0.2,3.1-0.1c2.4,0.3,3.3-0.4,5.1-0.9c1-0.3,2.2,0.2,3.2-0.3c0.6-0.2,0.8-1,1.4-1.2c0.3-0.1,5.1-1.3,1.6-1.4
	c-0.2-1.6,1.5-0.4,1.7-0.5c0.1,0.3,0.2,0.4,0.5,0.5c0.6-0.1,0.8-0.5,0.7-1.1c1-0.6,1.3-1.5,2.7-1.3c0.7,0.1,0.5,2.3,2.2,0.9
	c-1.2,2-2.1,3.1-3,5.3c-0.8,1.8-2.7,2.6-3.8,4.4c-0.4,0.2-0.5,0.6-0.5,1.1c0.1,0.9-0.3,1.2-1.2,0.7c0.1,0-1.7,0.3-1.4,0.4
	c-1.8-0.3-1.6-1.4-3.8,0c2,0,0.6,1.8-0.5,2.4c-1.6,0.9-1.1-0.6-2.4-0.5c-1.4,0.1-2.4,2.1-3.4,2.2c-0.2-1.5-2.2-0.7-3.5-0.6
	c0.5,0.1,0.6,0.4,0.3,1c-0.5,0.1-0.9-0.6-1.1-0.5c-0.2,0-1.2,0-1.6,0c-1.3,0.1-2.3,1.1-3.5,1.4c0.1-0.7,1-0.5,0.9-1.3
	c-2.1,0.2-0.2-2.1,0.2-2.8c-0.3,0.2-3.3,0.7-3.6,0.3c-1-1.1,1.3-1,1.3-1.8c-1.4-0.1-3.1,1.6-3.2,3.1c-0.1,1.5,2.8,5.3,3.7,6.5
	c1.8,2.6,4.1,5.3,6.4,7.5c1.1,1.1,2.4,2.1,3.4,3.2c0.8,0.9,1.9,3.4,3.4,3.3c-2.4,2.3,14.7,15.5,17.8,15.9c0.8,0.1,1.1-0.5,1.8-0.5
	c0.5,0,1,0.6,1.5,0.7c-0.1,0,2.8,0.6,2.5,0.6c0.8-0.1,1.7-1,2.4-1.3c1.7-0.5,4.1-0.6,5.7-1.3c0.6-0.3,1.2-1.1,2-1.4
	c0.6-0.2,2.2,0.3,2.2-0.9c-0.6,0-1.4,0.1-1.7,0.8c-0.7-1.1,1.7-1.4,2.2-1.4c1.9-0.2,2.9-0.5,4.6-1.2c1.5-0.6,2.7-0.8,4-1.9
	c0.3-0.3,0.7-0.5,1.2-0.4c0-0.4,0-0.8,0-1.3c0.2-0.3,0.8-1.1,1.2-1.6c1.1-1.4,2.4-2.4,2.8-4.2c0.3-1.4,0.4-2.8,0.5-4.2
	c0.1-1.2-0.5-2.2-0.6-3.2c-0.1-1.7,0.9-3.5,2-4.7c-0.6,0.1-1.1,0-1.6-0.3c0.3-0.2,1-2,1.1-2c0.7-0.3,1.4,0.8,2,0.8
	c0.2,0,1.8-0.7,1.8-0.7c0.4-0.9-1.7-0.5-2-0.5c0-0.1,1.9-1.5,2-1.5c1-0.1,1.8,0.6,2.6,1c2.5,1.2,3.7,0.3,6.3,0.3
	c-2,1-2.2,2.8-4.8,1.5c-1-0.5-1.4-1.7-2.5-1.1c-1,0.6-0.3,2.4-1.3,2.9c1.5,1.2-1.2,3.3,0.7,4c1.3,0.5,3.2-1.6,4.9-0.6
	c-1,0.4-1.8,0.9-2.9,1.1c-0.5,0.1-1.3-0.3-1.7,0c-0.9,0.6-1.5,3.7-1.1,4.9c0.9,0.2,3.9-0.1,3.9,1.1c-1.2,0.1-2.4-0.2-3.6,0.2
	c1.1,1,0.5,1.5,2.4,1c1-0.2,1.4-1.6,2.5-1.1c-0.8,0-3.4,3.3-3.7,4.1c0-0.1-0.4,2.2-0.4,2.5c-0.1,0.4,0.2,1.1,0.2,1.3
	c0,0.3-0.4,1.2-0.3,1.7c0.3,0,2-0.3,2,0.4c-0.6,0.1-1,0.5-1.3,1c0.8,0,1.7,0,2.5-0.1c0.2,0.8-1.1,0.5-1.6,0.9
	c0.7,0.3,0.5,1.3,0.5,1.9c0.8-0.1,1.6-0.1,2.4-0.1c-0.7,1.6-0.5,1.1-2.4,1.7c0.8,1.4,0.8,1.8,2.5,1.9c0.1,0.6-0.2,0.9-0.8,0.9
	c-0.9,0-1.1,0.5-0.8,1.5c-0.4,1.3,0,2.6-0.6,3.9c1.4,0.2,1.4,1.2,0.5,2c-0.7,0.7-1.5,0-2.1,0.5c-0.4,0.3,0,1.4-0.4,1.6
	c-0.3,0.2-1.5,0.3-1.6,0.7C110.6,371.3,111.4,372.1,112.7,372.1z"/>
<path class="st0" d="M124.3,467.1c-1.9,0-1.7-0.2-2.4-2c-0.6-1.4-1.5-2.4-2.1-3.7c-0.6-0.2-1-0.7-1.2-1.2c0.6-0.4,0.9-0.9,1-1.5
	c0-0.1-0.7-2.3-0.8-2.6c-0.6-2.5-1.3-5.2-1.5-7.8c-0.2-2.1,0.9-5.5-0.6-7.3c0.6,0.2,0.9,0,1-0.7c-1.4-0.1-0.5-0.9-0.6-1.8
	c0-0.1-0.3-1.1-0.3-1c-0.1,0.6,0.1-2.3,0.4-1.1c-0.3-0.9-0.7-1.1-1.1-1.9c-0.6-1.3,2.5-1.4-0.6-1.6c1-1.1,0.4-2.4,0.3-3.7
	c-0.2-2-0.7-1,0.6-2.4c-1.5-1.3-0.7,1.1-1.3-1.6c-0.3-1.4,0.1-2-0.5-3.5c-0.4-1-2.1-2.8-0.2-3.5c-1.5,0.5-0.9-2.4-2-2.4
	c0.4-1,0.6-1.4,0.4-2.2c-0.3-0.9-1.3,0.2-1-1.5c0.7,0,2.3-0.4,2.4,0.6c0-0.6,0-1.1,0.1-1.7c-0.8-0.2-0.9,0.7-2,0.6
	c0.3-0.3,0.4-1.3,0.2-1.6c-0.3-0.1-0.6-0.2-0.9-0.3c-0.1-0.6-0.1-1.1,0-1.7c0-2.4,0.3-1,1.4-1.3c-0.9-0.9-2.6-3.9-2.3-5.2
	c0.7-3,2.2,0.1,3.9-1.3c-1.6-0.8-3.4-1.1-2-3.1c0.5-0.7,1.4-0.7,1.7-1c0.9-1.1-0.1-1.6,0.1-3c-0.9-0.1-0.3,1.6-0.6,1.9
	c-0.5,0.6-1.3,0-1.8,0.5c-0.6,0.6-0.3,2.9-1.5,2c-0.6-0.5,0.3-1.3,0.3-1.6c0-0.5,0.1-1.1,0.1-1.4c0-0.9-0.7-2.1-0.6-3
	c0.4-2.4,1.1-0.8,2.9-2c-1.7-0.2-3.4,0-3.1-2.3c0.2-1.8,1.3-0.9,2.3-2.2c-1.3-0.6-1.7-2.1-1.8,0.3c-2.4,0.2-0.7-1.8-0.8-3.3
	c-0.1-1-0.5-0.3-0.6-1.7c-0.1-1.1,0.1-2,1.2-2.1c-1,0.2-1.6-5.1,0.9-1.6c0.2-1.8-2.9-3.3,0-4.1c0.5-0.1,1.3,0.4,1.9,0.1
	c0.3-0.1-0.1-1,0.3-1.1c0.2-0.2,0.4-0.3,0.7-0.3c1.1-0.4,1.5,0,1.1,1.2c0.6,0.7,0.5,1.4,1.5,2c1,0.6,3.2,0.6,4,0.1c0-0.5,0-1,0-1.5
	c0.2,0,0.4,0,0.6,0c0.2-0.2,1.8-0.5,2.2-0.8c1.6-1,0.6,0.7,1.2-2.1c0.3-1.3,0.8-2.3,1-3.7c0.2-1,0.7-1.4,0.6-2.5
	c-0.1-1.4-0.8-1.7-0.4-3c-0.2,0,3,1.9,2.9,1.7c0.2,0.2,0.2,1.1,0.3,1.3c0.5,0.4,1.5,0.6,2.1,1.5c0.2-2.5,4-0.5,2.7-3.8
	c2-0.5,2.1,0.2,2.6-1.6c0.4-1.5-0.4-3.5-1.4-4.6c-0.5-0.6-1.7-1.7-2.4-2.1c-0.1-0.1-2.5-0.3-2.6-0.5c1.6,0,3.8-0.1,4.8-1.5
	c0.6-0.8-0.1-1.2,0.9-1.9c0.7-0.5,1.9-0.1,2.7-0.5c0.2-0.1,0-0.9,0.2-1c0.3-0.2,2.1-1.2,2.4-1.3c0.8-0.2,2.2,0,3.1-0.1
	c0.8-0.1,1.3-0.3,2.2-0.2c-1.5-1.3-2.7-2.3-4.7-2.6c-1.7-0.2-4.1,1.5-5.1,0.9c-1.6-0.9-0.1-2.4,0-3.1c0.1-0.6,0.1-1.4,0-2
	c0-0.3-1.2-0.1-1.3-0.5c2.5,0.1,3.7-2.4,6.4-2.4c0.7,0,1.2,0.6,1.8,0.6c1.9,0.2,1-0.3,2.5-0.9c1.2-0.5,0.9-0.7,2.1,0.6
	c1.1,1.3,0.6,3,1.7,4.6c1.4,2.3,2.7,1.6,5.1,1.4c1.9-0.2,3.5-0.2,4.9,1.3c1,1.1,1,3.1,2.5,3.8c1.9,0.9,5.3,0.3,7.4,0.6
	c3.4,0.5,6.4-1.2,9.1,0.7c1.7,1.2,2,0.9,2.2,3.5c0,0.5-0.4,1-0.3,1.2c0.8,1.6,7.2,2.2,6.8-0.5c1.2,0.1,3.8-0.1,3.9-1.6
	c0-0.4-0.9-1.8-0.9-1.5c0.1-0.8,1-0.8,1.4-1.2c0.1-0.1,0.3-0.2,0.4-0.3c1.7-1.4,1.8-3.3,3.6-4.3c1-0.6,5.5-2.7,4.5,0.2
	c0.8-1.3,1.6-0.3,2.6-0.9c1.4-0.8,0.5-1.9,2.6-2.1c1.4-0.1,4.4,1.9,3.8,3.5c-0.4,1-2.8,0.4-3.5,0.4c0.6,1.5,0.8,4.1,2.8,4.3
	c-0.6-2.3,0.7-0.7,1.2-0.6c2.2,0.1,4.1,0.8,6.5,0.1c1.1-0.3,3.5-0.8,4.2-1.4c1.5-1.3,0.4-1.6,2.7-1.7c1.3,0,1.8,0.9,2.6-0.7
	c0,0-0.1,1.5,0.1,1.6c0.1,0.5,0.4,0.7,0.8,0.7c0.4,0.2,0.8,0.1,1.2-0.3c18.4,3.1-19.2-4.9,1.3-0.3c0.5,0.1,1.2,1.1,1.7,1.3
	c1,0.4,4.9,0.6,5.8-0.2c0.7-0.5,0.3-1.3,0.3-2.5c1.4,0.1,2.8,0.6,4.2,0.7c-0.9-1.3,0.5-0.5,0.9-1.1c0.4-0.5,0-1.5,0.7-1.7
	c-0.1,0,2.2,1.6,2.5,1.7c0.5,0.2,1-0.1,1.5,0.2c0.4,0.2,0.3,0.8,0.6,1c1.3,0.8,1.9,0.6,3.5,0.4c2.8-0.3,5,1.5,7.9,1
	c1.3-0.2,2.6-1.4,3.3-1.4c0.8,0,2.4,0.6,2.9,1.2c0.8,0.8,1.1,2.2,2,3c1.1,0.9,2.6,0.5,3.6,1.1c2.2,1.5-0.4,2.3-1.9,3.4
	c-0.3-1.2-1.6-0.7-1.9-0.3c0,0,0.4,3.5,0.4,3.6c0.5,1.4,1.1,0.9,1.7,1.7c2,2.8-0.7,3.4-0.3,6.4c0.2,1.6,0.3,0.9,2.1,0.6
	c0,1.1,0.2,3.6-0.3,4.6c-0.6,1.2-1.6,1.1-2.4,1.6c-1.2,0.7-1.7,1.9-1.5,3.8c1-0.6,2.2-0.5,2.8,0.6c0.1,0.2,0.1,1.5,0,1.7
	c-0.4,1-0.6,0.4-1.1,0.9c-0.1,0.1-0.8-0.1-0.9,0c-0.4,0.5,0.3,1.3,0.3,1.6c-0.2,0.9-1,1.8-0.2,2.8c3-1.6,2.9-0.6,4.2,1.8
	c0.4,0.8,1.5,2.3,2.1,2.6c0.8,0.3,2.4-0.3,2.8,0.8c-0.1-0.1-0.6,2.5-0.5,2.4c-0.9,2.1-2.6,2.4-4.7,1.1c-1.5-0.9-0.9-1.2-2.3-0.5
	c-0.8,0.4-1.4,1.5-2.2,2c-0.9,0.7-0.7-0.2-1.2,0.4c-0.7,0.9-0.3,1.4-0.7,2.2c-0.4,0.9-1,1-1.1,2.3c0,0.5,0,1.3,0.3,1.8
	c0.1,0.2,1.5,1.3,1.5,1.4c0,0.9-4.4,2.3-2.1,3.6c-1.7,0.7-5-0.2-5.7-2c1.4-0.6,0.1-3.2-0.4-4.4c-0.3-0.7-1.1-0.1-1.2-1
	c-0.1-0.6,1.1-1.6,1.4-2.1c0.4-1,0.5-2.9,0.7-4c0.4-3.3-0.8-2.8-3-4.4c-1.4-1.1-2-1.9-4-1.4c-2.5,0.6-0.2-0.8-1.8,1
	c-0.8-2.3-1.8,0.9-1.7,0.9c-0.8,0-1.1-0.8-0.9-1.6c-0.9,0.2-1,0.2-0.9-0.7c-0.9,0-2.2,0.2-2.5-0.8c0.2,0.7-0.4-0.4-0.5-0.4
	c-0.9,0.2-1.6,2.4-1.2,3.3c-2.2-1.3-2.6-0.8-5.1-0.7c-0.1-1,1.6-2.1,1.1-2.9c-0.3-0.5-2.3-0.1-2.8-0.1c-0.1-3.6,0-3.1-3.8-3.4
	c-0.7,0-1.6,0.1-2.2,0c-1.3-0.2-0.9-0.1-2.1-0.7c-1-0.5-2.2-1.1-2.9-2c-0.2,0.4-1.2,1.1-1.2,1.2c-0.2,0.9,1.3,1.5,1.3,2.3
	c0,1-1.1,1.4-1.3,2.3c0.1-0.2,0.3,1.7,0.3,1.6c0.3,2.9-1,2.9-3.2,3.7c-2.1,0.8-0.6,1.1,0.6,2.9c-1.1,1.1-2.3-0.3-3-0.7
	c-0.5-0.3-0.1-0.9-0.4-1.1c-1.7-0.8-2.3,0.8-2.6,1.8c-0.3,1.1-0.7,2.3-1.2,3.1c-0.9,1.5-1.4,0.7-0.6,2.5c0.6,1.2,1.1,2.5,2.3,2.6
	c-0.1,0.8-2.5,2.2-3,3.1c-0.5,0.7-0.9,3-1.3,3.2c-0.4,0.3-2.1-0.1-2.6,0.1c-0.2,0,0.2,1.1-1.1,0.7c0.2,0.3,0.7,3.1,0.7,3.4
	c-0.3,2-0.9,0.2-2.4,0.4c-0.9,0.1-0.6,0.3-1.4,1c-0.9,0.8-2.2,2.7-3.3,3.2c-1.6,0.7-4.5-0.8-5.1,2.1c2.3,0.2,0.1,1.4,0,1.7
	c-0.5,1,0.3,1.1-0.8,1.8c-0.9,0.6-2.3,0.6-2.1-0.7c-2-0.4-1.2,2.2-0.2,3c-0.5,1-1.8,0.8-2,2.3c-1.1-1-0.7-1.8-2.9-1.4
	c-1.7,0.3-2.4,1.6-2.6,3.2c-1,1.1-1.8-1.4-2.6,0.6c-0.1,0.2,0,2.3,0,2.7c0.1,1,1.2,2.1,0.8,2.8c-1.7-1.4-3.9-1.2-5.9-1.9
	c-0.1,0-2.2,0.9-3.3,0.1c-1.2-0.8-0.8-1.3-2.5-1.8c0,0-0.7,0.2-1,0.1c-0.8-0.2-0.5-0.7-1.3-1.1c-2.4-1.1-1.9-0.6-2.2,1.1
	c-0.3,1.5,0.4,2.7,0.4,4c0,1.3-0.7,1.3-0.6,2.9c0,0.6,0.4,1.2,0.4,1.9c0,2.6-0.1,0.4-1.4,0.2c-1.2-0.1-1.1,0.2-1.1,1.3
	c-1.6,0-4.9-1-6.3,0.1c-0.4,0.3,0.3,1.3,0.1,1.5c-1.5,0.8-1.9-0.4-3-1c-1.7-0.9-3.8-0.6-5.6-0.4c2.2,0.3,1.2,1.8,0.6,2.6
	c-1,1.3-0.7,1.1-2.3,1.8c-0.8,0.3-4.6,1.5-3.4,3c-0.4,0.1-0.9,0.2-1.3,0.3c-0.1-2.3-3.7-2.3-3.8-0.1c-1,0.1-1.9,0.1-1.9,1.3
	c-0.5-0.2-1.5-1.2-1.9-0.6c-0.9,1.3,1.6,2.4,1.9,3.4c0.1,0.5-1.9,1.7-0.5,3c1.2,1.2,1.6-1,2.9,1.4c1.7,3.2-3.3,1.1-2.4,3.5
	c0.9,2.4,2.9-0.6,1.1,2.8c-0.5,1-0.7-0.1-0.7,1.8c-2.6-0.4-2.6,0.4-5.2,1.9c-1.3,0.7-0.6,1.6-2.6,0.6c-0.6-0.3-1-0.8-1.5-1.1
	C127.2,467.1,126.1,467.1,124.3,467.1z M210.1,346.4c-0.1-0.1-0.2-0.3-0.3-0.4C209.7,346.3,209.7,346.6,210.1,346.4z"/>
<path class="st0" d="M132.9,484.8c0-0.3-0.1-0.7-0.2-1c0.8,0.1,1.3,0.6,2.1,0.8c-0.1-0.9,0.8-2,1-3.1c0.1-0.8-0.1-0.8,0.3-1.2
	c0-0.5-1.4-0.9-1-1.8c0.3-0.6,1.9,0.2,1.8-1c-0.1-1-1.3-0.7-1.5-1.3c-0.4-1,0.9-2.1,0.2-3.1c1.3-0.5-0.4-2.3-1.3-2.7
	c-0.5-0.2-1.5,0-2.1-0.1c-1-0.2-1.9-0.8-2.9-0.9c0.3,0.1-0.9-1.1-1.3-1.3c-1.4-0.5-3.3-0.3-4.8-0.2c0.9,2.1,1.4,5.3,4.4,5
	c-0.5,0-1.5,0-1.7,0.6c-0.3,1.1,2.3,0.5,2.7,1.1c-0.7-0.1-1.4,0-2,0.2c1.2,2.2,1.4,4.4,2.1,6.2c0.2,0.5,1.4,2.1,1.7,2.5
	C131.4,484.9,130.8,484.9,132.9,484.8z"/>
<path class="st0" d="M207.8,415.4c-0.9,1.5,3.1,1,3.5,1.4c0.9,0.8-0.3,1.2-0.6,1.2c-0.1,1.2,0.4,2.3,0.2,3.6c0,0.1-0.7-0.1-0.7,0.1
	c0,0.4,0.4,0.9,0.3,1.2c-0.2,1.9,0.2,2.1-1.1,3.7c-0.2,0.3-1.2,0.7-1.3,0.9c-0.2,0.3,0.2,1.2,0,1.5c-0.1,0.2-0.9,0.2-0.9,0.2
	c-0.1,0.3-0.3,1.3-0.5,1.7c-0.2,0.3-1.4-0.3-1.5,0.4c0.8,0,2,0.6,2.8,0.8c0.8,0.1,3.3-0.2,3.4,1.2c0.1,1.3-1,0.9-1.9,1.3
	c-1.9,0.8-2.5,2.4-3.8,3.9c-0.4,0.5-1.2,0.7-1.7,1.5c0.9,1.2,1.8-0.1,2.3,1.6c0.4,1.3-1.1,3.3-1.1,4.5c-0.1,1.6,1.4,3-0.7,3
	c0.2,2.1,1.3,2.6,0.3,4.4c0,0.1-1.1,1.3-1.4,1.5c-0.7,0.5-3.1-0.4-3.1,0.7c1,0.1,7.5,1.2,7.8,1.9c0.5,0.8-0.3,1.4-0.8,2
	c-2.7,3,0.1-2.3-1.5,1c-0.3,0.6-0.1,2.1-0.1,2.8c0,2.2-0.1,2.7,2.2,2.6c1.5,0,1.1,0,2.6,0.4c0.8,0.3,1.8,0.8,2.7,0.7
	c1.9-0.2,1.4-1.8,2.6-0.1c0.2-0.3,2.6-0.3,2.8-0.3c1.6-0.2,0.5,1,2.4-0.3c0.4-0.3,0.7,0.3,1.1-0.3c0.5-0.7-0.7-1.5-0.5-2.1
	c0.5-1.4,1.8-0.8,3.2-0.9c1.7-0.1,3.2-0.6,5.2-0.4c1.1,0.1,2.4,2,3.5,0.6c0.3-0.3-0.3-1.3-0.1-1.4c0.8-0.8,1.4,0.4,2.2,0.9
	c-0.1-2.2,0.1-4.3,2.9-4.3c2.1,0,2.2,2.1,3.8-0.2c0.2-0.3,0.5-2.3,0.6-2.8c0.2-0.6,0.2-1.2,0.7-1.8c0.5-0.7,0.9-0.9,1.7-1.1
	c0.3-0.1,1.1,0.1,1.5,0c0.3-0.1,0.8-0.7,1.2-0.9c0.3-0.1,0.9,0.3,1.2,0.2c0.5-0.2,1-0.8,1.5-0.9c0,0,1.6-0.4,1.3-0.2
	c0.1-0.1,1.5-0.9,1.5-0.9c1.4-0.4,0.8-0.2,2,0.4c0.4,0.2,1.1,0.1,1.5,0.3c-0.1,0,0.2,0.9,0.2,0.9c0.6,0,1-0.4,1.4-0.7
	c0.7-0.4,1.3-0.8,1.7-1.5c0.5-1-0.3-1.7,0.2-2.4c-2.9-0.1-0.5-2.6,0.6-3.4c0.3-0.2,1.8-1.2,2.1-1.1c0.6,0.1,0.6,1,1,1.4
	c0.5,0.4,0.9,0.4,1.4,0.9c0.3,0.3,0.5,0.9,0.7,1.3c0.8,0.9,2,1.8,3.1,2c1.5,0.2,1.5,0.1,1.4-1.1c-0.1-1.5-0.7-1.2-2.2-1.6
	c-1.8-0.5-2-0.5-1.9-2.3c0.1-2.1,0.5-1.3,2.1-0.2c1-0.5,0.8-1.8,1.7-2.2c1.1-0.5,2.3,0.5,2.6,1.4c0.8-0.3,3,0.4,3.8,0.7
	c0-1.7-0.4-1,0.5-2.3c0.1-0.1,0.5-1.2,0.5-1.2c0.7-0.2,2.1,0.2,2.9,0.1c0.8-0.1,1.6-0.3,2.4-0.5c0.1-0.4-0.5-1,0-1.4
	c0.5-0.4,1.8-0.9,2.4-1.1c1.5-0.6,3.4-0.2,4.2-1.8c0.8-1.5,0.4-3.7,1.4-5.3c0.4-0.6,0.7-1.1,1.2-1.6c0.5-0.4,1.6-0.1,1.7-0.8
	c-2,0.6-4.3,0.7-6.4,0.9c-0.9,0.1-2.1,0.4-3,0.4c-1,0-1.3-0.7-2.3-0.6c-2.5,0.4-3.1,2.5-3.7-1.3c-0.3-2.1-1-3.5-0.8-5.5
	c-1,0.4-1.2-0.1-1.6-0.2c-0.2,0-0.1-0.7-0.6-0.9c-0.3-0.1-0.3,0.6-0.6,0.5c-2.1-0.1-1.3,0.7-1.7-1.2c-0.1-0.3,0.3-0.8,0.3-1.3
	c0-0.3-0.6-1.4-0.7-1.6c-0.8-1.9-2.5-5.6-4.7-6c-0.3,0-1.2,0.7-1.9,0.6c-1.1-0.1-1.2-1-1.9-1.4c-1.3-0.7-2.4-0.5-3.9-1
	c-1.5-0.5-3-1.3-3.4-2.9c0.7-0.3,0.8-0.8,0.5-1.5c-0.1-0.3-0.2-0.6-0.3-0.9c-0.2-0.4-0.2-0.9-0.4-1.3c-0.3-0.5-1.1-0.2-1.2-1.1
	c-0.2-1.2,0.5-1.4,0.9-2.3c0.5-1.2,1.1-3.5,1.1-4.8c0-2.1-3.1-4.1-4.7-4.6c-0.2,0-1.5-0.1-1.8,0c-0.4,0.1-0.9,1-1.2,1
	c-2.1,0,0-0.1-1.2-0.7c-0.8,1,0.2,2.2-1.8,1.3c-1-0.4-0.4-1.7-1.8-1.2c0.6-1.5-1.5-0.6-2.1-1.8c-0.1,1.3-0.8,2.2,0.5,3
	c-1.6,0.7-2-0.4-3.3-0.9c-0.2,0.3-3.5,0.7-3.9,0.3c-1.2-1.1,0.7-2.2,0.9-3.1c-2.1-0.2-2.2,0.7-2.9-0.6c-0.5-1,0.5-1.7-0.5-2.3
	c-0.3-0.2-1.7-0.1-2.2-0.2c-1.1-0.1-3.4,0.4-4.4,0c-0.3-0.1-1-1.3-1.8-1.7c-2.5-1.1-0.3,1-0.7,2.8c-0.1,0.5-1,0.3-1,0.6
	c-0.1,0.3,0.3,0.3,0.3,0.5c-0.7,3.4,0.8,5.7-4.2,6.2c1,0.5,1.9,1.7,1.4,2.5c-0.5,0.7-3,1-3.5,0.7c-1.3-0.7-0.9-3.8-2.4-0.8
	c-0.4,0.8-0.2,1.5-0.5,2.2c-0.4,1-1.6,1.1-1.9,1.9c0.8,0.7,1.9,3.9,3,2.4c0.3,2.2-0.8,2-2,3.4c-0.9,0.9-1.8,4.4-2.5,4.8
	c-1.3,0.8-3-0.5-3.2,1.8C208.1,412.7,209,413.5,207.8,415.4z"/>
<path class="st0" d="M148.4,533.1c0.3-0.1,0-0.2-0.2-0.3c0.5-0.3,1.3-0.2,1.5-0.1c0.6,0.3,0.8,2.6,1.1,2.8c0.6-2,3.5,0,2.6,1.1
	c0.7,0,1-0.2,1,0.5c0.5-0.4,0.9-0.3,1.3-0.6c-0.2,1.5,0.5,1.8,1.1,3c0.3-0.7,1.4-0.8,1.8-0.2c0.3,0.5-0.5,1-0.5,1.3
	c0,0.6-0.4,1.1,0,1.9c0.6,1.3,0.4,0.3,1.4,1c1.2,0.9,1.7,2.2,2.6,3.2c0.3,0.3,1.5,1.3,1.9,1.5c0.5,0.2,1.3,0.1,1.7,0.3
	c0.9,0.6,0.8,0.7,1.4,1.4c0.7,0.9,0.2,1,1.6,1.6c2.8,1.1,4.4-2.2,4.5,1.6c2-0.3,3.2,2.1,4.9,2.9c0.8,0.3,1.6,0.6,2.3,1
	c0,0.2,0.1,0.4,0.1,0.6c0.4,0,0.8-0.1,1.3-0.1c1.1,0.8,1.3,0.3,1.4,2.1c1.2-0.5,2.2-0.3,3.5-0.4c1.8-0.1,1.1,0.1,1.8-0.9
	c0.9-1.3,0.6-2.6,2.6-3.2c1.9-0.6,2.1,0,3.4,1.1c0.7-2.7,5.1-0.3,7-0.1c0.4-5.2,5.6-2.4,6.4-6.5c0.8-4.1-4.5-1.5-6.2-3.8
	c1-0.7,2.6-1.6,3.2-2.6c0.6-1,0.8-2.6-0.6-2.4c0.5-1.3-0.2-3.5,0.7-4.3c0.9-0.8,2.6,0.4,3.6-0.9c0.6-0.8,0-2.5,0.7-3.2
	c1.5-1.4,3.6,0.9,4.5,0.9c0.4,0,0.4-0.9,0.8-1c0.8-0.1,0.9,0.5,1.5,0.7c0.8,0.3,1.7,0.9,2.6,1.2c-0.2-1.3,0-2.4,1.5-2.6
	c-1.4-0.6-0.8-1.9,0.6-1.9c1.1,0,1.5,1.9,2.3,1.9c0.5-0.1-0.4-3,0-3.6c0.3-0.5,1.1-0.4,1.3-0.7c0.3-0.4,0.3-0.6,0.6-1.3
	c0.2-0.5,1.1-2.6,0.5-3.2c-0.8-0.8-2.7,0.4-3.5-0.1c-1.1-0.7-0.5-3-0.7-4.4c-0.3-2.4-0.9-1.1-2.9-1.1c-0.1,0-0.5,0.6-1,0.3
	c-0.5-0.3,0.2-0.9-0.2-1.3c-0.2-0.2-0.1-0.6-0.5-0.9c-0.3-0.3-1,0.3-1.3,0.1c-0.8-0.6-0.2-0.7-0.2-1.4c0,0,1.3-2.3,0.7-3
	c-0.7-0.8-1.7,0.3-1.8,0.3c-1,0.2-2.2,0.6-1.3-1.5c-1.2,0.3-1.1-0.7-2.5-0.6c0.3,1.4-0.9,2-2,2.7c-1.7,1.1-2.3,0.1-4.4,0.8
	c-1.2,0.4-1.2,1.8-2.3,0.1c-1-1.5,0.2-1.5-1.3-2.2c-0.7-0.3-1.6-0.1-2.4-0.4c-0.5-0.2-1.3-1.2-1.9-1.2c-0.1,1.6,0.7,2.5-0.9,3.2
	c-0.5,0.2-2.5,0.1-2.8-0.3c-1.1-1.6,1-2.4,1.2-2.9c0.3-1.2-0.8-2.4-1.6-3.3c0-0.3,0.1-0.6,0.1-0.8c-0.3-0.2-0.6-0.3-0.9-0.4
	c-0.2-0.4-0.7,0-0.9-0.3c-0.4-0.6-0.1-1.4,0.3-1.6c1.5-1.1,3.1,1.8,3.7,2.4c0.7,0.7,2.1,0.9,2.2,2.2c0.7-0.3,0.8-1,2.3-0.6
	c1.4,0.4,1.9,1.9,2.9,2.2c1.5,0.5-1.5-2-1.2-1.4c-0.5-0.7-0.4-1.7-0.1-2.5c0.6-1.6,0.9-0.6,1.8-1.4c0.2-0.1,1.1,0.2,1.2-0.1
	c-1.1-0.4-1.2-2.5-1.9-2.7c-0.1,1.9,0.9,2.8-1.1,1.7c-1.1-0.6-1.2-0.4-1.3-1.7c-0.9,0.6-2.1-0.4-3,0.3c-0.3,0.3,0.1,1.4-0.1,1.6
	c-0.8,0.6-1.9-0.2-2.5-0.4c-1.8-0.4-1.2-0.1-2-1.5c-0.2-0.3-0.9-1.3-0.9-1.8c0-0.5,0.6-1.3,1.2-1.6c-1.7,0.4-2-0.9-2.5-1.6
	c-1.6-2.1-0.7-2.7-0.5-5.1c0,0.1,1-2.7,1-3.9c-3.1,0.2-0.9-3-0.6-3.9c1.7,1.9,1.5,1.7,3.8,1.8c0.8,0.1,1.8,0.8,2.6,0.3
	c1.1-0.6,1.2-3.1,1.1-4.1c-0.3-1.9-0.9-1.3-1.9-2.7c-1-1.5-1.1-6,1.2-6.1c-0.2-1.5-1.6-1.8-1.1-3.7c0.1-0.5,0.3-1.1,0.8-1.6
	c2.2-2.3,6.5-0.4,9.2-0.4c0.1-2.1-0.5-4.4,0-6.4c0.1-0.6,0.2-1.3,0.7-1.7c0.4-0.4,1.6,0.4,1.7-0.6c-1,0-7.5-1.2-7.9-2
	c-0.9-2,3-1.9,3.7-2.5c0.7-0.5,2.3-2.3,0.5-2.2c0.5-1.6-0.9-3.1,1.1-3.2c-0.2-1.3-0.3-1.7-0.1-3c0.1-0.8,0.6-1.8,0.5-2.6
	c-0.1-1.3,0.3-0.7-0.2-1.4c-0.3-0.5-1.7,0-1.9-1.2c-0.1-0.6,2.6-3.4,3.2-4c0.9-1,2.6-2.8,4.2-2.7c-0.8-1-5.6,0-6.1-1.3
	c-0.7-2,3.7-2.7,2.9-5.4c2.5,0.6,2.3-2.6,2.3-3.9c0-1.5,0.5-1.5,0.7-2.9c0.1-0.6-0.5-1.7-0.4-2.5c-0.8,0-1.5,0-2.3,0
	c0.2-1.3-1.1-0.7-1.3-1.8c-0.1-0.3,0.4-0.7,0.4-0.4c-0.1-0.3,0.5-1.8-1.4-1.2c-0.1,0-1.1,1.5-1.4,1.8c-0.7,0.6-1.4,1.1-2.1,1.6
	c-0.5,0.3-0.3,0.9-1.1,1.2c-1.2,0.4-3.1-1.3-3.9,0.4c1.2,0.5,1.2,2.6-0.2,2.7c0.1,1.1,0.2,0.9-0.4,1c-0.2,0.5,0.2,0.5-0.5,0.4
	c0.2,1.1-2.4,1.1-3.2,0.7c0,0.5,1.2,1,1,1.4c-0.4,0.9-0.9,0.9-1.7,1.6c0.1-0.1-0.7,1.2-0.4,1.1c-1.7,0.5-0.4-0.1-1.9-0.6
	c-2-0.7-2.7,0-3.6,1.5c-0.6,1,0.6,0.7-1,1.5c-0.2,0.1-1.2-0.3-1.5-0.4c0.3,1-0.1,1.7,0,2.5c0.1,0.6,0.9,1.8,0.9,2
	c0.1,0.5-0.3,1.5-0.4,2.3c-1.7-1-2.9-1.7-4.8-1.9c-1.5-0.2-1.4,0.3-3.4,0.2c-2.3-0.1-1.5-1.3-3.1-2.1c-0.6-0.3-1.5,0.2-2.4-0.1
	c-0.8-0.3-1.2-1.6-2.2-1.5c0,1.4-0.2,2.5-0.1,3.8c0.1,0.9,0.6,1,0.5,2.1c0,0.5-0.7,0.8-0.8,1.6c-0.1,0.8,1.2,2.4,0.7,3.4
	c-1.1,2.3-1.7-0.2-2.7-0.1c0,2.9-4.2,0.6-6.4,1.2c0.5,1.7-1.3,2.3-2.6,1.8c-1.8-0.7-2.1-1.9-4.4-1.8c0.1,0.6,0,1.3,0,2
	c-1.3-0.1-0.4,0.7-1.3,1.6c-0.8,0.8-2.5,1.1-3.6,1.5c-1.7,0.7-2.2,0.9-0.4,2.3c-1.1-0.1-3.1,0.9-4,0.4c-1-0.6,0.1-2.6-2.3-1.2
	c0.2-0.1-0.6,1.1-0.6,1.2c0.3-0.3-2,0.9-1.3,0.7c-0.6,0.2-0.4,1-1.9,0c0.1,0.9,1.3,1,1.5,1.8c0.4,1.4-0.2,0.9-0.2,1.9
	c0,0.3-1,0.8,0.1,1.6c1.1-1.7,3.2,1.4,3.4,2.6c0.5,2.8-0.9,1.3-2.8,2.1c-0.1,0.8,1.7,0.5,2.1,1.2c0.9,1.5-1.1,2.1-1.6,3
	c-0.8,1.3,1,2.4-1.7,1.5c0.2,0.4,0.1,0.7,0.2,1c-1.1-0.3-4.4-0.1-4.3,1.6c1.5-0.1,1.7,0.2,2.6,1.1c2.3,2.1-0.1,2.6,0.6,4.8
	c0.3,0.8,2.1,1.5,1.3,3c0,0.1-1.8,0.8-1.8,0.8c1.8,1,0.5,3.2,0.1,4.6c-0.4,1.2-0.2,2.4-2.1,1.1c0,0.2,0.1,0.4,0.1,0.6
	c-0.9,0-1.8,0.1-2.7,0.1c0.5,0.3,0.9,0.7,1.3,1.1c-4.2,0.3-0.9,1.7,1,2.6c1.6,0.8,1.1,0.4,1.8,2.2c0.4,1.1,0.8,3,2.3,2.9
	c-0.1,0.4-0.3,0.8-0.6,1.1c0,0.5,0.2,0.9,0.4,1.3c0.2,0.7,0.8,1.1,1,1.7c0.3,0.6,0.1,1.8,0.3,2.8c0.2,1.4-0.6,0.7,0,1.9
	c0.4,0.8,1.4,1.4,1.9,2.2c1,1.7,1.1,3.3,1.2,5.2c2.1-0.2,0.6,0.8,0.7,1.2c0.1,0.4,0.2,1.1,0.2,1.5c0.1,1,0.7,1.9,0.4,2.9
	c0.3,0.8,0.1,1.2-0.6,1.2c-0.4,0.1-0.7,0.3-1,0.5c-0.1,0.5,1.4,0.9,1.6,1.2c0.4,0.5,0.8,1.9,0.9,2.6c0.6,2.4-0.4,4.1,1.6,5.7
	C144.4,528.3,146.2,533.8,148.4,533.1z"/>
<path class="st0" d="M194.1,632c0.2-1,1.3-2.8,1.1-4.1c0.3,0.2,1,0.5,1.3,0.3c0.7-0.7-1.8-4.3-1.3-5.6c0.7-1.5,2-1.3,1.2-3.2
	c-0.7-1.6-2-1.6-1.3-3.4c0.3-0.7,1.4-1.1,1.7-2.2c0.2-0.7-0.1-1.7,0.2-2.4c0.3-0.6,1-0.9,1.2-1.3c0.2-0.4,1.5-3.3,1.5-3.5
	c0-0.6-0.7-1.2-0.8-1.9c-1,0.1-0.1,1.1-1.4,0.8c-1.1-0.2-2.1-0.8-2.3-1.8c-0.1-0.6,0.6-2.3,0.7-3.1c0.1-0.5,0.2-1.2,0.3-1.6
	c0.3-1.6,1.3-2.8,1-4c0-0.2-0.9-0.3-1-0.5c-0.3-0.5-0.2-1.4-0.2-2c2.1,0.4,1.4-3.7,0.2-4.1c-2.5-0.8-3.5,3.2-5.4,2.8
	c-0.6-0.1-2-1.8-2.3-2.4c-0.9-1.7-0.4-3.8,0-5.5c0.3-1.5,1.4-4.4,0.2-5.9c-0.6-0.7-3.1-1.8-4.1-1.6c0.3-1,0.4-2.4,0.7-3.2
	c0.1-0.2,0.6,0.1,0.7-0.4c0.5-1.5-0.3-2.3-1.6-2.7c-1.1-0.4-4.1,0.9-4.4-0.3c-0.1-0.4,1.5-2.9,2-3.1c-1.2-1.6-4-1.5-5.4-2.4
	c-0.5-0.3-0.6,0.1-0.9-0.3c-0.5-0.6,0-3.1,0.2-3.9c1.4,0.5,4,1,4-1.3c0-0.8-0.2-0.5-0.9-1c-0.2-0.2-0.8,0.1-1-0.1
	c-0.7-0.4-1-1-1.6-1.3c-0.7,0.4-1.8-1.9-3.6-1.3c0-0.7,0-1.4,0-2.1c-1.1,0.3-2,0.7-3.2,0.5c-2.1-0.3-1.8-1.3-2.9-2.4
	c-0.7-0.7-1.6-0.5-2.7-1.2c-1-0.6-1.4-1.7-2.8-1.5c0.4-2.9-2.4-2.5-3.5-4c-0.1-0.2,0-1.2-0.1-1.5c-0.1-1.6,0.1-0.9,0.6-2.3
	c-0.4-0.1-0.7,0.7-1.6,0.5c-0.5-0.2-0.6-1.3-1.5-1.5c0.2-0.4,0.3-0.6,0.2-1.1c-0.5,0.4-0.6,0.8-1.4,0.5c1.3,0.6-1.7-2-0.9-0.7
	c-0.1-0.1-0.4-1.6,0-1.3c-1.3-0.8-1,0.3-1.4,0.2c-0.9-0.2-2-0.5-1.3-1.4c0-0.5-0.8-0.1-0.9,0c0.1-0.4,0-1.1,0-1.5
	c-0.7,0.5-1.5,0.5-2.3,0.5c0.7,1.8,1.9,3.2,2.5,5.2c0.6,2.1,1.1,4.3,1.9,6.4c0.4,1,0.6,3.1,1.1,3.9c0.6,0.9,1.4,0,2.1,0.7
	c0.1,0.3,0,0.4-0.3,0.5c0,0.4,1.8,1.1,2.1,1.3c-2.1,0.2-0.1,1.7,0.9,2.5c1.4,1.2,2.4,0.4,3.7,1c2.1,1-0.1,1.2-0.2,2.2
	c-0.2,1.3,1.7,2.5,0.4,2.6c0.3,1.4,1.1,1.7,1.7,2.6c0,0,2.5,3.1,2.6,2.1c-1.7,0.1-0.3,1.6-0.1,3.4c0.3-0.3,0.7-0.4,1.3-0.2
	c0,0.3-0.6,1.1-0.6,1.6c0,0.9,0.6,2.5,0.9,3.5c0.4,1.8,0.6,4.3,1.3,5.9c0.1-0.8,0.3-1,0.5-1.7c0.4,0.6,0.3,1.5,0.7,1.9
	c-1.9-1,0.1,2.4,0.5,2.8c0.9,1,1.1,0.7,2.1,2.1c-1,0.1-0.8-1-1.3-0.8c0.2,2.3,2.2,4.4,2.2,6.9c1-1.4,0.6,1.7,0.9-1.3
	c0.4,0.3,0.7,2.3,1.3,2.3c-0.3,0-1.1-0.3-1-0.6c-0.7-0.2-0.4,2.5-0.2,2.8c0.5,1.5,2.4,2.4,3,3.8c0.6,1.2,0.8,3.4,0.9,4.8
	c0.1,1,0.2,1.7,0.5,2.3c0.1,0.1,1.7-0.6,1.5,1.1c-3.9,0.2-2.5-2.3-3-4.4c-0.2-0.7-0.8-2.4-1.1-3.3c-0.2-0.7-1.6-2.4-1.5-2.9
	c0,1.8,1,3.6,1.3,5.4c0.3,1.8,0.2,3.7,0.6,5.5c0.8,3.2,1.7,7.1,3.3,10.1c0.1-0.3,1-1.5,1.1,0.1c-1,0.5-0.8,0.9-0.2,1.9
	c0.5-1,1.9-1.4,2.5-0.2c-0.4,0.4-2.2,0.5-1,1.3c-0.3,0-0.5,0-0.8,0c0,1.1,4.1,1.8,1.6,1.8c-0.2,2.1,4.3,5.6,5.4,7
	C189.8,630,190.8,632.9,194.1,632z"/>
<path class="st0" d="M243.3,612.4c-0.8-0.4-0.6-1.4-0.6-2.1c-0.4-0.1-1.6,0.3-2.2,0.4c-1.2,0.2-2.6-0.1-3.5-0.5
	c-2.6-1.1-4.2-1.7-3.4-4.8c0.6-2.3,2.4-4,3.6-5.9c0.3-0.5,4.1-4.8,4.1-4.9c-0.2-0.6-0.9,0-0.9-0.6c0-0.5,0-1.1,0.1-1.6
	c0.1-0.8,0.9-2.3,1.6-2.9c2.4-2,8,0.4,10.9,0.2c-0.9-1.7-5.7-1.8-7.1-1.1c-0.3-0.7,4-1,4.6-0.9c1.6,0.2,2.4,1,3.1,2.2
	c1.4-2.3,0.7-10.3-0.8-12c-1-1.1-3.1-1.4-2.8-3.3c1.2-0.1,1.3-2,3.2-0.9c-0.1-3.1,0.3-6.5-0.6-9.4c-0.7-2.4-0.4-4-0.3-6.6
	c-0.4,0.1-0.2,0-0.4-0.1c-0.6,0.2-2.3-0.8-3.6-1.1c0.5-1-0.5-1.4-1.6-1.4c0.1-0.9,0.7-1.2,1.6-1.2c0-0.3-0.2-2.4-0.1-2.4
	c0.4-0.4,1.9-0.4,2,0.4c0.5-2.3,1.7,1,1.4,0.9c0.8,0.4,1.4,0,1.8-0.7c0.8-1.5-0.7-1.8-0.7-2c0.1-1.9,1.1-0.2,1.3-0.2
	c0.9,0,0.5-1,0.9-1.6c0.6-1,1.4-1.6,2.3-2.5c1-1.1,3.5-4.5,0.4-4.8c1.6,0,1.7,0.5,2.7-0.9c0.7-1,1.2-2.8,1.5-4
	c0.4-1.8,0.1-3.7,0.7-5.5c0.6-2,1.4-3.3,1.2-5.5c-0.1-1.7-0.7-3.8-1.9-5c-0.3-0.3-0.2-0.3-0.7-0.6c-1.4-0.8-1.2,0.3-1.9,0.2
	c-1.7-0.1-0.9-1.3-2.1-1.3c-0.1,2.7-0.5,1.4-1.8,3.4c-1,1.5,0,2-1.2,2.7c-0.4,0.2-1.1-0.2-1.6,0.2c-0.2,0.2-0.4,0.8-0.5,0.9
	c-0.3,0.2,0.1,0.5-0.5,0.8c-2.4,1.1-2.1-2.4-2.9-2.1c0.1,0-1,1.4-1.8,1.4c0.1-1.7-1.2-3.3-3.2-2.1c0.2,0.2,1.3,0.5,1.6,0.5
	c-1.1,0.4-0.6,1-1.1,1.7c-0.1,0.1-0.8,1-0.8,1.1c-0.9,1.4-1.5,2.2-3,1.3c-0.2,0.3-0.2,0.9-0.2,1.2c-1.3-0.1-1.4,1.1-2.9,1.1
	c-1.6,0-2.3-1.5-3.9-1.8c-1.3-0.2-5.3,0.1-6,1.3c-0.4,0.7,0.6,2.9,0.2,3.9c-0.2,0.4-1.5,1.7-2,2.4c-1.3,1.7-2.7,2.8-4.8,2
	c-1.4-0.5-1.6-1.9-2.4-2.5c-0.6-0.4-2.8-1.8-3.5-2c-1.2,3.2-3.2-1.4-5.1,0c-0.6,0.5-0.2,2.5-0.8,3.2c-0.9,1.1-2.5,1-3.8,1
	c0,0.9,0.2,1.8,0,2.7c0.7,0.1,0.5,0.4,0.6,1.1c0.1,2.7-1.2,3.2-3,4.8c1.5,0.9,4.2-0.4,5.4,1.1c0.5,0.6,0.5,2.2,0.3,2.9
	c-0.1,0.3-1.1,2.2-1.3,2.3c-0.2,0.2-0.1,0.4-0.4,0.6c-1,0.7-2.7-0.3-3.9,0.8c-2.2,2.1,0.8,3.4-2.6,2.9c-0.9-0.1-1.8-0.5-2.7-0.6
	c-0.7-0.1-1.4-0.3-2.1-0.1c-0.3,0.1-0.4,0.7-0.5,0.7c-0.7,0.1-0.4,0.1-1.7-0.3c-1-0.3-1.8-1-3-0.1c-2.5,1.8,0.1,3.8-3.8,3.7
	c-1.4,0-2.6,0.1-3.9,0.4c0-0.3,0.1-0.5,0-0.8c-0.8,0-0.1-0.8-0.9-1.4c-1.1-0.7-1.9,0.7-2.4,1.1c-1.2,1.1-1.3,1.8-3.4,0.7
	c-0.3,2.5,0,2.3,2.1,2.9c1.1,0.3,1.7,0.8,2.6,1.5c0.8,0.6,1.6,0.1,1.7,1.6c0,0-1.7,2.2-1.8,2.3c4.4-0.3,5.8,0.1,5.7,4.6
	c-0.2-0.1-1.1-0.1-1.1,0c-0.5,1.5,0.1,1.5,1,2.2c2.1,1.6,3.5,1.6,3.2,4.9c-0.2,1.6-1,3.2-1.1,4.9c-0.1,0.9,0,2.8,0.5,3.5
	c0.6,0.8,1.9,0.8,2.2,1.8c-0.5,0.1,1.6-1.7,1.6-1.7c0.6-0.5,1.2-1,2-1.2c1.8-0.5,2.8,0.6,3.1,2.4c0.1,0.8,0,1.7-0.3,2.5
	c-0.1,0.5-0.9,0.6-0.9,0.9c-0.1,0.5,0.5,0.6,0.6,0.8c0.1,0.6,1.1,0.9,0.9,1.9c0,0.2-0.5,0.3-0.6,0.5c-0.2,0.7-0.6,1.5-0.6,2
	c0,0.4,0.3,1.2,0.2,1.7c-0.1,0.5-0.6,0.4-0.8,0.9c-0.3,1-0.7,2.4,0.1,3.1c1.3,1.1,0.8-0.3,1.7-0.1c1.1,0.1,2,0.1,2.1,1.9
	c0,1.6-1.7,3-1.4,5c-0.9-0.3-0.9,0-1.3,0.7c-0.3,0.7,0,1.9-0.3,2.6c-0.2,0.7-0.7,1.2-1,1.9c-0.5,1-1.2,0-0.4,1.5
	c0.3,0.5,1.2,1,1.4,1.3c1.2,2.7-1.9,3.1-1.3,5.5c0.2,0.8,2.8,5-0.2,4.3c0,2.3-0.3,3.5-3,4.1c1.4,2.3,6.9,5.3,9.7,4.4
	c1-0.3,0.7-0.8,1.4-1.2c1.1-0.6,2.6-0.3,3.7-1c1.1-0.7,1.4-1.7,2.5-2.4c1-0.7,2.5-0.6,3.5-1.5c0.8-0.7,2.2-2.7,2.4-3.8
	c0.3-2.2-0.6-1.3-2.4-1.5c0.1-1,1.3-0.3,1.8-0.5c0.9-0.6,0.4-0.2,1.1-1.5c1-1.8,0.2-3.2,0.8-5c0.4-1.3,1.1-1.6,2.2-2.2
	c1.8-1.1,2.5-1.9,4.8-2.4c1.7-0.3,3.5-0.9,4.6-1.5c1.3-0.6,2.5-1.2,3.9-1.4c3-0.5,8.6-0.6,11,1.6C244,612.7,243.9,612.4,243.3,612.4
	z"/>
<path class="st0" d="M262.7,193.2c-1.3,3.5-3.7-0.9-5.4-0.3c0-0.7,0-1.3-0.1-2c-2.4-0.1-5.8,0.8-7.8-0.2c0.2,0.1-0.5-1.1-0.5-1.1
	c-0.2-0.1-2.9-1.1-2.9-1.1c-0.8-0.3-2-0.6-2.3-1.1c-1.3-2.3,0.6-1.8-2.7-2c-1.8-0.2-2.3-0.9-3.5-2.3c-2.2-2.6-0.6-2.5,1.8-3.8
	c-0.2-0.5-2.1-1.2-2.7-1.6c-1.3-0.9-3-2-4-3.1c-0.9-1-1.2-2.7-2.4-3.4c-1.4-0.8-0.8-0.3-2.2,0.1c-1.1,0.3-1.1,0.4-1.7,0.8
	c-0.1,0.1-1.4,0.8-1.6,1c-0.5,0.5-0.9,1.9-1.5,2.1c-0.8,0.3-2-1.3-2.7-1.6c0.5-0.5,0.5-0.9,0.4-1.7c-1.1,0.3-3,1-3.9-0.1
	c-0.4-0.6-0.1-1.5-0.2-2.1c-0.2-0.8-0.9-1.1-0.8-2c0.1-1.3,2.2-3.1,2.7-4.3c0.5-1.4,0.2-2.2,1.5-2.8c-2-0.7-3.5-1.5-5.2-2.8
	c-0.5,1.9-2.6,4.5-3.7,6c-0.2,0.3,0,0.6-0.2,0.8c-0.3,0.3-1.1-0.2-1.4,0.2c-0.4,0.4-0.7,1.4-1.1,1.9c0,0-0.3,0-0.3,0
	c-0.4,0.6-0.5-0.1-1,0.9c-0.3,0.5,0.1,1.5-0.1,2c-1,3.4-3.1,5.1-3,9.1c0.1,2.4,1.1,4.7,1.2,7.2c0.1,1.7,0.3,2.7,0.9,4.1
	c0.7,1.5,2,2.4,2.1,4.4c0,0.4-0.6,0.4-0.6,0.6c0,0.2,0.5,0.3,0.5,0.4c0.1,1.7,0.6,3.3,1.6,4.7c0.9,1.4,1.8,2.6,2.3,4.2
	c0.8,2.6-0.1,1.4-1.2,3.1c-0.9,1.4,0.5,1.8,0.4,3.1c0-0.6-0.9,0.9-0.7,0.6c0,0-0.7,1.2-0.7,1.3c-0.3,1-0.5,1.7-0.4,2.9
	c0.2,1.7,0.9,4.8,2.2,5.7c0.3,0.2,5.7,1.6,2.5,2.5c2.8,1,0.5,1.7,1,3.4c-0.2-0.1-1.2-0.3-1.3-0.1c-0.4,1.3-0.1,0.7,0.6,1.2
	c1.3,0.8,2.8-0.1,3,2.1c-0.6-0.1-9,2.1-6.7,4c0.2-3.5,5.8-0.2,4.9-3.3c1.8-0.3,2.9,0.6,4.3,0.5c0.6,0,1.6-0.3,2-0.2
	c0.2,0,0,1.2,0.4,1.2c0.1-0.7,1.3-2.9,2.4-2.7c0.4,0.1,0.2,0.8,0.7,1.1c0.9,0.5,1.2,0.8,2.3,0.9c-0.5,0.1-1.8,0.6-1.8,1.2
	c2.5-0.6,3.2,0,5.7,0.6c1.1,0.2,2.9-0.4,3.1-0.4c1.7-0.2,2.5,0.4,3.8,1.3c1,0.7,2,1.5,2.7,2.7c0,0.6,0,1.1,0.2,1.7
	c0.3,0.5,0.7,1,1,1.6c0.3,1.3,0.7,2.5,0.3,3.9c-0.5,1.6-0.1,0.4-1.2,2c-0.6,0.8-0.9,1.7-1.1,2.6c-0.6,2.2-2.6,4.1-2.6,6.5
	c-0.2-0.2-0.5-0.5-0.8-0.6c-0.4,0.7,0.2,1.2-0.3,1.6c0.7,1.5,1.2,1.8-0.4,2.9c-0.2,0.1-2.2,0.8-2.6,0.9c-0.9,0.2-3.1-0.5-3.8,0.2
	c-0.6,0.6,0.1,1.8-0.4,2.4c-0.9,1-1.1-0.7-1.7,1c-0.3,0.7-0.1,2.1,0.2,2.7c0.3,0.6,0.8,0.2,1.1,0.6c0.4,0.7,0.6,1.6,0.5,2.4
	c-0.9-0.1-1.5,0.5-1.8,1.3c-0.8,1.8-0.4,3.6-3.2,4.2c0.5,1.6,1.6,3.1,1.8,4.8c0-0.3-0.3,3.3-0.7,2.5c0.4,0.8,1,0.2,1.3,0.7
	c0.5,0.9,1.2,0.5,1.4,2c0.1,0.6-0.7,2.1,0,2.2c0.5,0.1,1.3-2.2,2.3-2.8c0.2,1.5,1,0.6,1.9,1.3c1,0.8,0.8,2.2,1.8,2.9
	c0.2-1.2,2.1-1.3,2.6,0c0.5-0.5,2-1,2.4-1.5c1.3-1.6,0-1.9-0.3-3c-0.1-0.4-0.5-0.1-0.6-0.5c-0.2-0.7,0.8-1,0.8-1.2
	c0-0.7,0.1-1.2-0.5-1.7c-2.3-1.8-3.7,2.5-3.1-2.5c0.1-1,0.6-2.1,0.1-3c-0.3-0.6-1.6-0.4-2-1.9c-0.3-1.1-0.3-2.6-0.6-3.3
	c0,0.1-0.5-0.4-0.5-0.6c-0.4-1,0.1-2.1-0.8-3c-0.7-0.6-2,0.4-2.2-0.9c-0.1-0.6,0.4-0.5,0.4-0.6c-0.3,0.7,1.5-1.4,1.2-1.2
	c1.1-0.9,3.5-2.1,3.4,0.4c1.5,0.1,0.4-0.5,1.1-1.2c0.1-0.1,0.8-0.1,0.8-0.2c0.1-0.2,0.1-1.1,0.2-1.2c0.2-0.2,0.7,0,0.9-0.2
	c0.4-0.4,1.4-1.9,2.1-1.4c1.1,0.8-0.4,1.6-0.3,2.4c0.1,0.8,0.7,1.6,0.8,2.4c-0.9,0-2.4,0.1-2.3,1.3c0.1,0,0.2,0.1,0.2,0.1
	c0.3-2,3.3-1.3,1.6,1c1.7-0.6,2.5,0.5,2.6,1.7c1.2-0.4,2.8,0.4,3.6-0.1c0.5-0.3-0.2-0.6,0.5-1c-0.1-1-0.9-2.1-1.1-3.2
	c1,0.1,1.9,0.8,2.9,0.6c-0.4,2,1.5,0.6,2,1.3c1.1,1.7-3.2,3-2.2,4.8c0.3-1.4,3-1.5,3-1.5s0.1-1.3,0.7-1.2c1.1,0.2,0.6,0.7,1.1,0.9
	c0.5,0.2,3.4,0.2,3.8-0.1c0.5-0.4-0.1-1.2,0.3-2c0.6-1.1,0.9-0.4,1.6-0.7c1-0.5,2.7-0.6,1.6-2.1c0.9-0.2,1.9,0.1,2.7-0.1
	c0.7-0.2,1.8-1.5,2.8-1.1c0.5,0.2,0.9,1.9,1.6,2.6c0.3,0.3,1.4,1,1.5,1.3c0.5,1.5-0.8,1.5-1.1,2.4c-0.3,0.8,0.1,0.4-0.2,1.2
	c1.5-0.8,1.9,0.8,1.9,1.9c0.9-0.1-1.2-4.2,1.7-2.8c0-1.3,2.3,0.7,2.9,0.7c-0.3-1.6,1.8-0.9,1.8-0.9s1.5-0.7,1.9-0.6
	c-0.5,1.5-0.4,3.5-1,4.9c1.7-0.8,1.7-0.6,2.8-0.5c1.4,0.1,2.9,0.2,3.7-0.6c0.1-0.1,0.7-1.5,0.7-1.8c0-0.1-0.1-1.5-0.1-1.4
	c0.4-0.7,1.8-0.4,1.8-0.4s0.7-0.6,1.6-0.3c0.4,0.1,0.7,1.1,1.4,1.2c0-0.1,0.8-2.5,2.1-2.3c1,0.2,1.6,1.1,1.2,3.1
	c0.8-0.1,1.4-0.1,2.2,0.1c0.4,0.1,0.3,0.9,0.8,1.1c0.4,0.2,2.7-0.1,3,0.3c0.5,0.7-0.5,2.2,0.2,3c0.8,0.9,2.7,0,3.7,0.3
	c0.1,0,0,0.7,0,0.7c-0.1,0,1.7,0.3,2,0.4c0.7,0.5-0.1,1.3,0.4,2.2c0.1,0.1,1.1,0,1.3,0.2c0.1,0.1-0.1,1,0,1c0.4,0.1,0.6,0.3,0.9,0.6
	c-0.2-1.8-0.3-1.3,0.6-1.7c0.7-0.4,2.3,0.2,3.1,0.1c0.4-0.1,1.3-0.7,1.5-0.7c1.7,0,1.5,0.4,2.5,1.5c0.4,0.5,1,0.2,1.3,1
	c0.5,1.5-0.6,2.2-1.9,1.8c0,1.1-0.1,0.7,0.6,0.8c-0.1,0.5-0.1,1.5,0,1.9c0.8,0.1,1.2,0.6,1.1,1.5c-0.1,0.5-0.2,0.9-0.4,1.4
	c-0.3,1.2-0.9,1.7-0.9,3.2c-0.3-0.1-0.6-0.1-0.9,0c0-0.7,1.6,2.5,1.6,2.5c0.2,0,0.4,0,0.7,0c-0.1,0.8,3.5,2.5,4.2,2.6
	c2.4,0.5,2.8,0,3.6-1.7c0.5-1,0.9-3.1,2.4-3.1c-1.3-2,0.5-1.5,0.9-3c0.1-0.4-0.5-0.7-0.4-1c0.1-0.5,0.4-1.6,0.4-2
	c0.1-0.8-0.7-2.2-0.2-3c0.4-0.7,1.9-0.3,2.3-1.6c0.8-2.2-2.1-3.2-2.9-4.7c-1-1.8-1.4-4.8-0.9-6.7c1.1-4.3,5.9-4.1,8.9-6.7
	c0.8-0.7,0.9-1.7,1.6-2.5c0.7-0.7,1.8-0.9,2.5-1.5c1.2-1,1.1-3,3.3-2.7c1.1,0.1,0.7,1,1.5,1.1c0.2,0,0.9-1,1.3-1.1
	c1-0.3,4.4,1.4,5.1,0.1c0.7-1.5-1.6-2-2.4-2.3c-1.3-0.5-2.2-1-3.5-1.8c-2.2-1.3-5.4-4-6.2-6.7c1.4,0.2,4.1-0.3,3.4-2.1
	c-0.6-1.7-2.9-0.6-4.2-1.7c-0.5-0.4-0.9-1.6-0.5-2.3c0.7-1.1,1.6-0.3,2.3-0.7c0.7-0.4,0.9-1.2,2.2-1.4c0.7-0.1,4.2,0.6,4.5-0.3
	c0.1-0.2-2-0.8-2.1-0.9c-1.1-0.7-0.2-2.2-1-3.1c-0.4-0.4-2.1,0-2.8-0.3c-1.7-0.9-0.9-2-1.3-3.4c-0.5-1.5-0.8-0.7-1.4-1.5
	c-0.6-0.8-0.5-1.9-0.9-2.9c-0.9-2.1-2.8-3.7-5-4.6c-1.1-0.4-3.8-1-4.9-0.4c-0.8,0.5-0.8,1.8-2,2.2c-2,0.6-2.2-2.4-4.8-2.6
	c-2.3-0.2-3.9-0.5-6.4-0.6c-0.1-1.1,0.2-3.8-0.9-4.5c-1.3-0.8-3.4,1.1-4.8,0.6c-1.1-0.3-1.7-1.5-2.6-2.1c-1.2-0.8-3.4-1.8-4.8-2.2
	c-1.3-0.4-1.2,0.2-2.3,0.2c-0.4,0-0.6,0.6-1.2,0.5c-0.1,0-1.3-1.2-1.5-1.3c-0.7-0.4-1.6-0.4-2.2-0.8c-0.4-0.2-0.8-0.4-1.3-0.6
	c0-0.2,0-0.5,0-0.7c-1-0.7-2.7-2-3.7-2.4c-2.3-1-1.7,0.2-2.5-2.5c-0.7-2.4-2.9-2.8-5-3.8c-2.3-1.1-3.7-1.2-5.9-2.9
	c-1.9-1.4-3.7-4.3-3.9-0.3c-0.9,0.1-0.8-0.9-1.3-1.1c-0.6-0.2-1.8-0.5-2.4-0.8C264.5,193.7,263.5,190.9,262.7,193.2z"/>
<path class="st0" d="M210.3,210c-1.2-1.1-0.6-2.2,0.1-3.2c1-1.4,1.1,0.1,1.1-1.7c0-2.3-2.6-4.5-3.5-6.5c-1.4-3.1,0-0.9-1.6-0.3
	c-1.5,0.6-2-1.6-3.1-2c-0.8-0.3-3.3,0.7-3.2-1.3c0.1,0,0.3,0,0.4,0c-0.1,0-0.3,0-0.4,0c0-0.7,1.2-1.2,1.5-1.9
	c0.3-0.6-0.1-1.2,0.2-1.9c0.5-1.5,1.8-2,3.2-1.8c-0.9-2.3-0.2-5-0.8-7.4c-0.8-3.1-0.9-6,0.2-9.1c0.1-0.4,0.7-1.3,0.9-1.8
	c0.9-1.5,0.5-2.3,1.2-3.9c0.7-1.6,3-2.9,4-4c0.9-0.9,1.9-2.8,2.7-3.9c1.1-1.7,0.9-1.8,0.5-2.6c-0.4-0.7-1-0.9-1.5-1.2
	c-0.6-0.3-1.5-0.5-2.2-0.9c-0.5-0.3-0.9-0.7-1.5-1c-0.6-0.3-1.4,0-1.7-0.4c-0.7-0.8,0.4-2.9-0.1-3.9c-0.5-1-2.8-2.3-3.6-3.2
	c-0.8-0.8-2.1-3.5-3.2-3.7c-0.1,0.5,0.7,0.9,0.8,1.3c0.1,0.8,0.1,2,0.2,2.7c0.1,0.3-0.3,0.8-0.2,1.1c0.2,0.3,1.1,0.3,1.3,0.5
	c0.7,1.2,0.6,1.8,0.6,3.4c0,0.9,0.6,4.2-0.8,4.3c0.7-0.1-3.9-3.3-3.1-1.8c1,0,1,1.7,0.6,2.3c-0.4,0.6-2,0.2-2.4,1.3
	c0,0.1,0.9,1.7,0.6,2.4c-0.2,0.5-0.8,0.6-1.2,0.9c-2.9,1.9-1.2-1.7-3-1.8c-0.7,2.2-1.3,1.4-3.2,0.8c0,1.1-1.8,5.6,0.1,5.4
	c-0.2,2-0.9,1.3-2,2.1c-0.4,0.3-1.2,1.7-1.6,1.8c-1,0.3-2.9-0.2-3.5-0.5c-1.2-0.6-1-1.9-3-1.2c-0.5,0.2,0.1,0.8-0.5,1
	c-2.1,0.6-3.5-1.5-5.1-0.1c-0.5,0.4-0.9,1.4-1.3,1.9c-0.2,0.3-0.8,0.5-1,0.9c-0.3,0.6,0.2,1.4-0.3,1.9c-1.6,1.6-1.8-0.5-2.2-1.4
	c-0.5-0.9-1.1-0.7-1.1-1.9c0.1-1.1,1.4-1.4,1.2-2.6c-1.5,3-2.4-2.9-1.9-2.6c-0.8,2.2-4-2.1-6.2-1.7c-0.9,0.2-0.9,0.7-1.5,0.9
	c-1.9,0.6-2.3-0.5-4.1-0.8c0.1,1,1,2.3,1.9,1.3c0.4,1.1,0,2-0.1,2.5c-0.2,0.5-1.5,0.7-0.8,2c0.1,0.2,1.6-0.2,1.7,0.1
	c0.6,1.4-0.4,3.4-0.5,4.8c-0.1,2.1,0.6,1.9-1.7,1.9c0,0,1.5,0.9,1.4,0.8c0,0.2,0.1,0.3,0.1,0.5c0.1,0.4,0.4,0.4,1,0
	c0.7,0,1.4,0,2,0.2c0.2-0.3,0.3-0.6,0.5-0.9c0.9-0.1,3.1,0.4,3.8,1.1c0.3,0.3,0.2,1.1,0.5,1.5c1.6,1.9,4.3-0.2,6.2,0.4
	c0.1,0,1.5,1.5,1.6,1.7c0.4,0.9-0.2,1.9,0,2.8c0.3,0.9,0.8,0.8,0.8,1.2c1.7-0.2,0.5,2.7,0.5,3.7c0,2.5,0.7,3.6,1.7,5.8
	c0.2,0.5,0,1.4,0.5,1.8c0.6,0.6,1.9-0.2,2.4,0.2c0.6,0.5,0.1,1.2,0.7,2c0.9,1.2,2.7,1.6,3.6,3.1c1.5,2.3,0.8,3,0.1,5.2
	c-0.4,1.1-0.9,2.9,0.1,3.8c0.8,0.6,2.1,0,3,0.4c-0.4-2.8-0.7-4,2.6-3.8c-1.1-2.5-1.5-4.7,2.3-2.7c0.9,0.5,2.3,2.8,3.1,2.9
	c2.1,0.2,0.1-0.7,1-1.3c1-0.7,0.9-0.9,2.5-0.8c0.1-3.4,4-0.9,4.1,1c0,0.1-0.6,0.4-0.7,0.5c-0.3,1.2-0.5,2.2-0.6,3.4
	c-0.1,0.8-0.9,5.3,0.3,5.1c0.1-1,0.9-1.5,1.9-1.5c0-0.3-0.1-1.4-0.2-1.8C206.1,214.3,208.1,211.2,210.3,210z"/>
<path class="st0" d="M146.6,159.7c1.1,2.4-1.2,2.1,2.4,2.3c2.2,0.1,5,0.4,7.1,0.8c1.5,0.3,2.2,1,3.6,0.7c0.4-0.1,0.5-0.7,1.1-0.8
	c1-0.3,2.8,0.1,3.8,0.6c0.6,0.3,1.7,2.1,2.2,2.1c0.8-0.1,0.5-2,1.8-0.7c0.5,0.5-0.6,2.4,0.2,2.7c0.7,0.3,0.6-2,1.7-0.2
	c0.9,1.5-1.3,2.2-1.2,3.3c0,0.6,1.9,2.5,2,2.5c-0.8,0.2,1.9-3.7,2-3.8c1.2-1.4,1.1-1.6,2.9-1.5c1.2,0.1,2,0.4,3,0.1
	c1.1-0.2,1.5-1.3,3.1-0.5c0.9,0.5,2.1,2.4,3.5,1.8c0.6-0.3,0.8-1.4,1-2.1c0.1,0.2,0.4,0.6,0.5,0.8c0.3-1.1,1.5-0.3,1.7-1.1
	c0,0-0.6-1.7-0.7-2c-0.2-1.5,0.6-3.8,1-5.3c1,0.4,2,0.6,2.8,1.1c0.8-0.8,0.3-2.7,2.1-0.9c1.3,1.4-0.3,2.1,1.3,1.2
	c2.5-1.5-0.4-1.5-0.2-2.9c0,0,1.2-1,1.3-1c0.8-0.6,1.2-0.2,1.6-1.1c0.3-0.8-0.8-0.6-0.6-1.4c0.6-1.9,3.3-1.1,4,0.5
	c0.1-1.1,0.5-4,0.1-5c-0.4-0.9-1.3-0.9-2.1-1.3c-0.5-0.2-0.9-0.7-0.7-0.4c-0.3-0.6-0.4-0.4-0.2-0.9c-0.1,0.1-0.2,0.1-0.4,0.2
	c-0.4-1.5-0.8-2.8,1.7-2.5c-0.2-1.9-1.5-2.2-2.8-3c-2.2-1.4-1.2-2.4-1.3-4.3c0-0.6-0.4-1.9-0.8-2.2c-0.8-0.6-1.4-0.2-2.3-1.2
	c-0.5-0.6-0.7-1.5-1.4-2c-0.4,1.3-1.8,3.1-3.6,1.9c-0.8-0.5-0.2-1.9-0.4-3c-0.4-1.5-6-6.8-2.9-7.7c-0.9-1.6-2.2-3.2-3.9-3.9
	c-1.1-0.4-2.5-0.3-3.5-1c0.4-0.6,1.5-0.7,1.7-1.1c0.3-0.6-0.5-1.5-0.2-2.1c0.5-1.2,1.8-0.5,2.5-1.1c1.3-1.1,0.2-2.1,2.5-2.5
	c-0.3-0.8-1-1.4-1.5-2.1c-0.2,0.4-0.2,1.3-0.7,1.4c-0.6,0.2-1.4,0-1.8,0.2c-0.4,0.2-0.8,0.7-1.2,0.9c-0.4,0.2,0.1,0.5-0.4,0.7
	c-1,0.4-2.3-0.7-3.3-0.6c0.1,1.3-0.2,3.4-0.9,4.4c-0.9,1.5-2.6,1.4-4.2,1.5c-1.3,0-2.8-0.3-3.8,0.4c-0.7,0.5-0.7,1.7-1.4,2.2
	c-0.9,0.5-1.9,0.1-2.8,0.8c-0.6,0.5-1.5,2-1.8,2.6c-0.1,0.2-0.7,0-0.8,0.6c-0.1,0.4,0.5,1,0.6,1.4c0.5,1.5,1.7,2.6,0.3,3.7
	c3-0.1-0.2,2.5-0.7,3.4c-0.5,1.1-1,3.7,0,4.5c0.6,0.5,2-1.3,2.5-0.4c0.7,1.2-0.8,0.9-1.1,1.1c-1.5,1.2-2.5,2.6-3.9,3.9
	c-0.9,0.9-2.1,1.3-2.9,2.2c-0.7,0.7-1,1.7-1.9,2.6c-0.2,0.2-0.9,0.5-1,0.6c-0.3,0.4-0.3,1-0.7,1.5c-0.7,0.9-1.3,0.8-1.9,1.3
	c-0.3,0.2-1-0.1-1.3,0.3c-0.4,0.5,0.3,1,0.5,0.8c0.1-0.1-0.2,0.9-0.2,0.7c0,0.1-1,0.1-1,0.3c-0.4,1.2,0.7,1.9,0.7,3.4
	c0,1-0.1,2.5-1,3C146.2,159.1,146.4,159.3,146.6,159.7z"/>
<path class="st0" d="M241.6,138.4c0.5,0.5,1.6,1.7,1.5,2.4c-0.2,0.9-2.9,1.1-3.8,0.7c-0.5-0.2-0.8-1.5-1.8-2
	c-1.2-0.5-2.4-0.2-3.6-0.3c-2.8-0.3-5-1.4-7.7-0.1c-0.4,0.1-0.9,0.2-1.3,0.2c0,0.4-0.2,0.8-0.3,1.1c-0.6,0.3-0.6,0.6-1.4,0.7
	c-0.8,0.1-0.8-0.9-1.9-0.5c-0.7,0.3-1.6,1.5-1.7,2.2c0.2,0,0.3-0.1,0.5-0.1c0.4,1.3-0.6,1.6-1.7,1.5c0.1,1.2,0.7,1.2,0.7,2.4
	c-1.2-0.3-1.6,1.7-1.8,2.7c1.2,0.5,0.3,1.9,0.3,3c0.1,1.1,1.4,1,0.2,2.4c-0.6,0.8-2.3,1-3.1,1.6c0.3,0.8,1.9,2,2.7,2.4
	c0.5,0.3,4.1,1.1,4.1,1.6c0.2,1-1.3,0.7-1.6,1.2c-0.7,0.9-0.6,2.6-1.2,3.7c-1.3,2.2-2.2,2-1.1,4.7c0.6,1.5-0.1,1.5,1.8,1.5
	c0.8,0,1.7-0.4,2.4-0.6c-0.1,0.8-0.4,3.6,1.1,3.4c0,0,1.5-1.8,1.7-2c0.2-0.2,0.8-0.2,1-0.3c0.4-0.3,0.2-1,0.9-1.4
	c1.1-0.7,3.2-0.7,4.2,0c1.7,1.2,2.3,3.3,4,4.6c0.8,0.7,4,2.3,4.7,3.1c1.7,2.3-1.5,1.2-2.2,2.2c-0.8,1.3,1.4,2.2,2.2,2.8
	c0.9,0.7-0.2,0.7,1.4,1.2c0.9,0.3,2.1-0.7,3.1,0.2c0.6,0.5,0.2,1.4,0.6,1.9c0.9,1.2,3.4,1.5,4.9,2.3c0.3,0.2,0.9,1.4,0.8,1.4
	c0.6,0.3,2.2,0.1,2.9,0.1c1.2,0,3.8-0.6,4.8-0.2c0.2,0.1,0,0.2,0.2,0.3c0,0.4,0,0.8,0,1.2c-0.1,0.4,0.2,0.5,0.8,0.3
	c0.2,0.2,0.4,0.4,0.7,0.6c0.2,0.1,1.3,1.1,1.1,1.1c1.8,0.1,1-1,2.1-1.8c-2.2-1,1.4-4.4,2.1-5.5c0.6-1,0.8-2.3,1.5-3.3
	c0.4-0.3,0.6-0.7,0.6-1.2c0.4,0,0.8,0,1.3,0c0.5-1.4-1.9-3.5-0.6-5.6c0.5-0.8,1.3-0.8,1.8-1.5c0.6-0.9,0-1.6,0.1-2.6
	c0.2-1.7-0.2-1.4,1-2.5c0.5-0.5,1.3-0.5,1.7-1.1c0.6-0.8,0.3-2,1-2.6c0.6-0.5,1.5,0,2.1-0.3c1-0.6,1.3-2.9,2.4-3.5
	c0.5-0.3,1.6,0.1,1.8-0.3c0.9-1.3-2.2-2.7-2.7-3c-0.8-0.5-1.1-0.3-1.9-1.1c-0.8-0.8-0.7-1.4-1.8-2.1c-0.7-0.4-2-1-2.8-1.4
	c-1.3-0.6-2.9-0.1-4.1-0.6c-1.5-0.6-1.1-0.8-1.8-2.2c-0.1-0.6-0.1-1.2,0.1-1.8c-0.5-0.1-0.9-0.3-1.2-0.8c-1.2-1.7-1.8-1.1-3.6-2
	c-1.8-0.9-1.6-3.2-3.9-3.2c-2.7-0.1-2.1,1.9-4.6,0c-1.4-1.1-2.6-2.6-3.4-4c-0.4-0.7-0.9-1.3-1.3-2c-0.6-1,0.4-2.2-1.6-1.7
	c0.9-0.2-1.5-2.8-2-2.8c0.1,0.5,0,0.9-0.1,1.4c-0.3,0.2-0.7,0.2-1.1,0.2c-0.4,0.7-0.3,2.3-1.4,2.4
	C240.8,137.6,241.2,138.1,241.6,138.4z"/>
<path class="st0" d="M232.4,112c-1-1.2-2.2-0.5-3,0.6c0.3-2,2.6-3.9,1.9-6.1c-0.8-2.1-2.1,0.3-3.3,0.7c-0.6,0.2-3.4,0.5-4,0
	c-0.5-0.4,0-0.1-0.4-0.8c-0.4-0.6-0.1-1.7-0.5-2.4c-0.5-0.9-0.5-0.6-1.1-1.2c-1.2-1.1-1.9-1.1-1.8-3c-2,0.2-3.8,1.9-6,2.1
	c-1.9,0.2-2.3-0.4-3.9-1.2c-1-0.5-0.7-0.4-2-0.8c-1.1-0.3-0.9,0.2-1.4-0.1c-0.6-0.3-1-1.8-1.6-2.2c-0.7-0.5-1.3-0.2-2.1-0.6
	c-1.3-0.6-0.8-1.6-1.5-2.2c-0.9-0.7-6.8-0.6-7.8,0.2c-0.2,0.1-1,1.8-1,1.8c-1.2,1.7-1.3,0.9-3.1,1.7c-0.9,0.4-1.2,1.6-2.2,2.1
	c-1.5,0.6-3-1.9-3.2,0.4c2.1,0.1,1.4,2.6,1.2,4c-0.2,1.3-0.2,2-1,3c-0.3,0.3-1.1,0.5-1.2,1c-0.2,0.9,1.6,2.2,1.1,3.2
	c-0.5,0.9-2.6,0.3-2.7,2.4c0-0.4-0.4,0.4-0.6,0.5c-0.8,0.5-1.3-0.3-1.8,0.5c-0.5,0.8,1.1,2.1-0.6,2.6c2.7,0.2,6.5,2.8,6.5,5.7
	c0,0.5-1.1-0.2-0.9,1.2c0.1,1,1.8,2.3,2.4,3.1c0.8,1.1,1.3,1.8,1.5,3.2c0-0.2-0.1,1.8,0,1.9c1.6,1.6,2.3-1.8,2.9-2
	c1-0.3,1.6,1.5,2.1,2c0.2,0.3,0.2,1,0.6,1.2c0.6,0.4,1.3-0.2,1.9,0.2c1.6,1,0.2,3.1,0.4,4.6c0.3,2.4,2.7,1.8,4.1,2.8
	c1.5,1.1,2.6,3.4,4,4.7c1.5,1.4,2.7,1.6,3,3.6c0.1,0.6-0.3,1.4,0,2c0.3,0.7,1.4,0.7,2.3,1.2c0.7,0.4,0.9,1,1.6,1.2
	c0.5,0.2,1.2-0.1,1.7,0.1c0.9,0.4,0.1,0.1,0.6,1.2c0.7-0.2,1.7-1,2.3-1.4c0.4-0.3,1.2-0.2,1.4-0.7c0.4-0.7-0.3-0.7-0.2-0.8
	c0,0.1-0.3-2.9-0.3-3.2c0,0-0.3-0.6-0.3-1.1c0.1-0.8,0.8-1.9,1-2.7c0.3-1.4-0.7-2.8,1.2-2.7c-0.1-1.1,0.5-2.1,1.3-2.9
	c0.4-0.4,1-1,1.6-1.1c0.7-0.1,1.5,1,1.9,0.9c0.5-0.3,0.1-1.4,0.6-1.7c0.9-0.5,2.1-0.5,3.1-0.7c1.4-0.3-0.5-0.3,1.8-0.5
	c0.7,0,1.9,0.2,2.7,0.3c1.4,0.3,2.6,0.3,4.1,0.5c1.4,0.2,2.1,0.6,3.3,1.3c0.1,0.9,0.6,1.3,1.4,1c0.5,0,1-0.1,1.5-0.1
	c-1.2-2.5-2.8-3.4-3.1-6.4c-1.1,0.9-1.5-1-1.4-1.8c0.1-1.2,0.9-2,1.1-3.2c0.2-1.6-0.5-3-1.1-4.3c-0.6-1.3-0.7-3-1.3-4.1
	c-0.2-0.3-0.9-0.3-1-0.5c-0.4-0.9-0.1-1.5-0.4-2.3c-0.2-0.6-0.3-0.8-0.6-1.4c-0.2-0.3-0.9-0.3-1-0.8c-0.2-1,1.5-1.5,0.9-2.8
	C234.1,112.4,233,112.7,232.4,112z"/>
<path class="st0" d="M200.1,145.7c-0.3,0-1.4-0.2-1.5,0.1C198.3,146.6,200.3,149.4,200.1,145.7z"/>
<path class="st0" d="M120.2,372.2c-0.4,0-0.8,1.4-2.1,0.6c-2-1.2,0.1-1.8,0.7-2.3c0.3-0.3,1.9,0.3,0.8-0.9c-1.2-1.2-2.7,0.1-3.1,1.2
	c-0.5,1.4,0,2.6,1.3,3.3c0.3,0.2,1.3,0.3,1.6,0.2C120.6,374,120.2,373.8,120.2,372.2z"/>
<path class="st0" d="M206.1,192c-0.6-0.4-0.2-0.8-0.5-1.4c-1.2,0.4-0.9-0.3-2.1,0.2c-1.5,0.8-0.1,2.3-1.3,3c0.6,0.4-1,1.3-1.3,1.4
	c1.1,1.2,2.4-0.1,3.8,0.9c0.5,0.3,0.5,1.7,1,1.7c1.3,0.1-0.2-0.6,0.4-1c0.5-0.3,1.2-0.4,1.5-0.6c0-0.4-0.5-0.8-0.6-1.4
	c0-0.4,0.5-0.6,0.2-1.4C207.2,193,206.4,192.5,206.1,192z"/>
<path class="st0" d="M202.5,191"/>
<path class="st0" d="M202.3,193.7"/>
<path class="st0" d="M306,448.5c0.7,0-0.4-3.1-0.3-3.4c2.3,0.5,1,2.7,0.6,3.8C306.1,448.8,306,448.7,306,448.5z M353.9,399.2
	c0-0.2,0-0.4,0.1-0.5c-0.5,0-1,0.2-1.4,0.5c0.1,0.5,1.9,0.2,0.3,1.6c-0.5,0.4-1.5-0.1-2.1,0.2c-0.9,0.4-1.2,1.6-2.3,1.4
	c0.4,0.6,0.8,1.2,1.2,1.7c-1.3-0.1-3.2,1.3-3.1,2.6c-2.8,0.3-4.5-0.6-7.1-1c-1.2-0.1-1.9,0.4-2.8-0.6c-0.4-0.4-1.4-3.1-1.7-3.6
	c-1.3,0.4-2.2,0.4-2.8-1.9c-0.1,2.2-1.8,1-2.1,2.9c-0.2-0.5-0.5-1.1-0.7-1.6c-0.2,0.9-0.3,1.8-0.2,2.8c-1-0.5-2-2.4-3.1-1.2
	c0.3,0.2,2.3,1.3,1.8,1.8c-0.9,0.6-1.3,1.7-2.4,2.3c-1.2,0.6-2.3,0.5-3.6,0.4c0,0.5,0.1,1.4-0.2,1.8c-0.4,0.4-1.3,0.1-1.5,0.8
	c-0.4,1.5,1.6,1.7,1.5,3.3c0,0.6-0.9,0.1-0.9,0.3c-0.1,0.6,0.1,1.2,0.4,1.9c-1.2-0.1-1.8,1.1-2.9,1.1c-1.4-0.1-1.4-1.8-2.9-1.7
	c0,0.5,0.1,1.3-0.2,1.5c-0.2,0.2-0.9-0.1-1.1,0.1c-0.5,0.5-0.9,1.3-1.5,1.6c-1.1,0.6-1.9,0.8-2.3-0.8c-0.1-0.4,0.9-0.7,1-1
	c-1.1-0.6-1-2.8-2.6-3.5c-0.6,0.9-2.1,1.6-2.2,2.3c-0.1,0.4,0.4,1.5,0.4,1.5c0-0.1,0.2,0.2,0.2,0.3c-0.1,0.9-0.9,0.9-0.9,1.3
	c-0.2,1.6,0.9,1.4,0.4,3c-0.1,0.4,0,1.1-0.3,1.4c-0.2,0.2-0.9-0.1-1,0c-0.2,0.2-0.3,1.1-0.5,1.2c-2.1,1.1-1.5-0.6-3.1-1.1
	c-1.4-0.5-2.8,0.9-3.7,1.7c-0.3,0.2-0.7,0.2-1.1,0.2c0.1,0.6-0.1,1.1-0.4,1.5c-0.4,0.4-1,0.3-1.4,0.6c-0.6,0.4-1.4,0.9-2,1.3
	c-2.4,1.7-1.6,4.4-2.7,6.6c-1.2,2.4-4,1.1-5.8,2.8c-0.3,0-0.7,0.1-1,0.2c0,0.4,0.1,0.7,0.2,1.1c-0.6,0.6-0.7,0.4-1.4,0.7
	c-1,0.5-3.1,0.9-4.1,0.3c-0.2,0.9-1.1,0.9-1.3,1.4c-0.3,0.8,1.2,1.6-0.3,2.1c-0.5,0.2-2.7-0.6-3.3-0.9c-0.1-0.1-0.5,0.2-0.6,0.2
	c-0.4-0.2-0.4-1-0.7-1c-0.5-0.1-1.1-0.6-1.5-0.4c-0.5,0.2-0.4,1.3-0.9,1.7c-1.4,1-1.3,0-2.5-0.5c0.5,1.5-0.6,1.2,1,1.9
	c0.9,0.4,2.3,0.1,3.1,1.1c1.2,1.6,0,3.4-1.7,3.5c-1.4,0-3.2-1.4-4-2.4c-0.4-0.5-0.7-1.4-1-1.8c-0.5-0.5-1.3-0.4-1.7-1.3
	c-0.7,0.5-1.7,0.7-2.3,1.2c-0.3,0.3-0.5,1-1,1.5c1.8,0.3,1,0.2,1.3,1.4c0.3,1.3,0.4,1.9-0.7,3.1c-0.5,0.6-2.2,1.7-3,1.6
	c-1-0.1-0.4-0.8-0.9-1.1c-0.5-0.3-1.8,0.4-1.9-0.9c-0.7,0.3-1.1,1.1-1.9,1.5c-0.5,0.3-0.8-0.2-1.2-0.1c-0.5,0.2-1.5,0.9-2.1,1.2
	c-0.4-0.1-0.7-0.1-1.1-0.2c-0.3,0.3-0.6,0.6-0.9,0.9c-1.2,0.2-1.9-0.1-2.8,0.6c-0.8,0.6-0.9,2.8-1.1,3.5c-0.3,0.9-0.4,2.1-1.6,2.6
	c-1.9,0.9-1.8-1.1-3.7-0.8c-3.4,0.4-0.1,6.9-3.6,3.5c0,1.8-1.4,1.9-2.8,1.5c-1.5-0.4-2.7-1-4.3-0.9c-0.6,0.1-1.4,0.3-2.2,0.4
	c-0.2,0-2.5-0.1-2.6,0.1c-0.5,0.9,0.9,1.9-0.4,3.2c0.4-0.4-2.7,0.9-2.1,0.8c-0.8,0-1.5-0.6-2.1-0.7c-0.8-0.1-2.7,1.3-2.9-0.5
	c-1,0.4-1.3,0.9-2.4,1c-0.9,0-1.7-0.6-2.5-0.8c-0.3-0.1-0.4-0.5-0.7-0.6c-1-0.2-2.3,0.6-3.5,0.2c0,3.5-8.2-1.7-9.9,2.3
	c-0.2,0.4-0.3,1.1-0.2,1.4c0.1,0.6,1,0.8,1.1,1.1c0.4,1.3-0.1,1.5-0.3,2c-0.1,0.1-0.7,0.2-0.9,0.4c-0.3,0.4-0.3,1.5-0.3,2
	c0,0.9,0,1.9,0.5,2.7c0.6,1,1.4,0.7,1.8,2.2c0.4,1.2,0.1,3.2-0.5,4.4c-0.9,1.6-1.5,1-2.8,1c-1.7,0-3.3,0.5-4.6-1.3
	c-1.1,2.2,0.7,0.9,1.1,1.8c0.5,1.1-0.4,3.5-0.4,4.7c-1.4-0.3-1.4,2.7-1.1,3.6c0.2,0.6,1.4,1.7,2,2c0.7,0.4,1.4-0.6,1.9,0.4
	c0.5,1-2.7,2.5-0.7,2.4c0,0.6-0.2,1.7,0.2,2.1c-0.2-0.2,2.6,0.2,2.3,0.3c0.6-0.2,0.3-0.3,0.6-0.5c0.6-0.3,0.1-1,1.2-1.4
	c0.5-0.2,1.7,0.1,2.2,0.1c0,0,1.2-0.8,1.2-0.8c0,1.6,0.1,1.5,1,2.5c-0.2-0.6,0-1.7,0-2.3c1,0.7,1.2,1.3,1.8,2.1
	c0.6,0.7,2,1.4,1.3,2.5c-0.9,1.5-2.5-0.7-2.9,1.6c-0.4,2,1.5,1,1.7,2.7c0.1,0.9-0.9,1.6-1.8,1.4c-0.8-0.1-0.5-1-1-1.3
	c-1.2-0.7-1.1-1.1-2.7-1.1c-0.5,0-0.4,1-1.3,0.6c-0.4-0.2-0.9-1.2-1.1-1.5c-0.1-0.1-1.1-1-1.4-1.3c-0.9-0.8-1-1.7-2.4-1.8
	c0,0.6,1.5,0.5,1.8,0.9c0.3,0.4-0.3,1.2-0.1,1.7c0.4,0.8,1.7,0.8,1.9,2c0.3,1.7-1.5,1.7-1.5,3.4c0.6,0.1,1.8,0.3,2.5,0.1
	c0.6-3.3-1.2-3.4,2.7-1.8c0.9,0.4,3.2-0.1,3.8,0.6c0.6,0.8-0.5,1.9,0.7,2.2c0-0.9,3.1-0.7,3.6-0.8c1.2-0.3,4.9-1.7,2.4-3
	c1-0.1,3.1-0.6,3.7,0.4c0-0.5,0.2-1.8,1.3-0.9c0.7,0.6-0.2,1.8-0.4,2.6c0.3-0.8,2-1,2.6-0.6c1.4,0.9,0.2,2.3,0.6,3.6
	c0.5,1.5,1.8,0.6,1.4,2.7c1.7-1.1,3.7-0.3,4,1.4c0.2,0.9-0.5,2.4-0.1,3.3c0.7,1.4,0.9,0.6,2.6,0.9c3.8,0.7,0.4,4.2,1.1,6.1
	c-3.7-0.3-0.3,2.5-1.8,4c-1.5,1.4-2.1-2-3.6-1.3c0.4,1.1,2-0.3,1.5,1.4c-0.2,0.6-1.7,0.3-2.2,1.1c-0.9,1.5,0.7,3.8,2.3,4
	c1.7,0.2,2.9-1.9,3.8-3c1.3-1.6,1-2.2,1.1-4c0.1-2.2,0.9-2.3,3.2-2.8c2-0.4,3.9-0.5,5.8,0.3c0.8,0.3,3.2,2.4,2.9,0
	c1.6,0.5,1.1-2.1,2.9-0.5c0.5-1.1,1.6-1.3,2-1.9c0.4-0.6-0.2-1.7-0.2-2c0.1-1.2,0.2-1.5,1.9-1.4c1.4,0.1,2.5,0.4,2.5,2
	c0.2-0.1,0.4-1.1,0.7-1.1c1.1,0.2,1.1,1.1,1.8,1.4c1.6,0.8,0.3,0.1,1.4-0.5c0.9-0.5,1.4-0.7,2.6-0.8c-0.6-1.3-0.1-1,0.4-2
	c0.2-0.5,0.5-1,0.8-1.5c0.2-0.3,0.6-0.5,1-0.5c0-0.4,0-0.8,0-1.1c0.6-0.7-0.6-1.2,1.2-0.9c0.8,0.2,1.1,0.7,1.2,1.4
	c1.5-0.2-0.3-1.5,1.4-0.9c-0.3-0.4-1.1-7.4-0.3-6.9c0.5,0.3,1.4,4.4,1.7,5.1c0.5,1.4,0.4,2.6,1.8,3.2c0,0-0.5-3.4-0.5-3.8
	c-0.2-1.8-0.6-3.6-0.8-5.5c-0.2-1.6-0.5-3.3-0.8-4.8c-0.1-0.5-1.2-4.5-1.8-2.3c-0.3-1,1-0.9,1.3-1.3c0.3-0.5,1.1-1.8,1.3-2.4
	c0.6-1.8,0.3-4.4-0.2-6.2c-0.7-2.6-1.9-4.9-2-7.6c-0.1-2.4,0.7-4.2,1.4-6.4c0.7-2.2,1.9-3.7,3-5.7c0.5-1,0.7-2.3,1.6-3.1
	c1.1-0.9,1.7-0.4,2.8-1c1.5-0.8,2.6-2.3,4.6-1.8c1.5,0.4,1.1,0.6,1.5,2.1c0.1,0.4-0.4,1.9,0.6,1.7c-0.2-0.6,0.1-1.1,0.6-1.4
	c0,0.5-0.1,1-0.1,1.5c1.1,0.1,0.9-1.9,0.9-2.6c0.3,0.4,2.2,3.1,1.6,0.9c0.2,0.4,0.5,0.5,0.9,0.3c-1.9-0.6,1.3-2.9,1.5-3.2
	c1.1-1.1,1.4-2.6,2.2-3.8c0.6-0.9,0.8-1.8,1.3-2.7c1-1.8,2.7-1.4,4.7-2c0.2-1.7-3.6,0.2-4,0.1c0.4-1.9,8.1-0.9,8.2,0.6
	c0-0.5,0-1.1,0.1-1.6c0.7,0.1,0.5,1.3,0.5,1.8c2.6,0.5,5-2,7.1-3c0.9-0.5,2.3-0.5,3.1-1.3c0.7-0.7,0.5-2,1.2-2.6
	c0,0.7,0.2,2.6,0.6,1c0.2-0.7-0.2-1.5-0.1-2.1c-1.5,0.2-2.2-0.5-1.9-1.9c0.1-0.4,0.8-0.7,1-1.2c0.3-0.6,0.2-1.8,0.4-2.5
	c1.1-3.4,5.1-4.2,7.6-6.6c1.3-1.3,2-2.1,3.7-3c2.1-1,4.8-1.5,6.6-2.9c3.2-2.5,4-6.3,7.5-8.8c3-2.1,6.6-3.6,9.5-5.8
	c0.1-0.1,1.7-1.6,1.8-1.7c0.2-0.4,0.4-1.2,0.6-1.5c0.3-0.4,0.3-1,0.7-1.5c0.2-0.2,1.8-1.2,2.1-1.4c2.4-1.8,3.5-4.2,5.3-6.6
	c0.9-1.2,2.3-2,3.2-3.2C355.8,400.2,353.5,401.2,353.9,399.2z M305.6,449.2c-1.8-0.1-1,1.6,0.3,0.9
	C305.9,449.8,305.8,449.5,305.6,449.2z"/>
<path class="st0" d="M553.2,214.4"/>
<path class="st0" d="M449.9,232c-0.6,1.4-1.1,4.3,1.3,3.8c-0.8,1.3-2,2.5-2.8,3.8c0,0-0.6,1.8-0.6,1.8c-0.6,0.7-1.5-0.1-1.6,1
	c2-1.7,2.1,1.6,2.4,2.7c0.2,0.5,0.9,1.5,0.9,1.8c0.1,0.7-0.7,4.9-0.1,3.2c0.1,1-0.3,2.6,0.1,3.6c-0.4,1,0,1.3,1,1.1
	c0.6,0.1,1.1,0,1.7-0.1c0.5-0.7-0.1-2.9-1.2-2.6c-0.1-2,0.1-1.4,0.8-2.5c1.5-2.3,2.1-1.5,4.5-2c1.2-0.2,1.4-0.9,2-1.1
	c0.3-0.1,1-0.1,1.5-0.3c2.2-0.7,3.7,0.2,5.8,0.4c2.5,0.3,5.4-0.9,7.8,0.3c0.7,0.4,1.1,1.9,1.7,1.9c0.5,0,0.9-1.9,2.2-1.3
	c1.3,0.6-0.7,3,1.4,2.5c0.5-0.1,1.3-1.7,1.7-2c1-0.6,1.7-0.4,2.7-0.7c-1.8-1.9,2.5-5.6,3.9-1.6c1.1-2.7,0.4-3,3.6-3
	c1.5,0,2.1-0.1,3.8-0.3c0.6-0.1,3.3-0.8,3.5-0.2c0.4,1.3-1.6,1.4-2.1,2.3c1.9,0.6,0.7,3.5,0.7,4.8c1-0.1,2-1,3.2-1.2
	c1.8-0.2,1.7,0.4,3,1c0.6,0.3,3,1.2,3.1,1.4c0.6,1.2-1.2,2.2,0.1,3.7c1,1.1,4.4,1.7,2.7,4.2c-1.4,2-6.9,3.1-6.9,5.7
	c0,2,1.5,0.9,1.8,1.9c0.2,0.5,0.6,1.3,0.1,1.8c-1.2,1.3-3.4-1.1-4.7-1c-0.5,1.4,1.1,2.2,0.8,3.6c-0.1,0.5-0.7,0.6-0.8,1
	c-0.3,0.7-0.4,1.2-0.5,2c-0.2,0.8-0.4,1.8-0.4,2.6c0,0.5,0.3,2,0.2,2.9c3.3-0.4,4-1.5,4.1,1.9c1.8,0,1.2-1.5,1.8-2.4
	c0.3-0.4,0.9-0.1,1.1-0.4c0.2-0.2,0.5-1.4,0.7-1.7c0.2-0.4,0.7-0.5,0.9-1c0.4-0.9,0.2-2.5,0.2-3.5c0.4,0.8,0.9,1.6,1.5,2.2
	c1.6,1.4,0.7,0.9,2.7,0.4c2.3-0.6,0.8,0.8,1.9-1c0.8-1.2,0.7-2.8,0.8-4.2c0-0.6-0.2-3.3,0.2-3.7c0.3-0.4,0.9,0.2,1.4-0.2
	c0.9,0.2,1.2-0.1,1-1.2c0-0.4,0.1-0.9,0.2-1.3c0-0.9,0.1-1.6-0.5-2.4c2,0.2,2.1-3,3-4.4c0.7-1.1,1.5-1.3,1-2.9
	c-0.3-0.9-0.2-0.8-0.6-1.3c-0.4-0.5-1.6-0.6-1.8-1.5c-0.4-1.6,0.8-1.2,1.8-2.2c0.4-0.4,0.8-1,1-1.5c0.7-1.3,0.7-1.4,1.9-2.6
	c0.3-0.3,1-0.4,1.2-0.8c0.1-0.3-0.8-1.1-0.5-1.7c0.3-0.4,2.1-1,2.5-0.8c0.7,0.3,0.1,1.7,1,2.1c1.1,0.5,2.1-0.7,2.3-1.6
	c0.1-0.7-0.5-1.5-0.3-2.2c0.1-0.3,0.6-0.7,0.6-1c0-0.2,0.4-0.6,0.4-0.8c0-0.1-0.5-1.4-0.6-0.8c0-0.2,0.4-1,0-0.7
	c0.8-0.9,1.1-2.2,1.8-3.2c0.7-0.9,1.2-0.7,1.7-1.8c0.4-0.9-0.1-2.3,0.8-3c2.9-2.4,0.7,2.8,2.9,0.7c1.4-1.4,1-3.3,2.9-4.7
	c1.5-1.1,3.3-1.4,4.6-2.8c0.6-0.7,0.8-2.1,1.4-2.6c0.9-0.9,2.6-0.9,3.7-1.6c0.8-0.6,1.3-1.4,2.1-1.9c0.4-0.3,1.2-0.1,1.7-0.4
	c0.1,0-0.1-0.6,0-0.6c0.5-0.3,1.6-0.7,2-1.3c0.5-0.7,0.3-1.4,0.8-2.2c1.2-1.7,3-0.4,4.9-0.9c1.8-0.5,5.5-1.3,4.5-4
	c-2.7,2.4-2.5-0.5-3.5-2.6c-0.6-1.3-1.8-3.1-1.2-4.9c0.4-1.1,2.4-2,2.5-3.1c-1.2-2.5-15,5-17.2,6c-1.5,0.7-2.5,1.4-3.8,2.2
	c-1.7,1-3.4,2.1-5.2,2.8c-0.4,0.1-1.6,0.7-2,0.7c-1.1,0.1-2.5-1.3-3.5-1c-0.2,0.9,1.3,2.1,0.6,3.5c-0.7,1.5-2.8,2.7-3.9,4
	c-1.1,1.2-1.7,2-2.1,3.5c-0.2,0.8,0,1.2-0.2,1.6c0,0-2.5,2.2-2.4,2.2c-1,0.6-2.4,0.4-3.5,0.6c-1.2,0.2-3.1,0.3-4.4,0.7
	c-1.5,0.5-2.6,1.4-4.3,1.2c-3.5-0.4-5.5-2.1-8.8-0.4c-2.3,1.2-4.5,1.8-7,2.4c-0.9,0.2-2.1,1-2.8,1.1c-0.5,0.1-2-0.1-1.8-0.1
	c-2.6,0.4,0.1,0.9-1.9,2.2c-0.4-2.5-1.2-0.7-2.4-0.4c-0.8,0.2-1.5,0-2.3,0.1c-0.8,0.1-1.4,1-2.3,0.8c-0.1-1.9-1-1.4-2.3-0.8
	c-0.8,0.3-0.6,0.9-1.6,1.3c-0.7,0.3-1.7,0.1-2.4,0c-3.2-0.2-7.1,1-10.3-0.3c-1.4-0.5-2.4-1.8-4-2.1c-0.5-0.1-1.6-0.1-2.1,0.1
	c-1.3,0.5-0.3,0.5-1.2,1.1C455.1,229.5,451,229.3,449.9,232z"/>
<path class="st0" d="M553,214.3"/>
<path class="st0" d="M445.5,240.8c1-0.8,1.1-0.9,1.9-2.1c0.3-0.4,1.2-1,1.3-1.4c0.3-0.8-0.2-0.2-0.3-0.9c0-1.9-0.5-3.3,0.3-5.2
	c-2.3,0.7-4.6-0.2-6.8,0.9c0-0.6,0.3-1.1,0.7-1.5c-1.2-0.3-2-0.9-3-1.2c-1.5-0.4-1.5-0.1-2.9,0.2c-2.8,0.6-2.3-0.2-4.3-1.5
	c-0.6-0.4-1.5-0.2-2.2-0.6c-1.2-0.7-1.3-1.6-1.8-2.8c-0.5-1.1-1.5-3.2-2.2-0.9c0-0.1-0.5-1.2-0.6-1.3c-0.9,0.9-1.3-0.3-2.1-0.2
	c-1.7,0.2-0.1,0-1.1,1c-1.2,1.3-2.2,1.4-4,1.1c-1-0.2-2.7-0.2-3.7-0.5c-1.2-0.4-1.5-1.8-2.2-2c0.2,1.5-0.2,2.4,0.6,3.5
	c0.2,0.3,0.9,0.5,1.2,0.8c0.3,0.4,0.5,0.7,0.6,1.1c0.2,0.7,0,1.3,0.2,2c0.3,0.7,1,1.2,1.3,2c0.6,1.8,0,1.1-0.6,2.6
	c2,1.4,1.5,1.2,1.8,3.6c0.3,2.1,1.5,3.6-0.2,5.4c-0.8,0.9-1.7,1.5-2.5,2.5c-0.2,0.2-1.1,0.7-1.4,1c-0.3,0.3-0.4,1.2-0.6,1.5
	c-0.5,0-1,0-1.6,0c0,0.4,0,0.8-0.2,1.1c-0.3,0.5-0.8,1.4-0.7,1.9c0.1,0.6,1.5,1.7,2,2c1.1,0.7,2,0.6,2.7,2.1
	c0.6,1.3,0.7,2.8,0.9,4.3c-1.8,0.2-1.9-1-3.4,0c-1.5,0.9,1.3,1.3-2,1.4c0.2,0.8,2.2,3.3,2.2,3.7c0,1.1-1.8,1.5-1.6,2.6
	c0.1,0.4,1.7,1.4,2,2.1c0.5,1.2,0.5,2.8,0.2,4.1c-0.3,1.2,0.2,1.2-0.9,1.7c-0.1,1,3,2.3,1.6,4.2c-0.6,0.9-2.1-0.3-2.4,1.3
	c0,0.2,0.7,0.8,0.9,1.4c0.4,2.1-1.4,3.9-3,4.8c0.6,0.3,1,1,1.1,1.7c-1.1-0.1-2.3,0-1.8,1.4c-2-1.8-1.6,0.6-2.1,1.6
	c-0.3,0.6,0.3,0.8-0.4,1c-1.2,0.4-2.4-1.4-3.8-1.4c1.1,1.2,0.8,4.6-1.4,3.9c0.7,2.7-2.7,0.5-3.8,0.6c-1.5,0-1.3-0.1-1.4,1.7
	c-1.2-1.6-0.9-0.4-1.5,0.3c-0.9,0.9-0.3,1.2-1.7,1.7c-1.6,0.7-2.8,0.7-4.3,1.8c-1.1,0.8-1.6,1.4-2.3,2.3c-0.7,0.9-0.2,1.1-1.4,1.4
	c-0.9,0.3-2-0.2-2.7-0.7c-1.3-1,0.1-2.1-2.4-1.6c0.6,2.5-0.2,1.8-2.6,1.9c1.1,2.4-1,2.9-1.1,5c1.4-0.1,0.9,0.9,1.5,1.1
	c0.6,0.2,1.3-0.3,1.8,0c0.9,0.4,0.8,0.7,1.6,1.2c0.3,0.2,1.7,0.9,2,1.1c1.5,0.8,0.2,0.5,1.8,0.9c-0.1,0,2,0.3,1.8,0.3
	c0.8,0.1,3.8-0.5,3.5,1.2c-0.2,1.1-1.8,0.3-1.6,2.2c0.3,2.5,4.1,1.9,3.7,4.4c1.5-0.2,4.4,2.4,2.5,3.7c1.5,0.9,0.8,1.3,1.6,2.3
	c0.4,0.5,1.2,0.7,1.7,1.2c-2,0.1-3.9,1.7-1.6,3c1.1,0.6,2.4-0.1,3.2,1.3c0.3,0.5-0.1,4.6,1.3,4.2c-0.9-0.3,1-1,0.8-0.8
	c1.1-0.9,1.4-2.7,3-0.5c0.5,0.7,0.3,1.6,0.9,2.2c0.5,0.5,1.8,0.8,2.4,1.1c1.4,0.7,2.6,1.5,2.5,3.2c1-0.8,2-0.7,3-1.3
	c1-0.6,0.9-0.9,1.5-1.7c0.9-1.3,1.9-2.7,3.1-3.9c0.7-0.7,1.4-1.5,2.1-2c2.4-1.6,1.3-2.2,0.6-4.8c1.8-0.5,2.2,1.9,1.9,3.2
	c-0.4,2.1-0.9,1.6-0.1,3.6c0,0.1,0.6,2,0.5,1.9c1.2,0.9,1.9-2.2,3.6-2c0.3,0.2,0.4,0.5,0.3,1c0.9,0.3,1.2,0.1,1.1-0.7
	c0.6-0.2,0.4-0.7,1.5-0.8c-0.4-1.3-0.3-3.4,0.6-4.1c0.3-0.3,1.3,0.1,1.8-0.1c0.3-0.1,1.3-1.3,1.4-1.4c0.4-0.5,1-1.8,1.6-2
	c1.7-0.8,3.3,1.8,4.3,2.6c-0.3-1.5-1.4-2.6-1.9-4c-0.4-1.1-0.2-2.2-0.4-3.3c-0.5-2.3-1.6-4.5-1.7-6.7c0-1.1,0.3-1.5-0.2-2.7
	c-0.3-0.7-1.1-0.9-1.2-1.5c-0.3-1.1,0.8-5.1,2.3-4.7c-1.7-1-2.6-0.2-4.1-0.2c-1.6,0.1-1.5-0.1-1.4-2.2c0.1-0.8,1.2-2.9,0.8-3.6
	c-0.4-0.7-2.6-1.6-3.3-2.3c-1.1-1.1-0.5,1.6-1.2-1.3c-0.2-0.8-0.3-2.3,0-3c0.6-1.5,1.6-1.3,2.5-2.5c1-1.5,1.7-4.1,0.8-5.7
	c-0.8-1.6-2.4-1.5-4.1-1.9c1.2,0,2.3-0.1,3.3,0.4c0,0.1,0.1,0.1,0.2,0.2c-0.9-1.3-3.3-1.3-4.7-1.6c-0.7-0.1-1.9-0.3-2.5-0.5
	c-1-0.4-0.3-0.6-1.1-1c-0.8-0.5-2.2-0.9-2.9-1.6c-0.4-0.5-2.1-2.4-2.2-2.8c-0.3-1.2,0.9-4,1.5-5.4c0.3-0.8,0.4-2,2.1-1.3
	c1.2,0.5,0.3,1.7,2,1.5c-0.6-0.3-0.8-0.7-0.7-1.4c2-0.1,0.8-0.1,1.7-1.2c0.5-0.6,0.9-0.5,1.2-1.3c0.5-1.6-1.3-2,0.6-3
	c0.7-0.4,2.4-0.2,3.1-0.3c2.6-0.1,6.7,0.3,5.7-4c-1.5-0.3-0.4,1.7-2.3,0.6c-0.9-0.5-1.7-2.9-2.1-3.9c-1.8,1.6-4.5,1.9-6.1-0.4
	c-1.2-1.7-0.6-2.8-3-3.9c-2.1-1-4.1,0.3-3.7-2.8c0.1-0.8,0.5-1.4,0.6-2.1c0.7-0.1,0.8-0.5,0.4-1.1c-0.3-0.3-0.4-0.7-0.3-1.2
	c0.2-1.4,1.2-1.5,2.2-2.2c0.8-0.6,0.9-1.3,1.5-1.9c0.7-0.7,2.3-1.5,2.1-2.3c-0.3-1.2-0.9-0.3-1.6-1c-0.9-0.9-2.1-3.2,0.2-2.9
	c-0.4-0.1,1.8,1.6,1.6,1.5c1,0.9,0.7,1,2.5,1.1c-0.6,2.2,1,0.2,1.7,1.6c0.6,1.2-0.9,2.1-0.8,3.2c0.5,0,1,0,1.5-0.1
	c-0.1,0.7,0,1.5,0.1,2.2c0.2-1.4,0.3-4.7,1.6-2.4c1.1-2.3,1.1-0.4,3.6-0.6c-0.4-0.6-2.8-3.2-2.4-4c0.6-1.1,2.7,0.2,3.2,0.8
	c1.6,2,0.6,4.2,3.2,5.9c1.2,0.8,2.5,1.5,3.9,1.6c1.9,0.2,1.8,0.1,2.5-1.2C444.5,244.4,444.3,241.7,445.5,240.8z"/>
<path class="st0" d="M496.7,280.7c0.1-1,0.4-3.8,0.1-4.3c-0.5,0.5-0.7,1.2-0.9,1.3c-0.4,0.3-0.9,0.4-1.3,0.7
	c-1.3,1.1-1.5,2.7-2.7,3.7c-3-2.9-3.9,1.2-7,2c-2,0.5-3.3,0-4.3,2.2c-0.6,1.4-1,3.7-1.5,5.2c-0.7,2.2-0.4,2.9,0.7,4.8
	c1.4,2.2,1.1,3.6,1.8,5.9c0.3,0.8,0.8,5.4,1.7,5.7c2.2,0.9,1.4-2.4,1.2-3.2c-0.1-0.9-1.1-4.1,0.8-3c1.3,0.8,0.8,3,1.3,4.2
	c0.3,0.7,2.4,3.3,3.2,3.2c1-0.1,3.1-3.9,3.2-4.7c0.2-1.7-2.1-3.9-1-5.6c0.3-0.5,1.5-0.1,1.7-0.5c0.4-0.8,0-1.2,0.1-2.1
	c0.1-0.7,0.2-2.5,0.5-2.9c0.5-0.5,0.9,0.1,1.4-0.2c0.2,0,0.4,0.1,0.6,0.1c0.2-0.5,0.4-0.9,0.8-1.3c0.8-0.3,0.7-1.5,1.4,0.2
	c0.2-1.2,1.3-0.9,1.6-1.5c0.5-0.8,0.6-2.8,0.5-3.7c0-0.9-0.5-4.8-1.2-5.2c0.3,0,0.4-0.1,0.5-0.4c-0.3,0-0.5,0.1-0.8,0.1
	c-0.1-0.4-0.1-0.8,0-1.3C498.3,280.5,497.5,280.6,496.7,280.7z"/>
<path class="st0" d="M511.1,276.1c-1.7,1.2-1.9,0.8-2.9-0.4c-0.2,1.1-0.8,1.3-1.6,2c-0.1,0.1,0.2,1.6,0.1,1.8c-0.1,0.2-1,0-1.1,0.1
	c-0.3,0.4-0.5,1.2-0.9,1.6c-0.7,0.7-2.1,1.5-3.1,1.2c-1-0.4-0.7-0.8-0.7-2.2c-1.9,0.2-0.3,2,0,3.4c0.4,2,0.6,3.6,0.4,5.7
	c-0.3,2,0.3,2.9,0.7,4.9c0.2,1-0.3,1.6,0.1,2.6c0.6,1.5,1.1,0.9,1.3,2.8c0.2,2.4-0.3,4.4,0.4,6.7c0.7,2.2,1.9,3.9,2.8,6
	c0.7,1.9,1.7,3.9,2.1,5.9c0.4,2.2-0.4,5.6,1.3,7.4c2.4,2.6,0-4.5,3.3-1.2c0.9,1,1.7,4.2,3.7,2.8c0.9-0.6,1.2-3.3,1.8-4
	c1-1.1,1.7-0.3,2.6-1.3c0.4-0.5,0.6-3,0.5-3.4c-0.2-1.2-1.2-2.1-1.7-3.4c-0.7-2-0.4-5-0.4-7.1c-1.1,0.5-2.1-1.6-1.6-2.3
	c0.3-0.4,2.4,0.1,3,0c2.4-0.7,2.9-4.6,3-7c0.2-3.5-0.1-6.5-1.2-9.8c-0.3-0.8-3.6-6.9-2.7-7.4c-1.2-0.2-5.3-1-5.8-1.8
	c-0.7-1,0.5-2.2-0.7-3.2C513.1,276.1,511.7,275.7,511.1,276.1z"/>
<path class="st0" d="M520.4,256.9c-1.4,1-1.3,3-1.8,4.5c-0.4,1-0.4,3.4-1,4.5c-0.7,1.1-1.1,0.3-1.8,1c-0.6,0.6-0.4,1.8-0.5,3
	c-0.1,1.1-0.4,5.5-1.4,6c1.6,0.6,0.8,1.5,1.3,2.6c0.5,1.1,0.1,0.6,1.4,1.2c1.7,0.9,3.6,1,5.1,2c0.6,0.4,0.7,1.1,1.6,1.5
	c1,0.4,4.3,0.5,4.4-1.4c0.9,0.3,1.4,1.7,2.3,1.8c1.5,0.2,0.7-0.8,1.8-0.8c0.5,0,2.9,0.6,3.3,0.9c0.2,0.2,1,2.1,1.7,1.9
	c1.3-0.3,1.6-5.7,1.8-6.6c0.5-2.4,1.3-5,2.3-7.3c0.8-1.9,1.8-3.9,2.9-5.7c1.4-2.4,3.2-4.3,3.1-7.3c-0.2-3.7-1.9-0.4-3.6-2.7
	c-0.8-1,0-5.2,1-5.7c-2.1-0.9-1.8-2.9-1.7-4.8c-3.1-0.1-1.8,3.1-3.9,4.1c-2.3,1-5.4-0.1-7.8,0.1c-1.8,0.2-1.4,0-2.1,1.5
	c-0.7,1.4-1.1,2.8-2.1,4.2c-0.8,1.1-1.1,1.5-2.4,1.7C522.7,257.1,521.3,255.9,520.4,256.9z"/>
<path class="st0" d="M538.2,228.3c-0.3,1.3-3.2,4.2-4.1,1.9c-0.2,2.2-1.3,2.5-2.4,4c-1.1,1.5-1,3-1.1,4.6c0,0.3-0.6,0.4-0.6,0.7
	c-0.2,0.7,0.5,1.7,0.3,2.6c-0.5,1.9-3.5,3.5-5,1.5c-0.6,0.9-1.5,1.2-2.2,1.9c-1.2,1.2-0.7,1.3-1.5,2.7c-0.6,1.1-1.2,1.2-2.4,1.9
	c0.7,1.4,1.7,0.6,2.4,2.4c0.4,1-0.3,2.3,0.4,3.2c3.4,4,5.3-4.8,6.1-6c1.6-2.1,7.1-0.1,9.4-0.7c2.6-0.6,1-1.4,2.2-3.1
	c0.4-0.7,2.5-1.5,3.3-1.2c0.9,0.4-0.1,2.3,0.3,3.2c0.9,2.3,2.8,2.3,4.1,0.4c1.2-1.8,0.1-3,0.5-5.1c0.3-1.9,1.7-3.1,2.6-4.6
	c0.8-1.4,1.3-3.2,1.4-5.1c0-0.8-0.1-1.8-0.5-2.5c-0.3,0-0.6-0.1-0.8,0c0-0.3-0.1-0.6-0.1-1c-1.6-1-4.5-2.4-6.3-2.9
	c-1.2-0.3-2.6-0.4-3.8-0.3C538.3,227.1,538.6,226.6,538.2,228.3z"/>
<path class="st0" d="M502.5,261.1c1.3-0.5,5.3-2.8,4.8-4.2c-0.3-0.7-2.4-1.1-2.9-1.9c-0.7-1,0-1.9-0.4-2.8c-0.3-0.8-2.5-2.5-3.8-2.5
	c-1.7-0.1-3.2,1.4-5,1.4c-0.1-2.2,1.5-5-1.3-5.5c0.3-0.5,0.5-1.1,0.8-1.6c-0.8,0-1.5,0.4-2.1,0.5c-1.3,0.1-2.3-0.3-3.6-0.6
	c0.2,1.7-1.4,4.3-2,5.8c-0.7-1.9-0.8-5.2-3-3.3c0.2-0.1,1.6,1.7,1.7,1.8c-2.1,0.6-3.7,0.6-4.9,2c-0.1,0.1-1.3,1.6-1.3,1.6
	c-1.5,0.6-3.2-0.4-3.3-2c-1.5,1.7-2.2-0.8-3-1.2c-1.1-0.6-3.2-0.8-4.5-0.7c-3.1,0.2-6.3-1.1-9.2-0.2c-1,0.3-1.7,1.2-3.1,1.4
	c-0.6,0.1-1.6-0.2-2.2,0c-0.7,0.3-1.4,1.5-1.4,2.1c0,1.6,1.9,3.1,0.3,4.7c-0.6,0.6-3,0.9-3.6,0c-0.1,1.4-0.3,4.2,1.3,4.9
	c1.1,0.6,3-0.1,4.4,0.4c3.5,1.3,6.7,2,10.4,1.7c2.3-0.2,4.6-0.2,7-0.4c1.9-0.1,3.7,0.3,5.5,0.2c1.7-0.1,2.4-0.1,4.1,0.2
	c0.8,0.1,3.7,0.7,3.9-0.4c-0.4,1.7,7.7-0.6,8.3-0.7c0.8,0,1.6,0,2.3,0.3c0.7,0.3,1.2,1.3,1.7,1.5c1.9,0.7,2.4-0.6,3.6-1.5
	c-0.2-0.2-0.5-0.3-0.7-0.5C501.7,261.4,502.1,261.2,502.5,261.1z"/>
<path class="st0" d="M589.9,189.7c0-0.6-1.1-1.6-1.3-2.2c-0.5-1.4-0.1-1.3-1.1-2.4c-0.5-0.6-1.4-1.8-2.2-2.1c-1.4-0.6-2,0.2-3.3,0.3
	c-1.8,0.2-4.1-0.1-6-0.8c-2.8-1-4.8-0.3-5.9,2.5c-0.8-0.3-1.7-0.4-2.6-0.4c-0.2-1.2,0.9-0.8,1.1-1.6c0.2-0.6-0.4-0.7-0.2-1.1
	c0.5-1.5,1-1.5,1.8-2.9c0.2-0.4-0.3-1,0.1-1.6c0.3-0.5,1.1-0.6,1.4-1c0.4-0.6,1-1.1,0.8-1.7c-0.2-0.4-1.1-0.7-1.4-1
	c-0.7-0.7-1-1.4-1.5-2.2c-0.9-1.4,0.6-1.4-1.2-1.7c-0.7-0.1-1.9,0.6-2.3,1.1c-0.5,0.6-0.5,3.4-1.5,2.9c-1.8-0.8,1.5-2.7-1.9-3
	c0.1-1.3,4.4-3.9,3.8-4.8c-0.6-0.9-1.2,0.1-2.1-0.2c-0.9-0.3-0.8-0.8-1.5-1.4c-0.5-0.5-2.1-2.7-2.6-2.8c0,1.7-3.6,3.2-4.8,3.9
	c-1.1,0.6-3.1,1.4-3.7,2.5c-0.6,1.1,0.7,2-1.1,2.1c0.9,1.4-0.4,2.3-1.6,2.5c-1.9,0.4-3.3-1.3-5.1-1.6c-1.7-0.3-3.4,0.6-5,0
	c-1.9-0.6-3-2.8-5.2-2.6c-0.1,2.6-1.8,1.7-3.7,2.8c-1.4,0.8-2.8,2.5-3.6,3.9c-0.2,0.4-0.2,1.4-0.6,1.7c-0.3,0.3-1,0.1-1.2,0.3
	c-0.1,0.1-0.8,0.5-0.8,0.6c0.1-0.1,0.4,1,0.3,1.2c-0.3,0.6-1.2,0.6-1.7,1c-0.5,0.4-0.6,0.8-1.1,1.3c-0.8,0.7-2,2-3,2.5
	c-0.8,0.4-1.5,0.1-2.3,0.3c-1.3,0.3-2.5,1.3-3.8,1.6c-2.5,0.7-2.6,0-3.1,2.5c-0.5,2.8-1.7,4.6-4,6.3c-1.2,0.9-5.3,2.7-5,4.8
	c0.2,1,2,0.5,1.2,2.1c-0.4,0.8-2.2,1.3-2.9,1.8c-1.2,0.9-0.8,1.1-2.8,1.3c-0.5,0-0.9,0.7-1.3,0.7c-1.1,0,0.2-1.2-1.7-0.9
	c1.8,0.8-1.9,1.4-2.1,1.5c-0.6,0.3-1,1-1.4,1.2c-1.9,1-3.6-0.4-5.9,0.1c-2.7,0.5-0.8-0.1-1.6,1.5c-0.7,1.5-0.6,0.7,0,2.4
	c0.6,2,2.1,2,3.1,3.8c0.6-0.9,4.1-1.7,4.9-1.4c0.1,0,1.6,2,1.6,2.1c0.6,1.3,0.3,0.6,0,1.5c-0.3,1-1.5,1.7-1.4,3
	c0.1,1.2,0.9,1,1.4,1.7c0.6,0.9,1.4,1.5,1.4,3c0.3-0.1-0.4-0.7,0.5-0.8c0.8-0.1,2.1-0.4,2.9-0.7c1.7-0.5,3.2-1.1,4.8-1.9
	c2.7-1.4,4.8-1.3,7.8-0.5c3.3,1,4.1-0.4,7.2-0.8c1.6-0.2,3.2-0.2,4.7-0.7c1.8-0.5,2.5-1.5,3.2-3c1-2,1.8-3.5,3.4-5.1
	c0.6-0.7,1.4-1.2,2-2c0.8-1.1,0.6-1.2,0.5-2.2c-0.1-0.9-1.2-1.9,0.2-2.7c0.7-0.4,1.5,0.1,2.1,0.2c1.4,0.3,1.2,0.5,2.7,0.2
	c2.6-0.6,4.8-2.3,7.2-3.6c4-2.3,8.2-3.6,12.3-5.7c1.8-0.9,10.5-4.3,9.4,0.4c-0.6,2.3-3.3,2-2.1,5.1c0.4,0.9,1.1,1,1.5,1.7
	c0.3,0.5,0.2,1.7,0.5,2.4c0.5-0.7,1.3-1.2,1.9-1.7c1.7,4.9-1,7.4-5.9,8.2c-0.5,0.1-2.7-0.5-2.8-0.3c-0.3,0.2-0.2,1.7-0.5,2.3
	c-0.4,0.6-2.4,2.3-3,2.6c-0.7,0.4-1.5,0.5-2.2,0.9c-0.8,0.5-1.3,1.5-2.1,1.9c-0.7,0.3-1.8,0.2-2.4,0.6c-0.4,0.3-0.9,1.6-1.4,2.2
	c-1.7,2.1-4.7,2.5-6.3,4.6c2,0,4-0.1,5.9,0.5c1.9,0.6,3.3,2,5.2,2.6c-0.5-1.5,0.8-3.4,1.8-4.5c0.6-0.7,1.3-1.1,2.1-1.5
	c0.4,0,0.7,0,1.1-0.1c0.5,0,0.7-0.3,0.6-0.9c1.3-1.2,1.9-2.5,3.4-3.6c0.4-0.3,1.1-0.4,1.5-0.7c0.8-0.6,0.9-1.6,1.6-2.2
	c1-0.8,2-0.9,2.8-1.7c1.4-1.4,1.4-3.5,3.3-4.7c1.3-0.8,2.8-0.8,4.2-1.3c2-0.6,2.9-1.4,4.1-2.8c0.4,1.6,2.7,0,3.6,0.3
	c0.1,0,1.5,1,1.5,1.1c0.3,0.5,0.3,0.9,0.3,1.4c-0.2,0.7,0.2,0.9,1,0.7c1.2,0.8,4.3,2.4,4.3,0.1c0-1.3-2.5-3.2-3.5-4.1
	c-1.8-1.7-3.1-3.9-1.6-6.1c0.8-1.2,2-1.9,2.8-3.1c0.3-0.4,0.7-1.8,1-2.1c1.1-1.1,2.3-0.6,3.7-0.7C589.5,192,589.1,189.8,589.9,189.7
	z"/>
<path class="st0" d="M565.4,205.4c-0.1-0.3-0.2-0.7-0.3-1c-1.2,0.9-1.1,1.9-2.2,0.8c-0.5-0.5-0.7-2.1-0.9-2.6c-0.6-1.4-1.9-3.2-1-5
	c0.3-0.7,2.9-1.7,2.3-2.9c-0.9-1.9-6,0.1-7.1,0.7c-1.2,0.6-6.4,1.6-5.3,3c-1.3-1.7-12.8,5.9-14.5,6.6c-0.5,0.2-1.9,1-2.5,0.9
	c-0.9,0-2-1.5-3-1.1c-0.8,0.3-0.7,0.7-0.6,1.5c0,0.6,1,1.3,0.5,2.4c-0.3,0.8-1.5,1.7-2.2,2.3c-1.9,1.9-3.9,3.5-3.7,6.3
	c-1.5,0.1-1.7,2-3.1,2.5c-0.7,0.3-1.7,0-2.5,0.1c-1.2,0.3-2.7,0.3-4,0.6c-2,0.5-2.9,1.5-5.1,1.2c-2.1-0.3-4.1-1.7-6.3-1.3
	c-0.6,0.1-2,0.9-2.6,1.2c-2.5,1.2-5,1.6-7.6,2.5c0.5,1.4-2.7,1.5-3.5,1.6c-0.2,0-0.8-0.5-1.3-0.2c-0.5,0.4,0.4,1.5-0.6,2.1
	c-0.4-2.5-1.2-0.7-2.4-0.4c-0.8,0.2-1.5,0-2.3,0.1c-0.8,0.1-1.4,1-2.3,0.8c-0.1-1.5-0.7-1.6-1.9-1.1c-1,0.4-0.5,1-1.4,1.4
	c-0.7,0.3-1.6,0.2-2.3,0.2c-3.1-0.1-6.3,0.6-9.5,0.1c-2.3-0.4-5.6-4-8.1-2.4c-0.7,0.4-0.6,1.3-1.4,2c-1.2,1-3.8,0.9-5.2,1.5
	c-1.8,0.7-2.3,1.4-2.5,3.4c-0.1,0.9,0.1,1.6,0.3,2.4c0.1,0.4,0.8,0.2,0.8,0.7c-0.1,0.5-0.7,1-0.9,1.3c-0.6,1-1.7,2.4-2.2,3.1
	c-0.3,0.3-0.8,0.3-1.2,0.9c-0.3,0.5-0.2,1.5-0.3,2c1-0.6,0.9-3.3,2.7-1.6c0.6,0.6,0.7,2.9,0.9,3.8c0.2,0.8,0.5,0.8,0.5,1.7
	c0,0.4-0.8,4.2,0,2.2c0.2,1.9-1.1,5.4,1.8,5.4c2.8,0,1.1-2.4,0.8-4c-0.1-0.5-0.5-0.2-0.1-1.2c0.1-0.2,1.1-1.6,1.4-1.7
	c1.4-0.8,3.6-0.2,5.2-0.9c0.3-0.1,0.4-0.6,0.8-0.7c0.4-0.2,1.3-0.2,1.8-0.2c0.9-0.1,1.3-0.1,2.2,0.1c1.8,0.3,3.2,0.4,5.1,0.3
	c1.3-0.1,2.5,0,3.8,0.5c0.4,0.1,0.6-0.1,1,0.2c0.4,0.2,0.5,0.9,0.8,1c2.1,1.1,0.9-0.7,2.9-0.6c-0.1,3.4,1.7,3.2,3.2,1.3
	c1.1-1.4,2.4-1.2,4.2-1.8c-0.9-0.9-1.4-2.6,0.2-3c1.7-0.4,1.9,1.7,2.4,2.9c0.3-0.7,0.7-1.3,0.9-2c0.6-1.8,0-2.3,1.8-2.4
	c0.7,0,1.4,0.6,2.1,0.6c0.6,0,0.9-0.5,1.4-0.6c1.2-0.2,2.8-0.3,4-0.4c-1,0.8-1.8,0.9-2.3,2.2c2.2,0.3,0.9,3.6,1,5.2
	c1.7,0.1,3-1.6,4.6-1.3c1.9,0.3,2.3,2.1,4.5,2.2c-1.9,3.8,2.2,3.4,3,5.8c0.6,1.9-3.7,4.3-5.3,4.9c1.3,0.9-0.6,0.6-1.1,2
	c-0.8,2.2,1.4,1.7,2,2.8c2,3.4-4.2,0.5-4.7,0.5c-0.5,1.5,1.1,2.4,0.7,3.9c-0.1,0.5-0.9,0.8-1.1,1.4c-0.3,0.7-0.1,1.5-0.2,2.2
	c-0.4,2.3-0.7,3-0.9,5.4c1.4-0.2,2.7-0.4,4.1-0.5c0,1.2-0.4,2.1,0.7,2.3c1.8,0.3,2.1-1.9,2.6-2.7c0.1-0.1,0.6,0.1,0.7-0.1
	c-0.2,0.3,0.5-1,0.3-0.8c0.8-0.8,1.7-2.5,1.7-3.9c0.8,0.8,1.2,1.8,2.2,1.8c0.2,0,1.9-0.7,2.3-0.8c0.4-0.1,0.9,0.3,1.3,0
	c0.4-0.3,1-3.2,1.2-3.9c0.2-1.1-0.1-2.3,0.1-3.4c0-0.6,0-1.1,0.1-1.7c0.2,0,0.5,0,0.7,0c1.1-1.5,0.8,1.6,1.7-1.8
	c0-0.1,0.2-0.9,0.2-1.2c0.2-0.6,0.2-1.3,0-1.9c0.2,0,0.4-0.1,0.6-0.1c0.7-1.8,0.9-4.9,3.4-5.3c-0.5-1.2,0.1-3.2-0.7-4.1
	c-1-1.2-3-0.4-1.6-2.3c0.3-0.4,1.2-0.6,1.5-0.9c0.7-0.7,0.5-1.6,1-2.3c0.6-0.9,2.4-1.3,2.8-2.3c0.2-0.5-0.2-1.1-0.2-1.1
	c0.3-0.6-1-0.6,0.5-0.9c1.6-0.2,0.2,0.7,1.3,1.2c1.2,0.5,2.4,1,3.4-0.5c0.8-1.2-0.2-2.2,0-3.3c0.1-0.6,0.9-0.9,1-1.5
	c0.3-1.6-0.5-2.6,1-4.4c0.4-0.5,1.2-0.7,1.6-1.3c0.7-1,0-3.7,1.7-3.9c0.1,1.9,0.3,2.3,1.7,1.5c0.7-0.4,1.1-1.3,1.4-2
	c0.9-1.8,1-2.5,2.8-3.7c2-1.2,3.6-2.1,5.1-3.9c0.6-0.7,0.2-1,1.2-1.6c1-0.6,1.9-0.6,2.9-1.4c0.8-0.7,1.3-1.1,2.1-1.5
	c0.3-0.2,0.6,0,0.9-0.1c0.8-0.5,2.7-2.1,3.2-2.8c0.6-1-0.4-1.9,1-2.4c0.3-0.1,1.9,0.5,2.5,0.4c0.7-0.1,1.1-0.4,1.7-0.6
	C563.2,209.3,566.5,208.6,565.4,205.4z"/>
<path class="st0" d="M267.2,46.6c-0.7-1.3-1.3-1.4-2.3-2.1c-0.9-0.6-1.3-1.1-2.1-2c-2-2.3-3.9-0.9-6.7-1.7c-1.3-0.4-2.5-0.9-3.8-1.5
	c-0.4-0.2-1.4-0.1-1.7-0.4c-0.2-0.2,0.1-1-0.4-1.2c-2.7-1.2-2.8,2-5.1,2.2c-2.9,0.3-4.9-1-7.8,0.2c-2,0.8-4.2,1.5-6.1,2.3
	c-0.7,0.3-1.5,0.8-2.2,1.1c-0.7,0.4-0.1,0.7-1.1,0.9c-0.8,0.2-1.6-0.3-2.4-0.1c-1.7,0.5-2,1.3-2,2.9c4-2.9,4.8,2,2.3,1.1
	c1.4,0.6,0.2,5.5,2.4,5.1c-0.5,2.8,0.1,6.3,1.8,8.8c0.6,0.8,2.5,1.9,3.4,2.3c-0.2,0.7,0.1,0.9,0.8,0.7c0.5,0,1.1,0,1.6,0
	c0.9,0.1,2,0.4,2.7,1c0.1,0.1,0.2,0.3,0.3,0.4c0.1,0.4,0.2,0.9,0.3,1.3c0.4,0.2,0.8,0.3,1.2,0.4c1.7,1.2,4.6,2.5,3.4,5.3
	c-0.3,0.6-1.3,1.2-2,1.7c-0.6,0.4-2.5,0.6-3,1.1c2,0.7,0.3,1.9,0.1,3c-0.2,1.3,0.5,1.9,0.6,3.1c0.1,1-0.8,2-0.8,2.6
	c0.1,1.7,1.9,4.5,3.5,5.3c-0.2-0.4-0.7-4-0.5-4.2c0.4-0.4,1.6,0,2-0.2c0.9-0.5,0.7,0.7,0.9-0.9c0.1-0.7-1.4-3.5-1.6-4.3
	c-0.8-2.3-1.4-3.5,1.4-3.8c0.7-0.1,1.9,0.4,2.7,0.5c1.4,0.1,2.7,0,4.1,0.1c-0.3-2.2,1.6-2,2.1-4.3c0.3-1.4,0.2-3.5-0.9-4.6
	c1.1-0.2,2.8,0,3.8-0.4c1.5-0.6,0.5-1.4,1.5-2.7c1.2-1.7,3.1-0.9,4.4-1.7c0.6-0.4,1.1-2.8,1.7-4c1-2.1,0.6-4.1,1.5-6.1
	c0.3-0.6,0.8-0.6,1.1-1.4c0.2-0.6-0.1-1.3-0.1-1.9C266.4,49.4,267.6,47.5,267.2,46.6z"/>
<path class="st0" d="M157.9,100.6c0-1.1-0.8-0.8-1.1-1.6c-0.6-1.6,0.1-1.5-1-2.5c-0.4-0.4-1.3-0.7-1.8-1.1c-0.8-0.7-1.4-1.6-2-2.4
	c-2-2.6-0.9-1.7,0.8-4c0.7-1,0.9-1.5,0.4-2.8c-0.6-1.6-2.1-1.7-2.8-3.1c-1.3-2.4,1.2-3.4,2.9-4.3c1.5-0.8,3.8-1.5,2.1-3
	c-1.8-1.7-6.4,1.2-6-2.5c0.1-1.2,1.5-1.8,1.7-2.6c0.2-0.8-0.7-1.3-0.7-2.4c-0.8,0.8-2.7,0.5-3.1-0.7c-0.7-1.8,1.6-2,2.5-2.9
	c1-1,0.5-2.3,1.1-3.4c1-1.9,2.3-0.7,3.9-1c1.5-0.3,2.2-2,3.9-2.2c0.5-0.1,2.4,0.2,3,0.3c1.6,0.3,2,1.2,3.1,1.8
	c0.3,0.2,2.6,1.1,2.6,1.1c2.2,0,7.5-0.2,8.8,1.1c0.7,0.6,0.5,1.3,1.7,1.7c1.2,0.4,2.9,0.2,4.2,0.5c0.6,0.1,1.2,0.6,1.9,0.5
	c1.8-0.2,2.9-2.7,4.4-3.3c1.8-0.7,1,0.2,2.3,0.2c0.3,0.8,0.8,0.8,1.6-0.1c0.4-0.2,0.9-0.4,1.3-0.6c1.3-0.5,2.6-0.6,4.3-0.7
	c4.1-0.2,1.4-1.5,4-3.4c1.2-0.8,5,0.3,5.3-1.2c0.2-1.1-2.4-4.6-2.9-5.5c-1-1.9-4.8-5.9-3.7-8.1c1-2.2,2,0.2,3.3,1.1
	c0.3,0.2,1.9,1.2,2.1,1.2c0.3,0.1,1,0,1.4,0.2c0.4-0.2,0.9-0.1,1.3,0.1c0.3,0.2,0.4,0.5,0.5,0.9c1.5,0.8-1.6,1.3,1.8,0.8
	c1.1-0.2,1.6-0.7,2.3-1.5c0.1,0.2,0.1,0.3,0.2,0.5c1.9-1.6,3.2-1.1,1.5-2.9c-1.4-1.5-2.6-0.9-4.3-1.8c-1.1-0.6-0.7-1.1-2.2-1.5
	c-0.8-0.2-1.7,0.2-2.5,0.1c-2.9-0.6-2.5-2.6-3.1-4.9c-0.8-3.1-2.3-1.9-4.4-3.3c-0.8-0.5-0.7-1.1-1.3-1.7c-1.2-1.2-1.1-0.9-2.6-1.4
	c-1-0.4-1.3-0.2-2.3-0.9c-0.7-0.5-1.8-1.5-2.4-2.2c-1.5-1.7-1.5-4.1-3.2-5.7c-0.8-0.8-1.8-1.6-3-1.4c-0.6,0.1-1.6,1.2-1.9,1.1
	c-2.9-0.2-0.3-3.3-1.4-4.7c-0.7-0.8-4.1-0.9-5.2-1.1c-1.3-0.2-3,0.6-4.2,0.4c-1.7-0.3-1.9-2.4-4.2-1.7c-0.9,0.3-0.9,1.1-1.9,1.2
	c-1.3,0.2-2.3-0.1-3.8,0.5c-0.9,0.3-2.4,0.4-3.2,0.8c0.2,1.1-0.2,1.5-1.3,1.1c-0.7-0.1-1.3-0.2-2-0.5c-1.6-0.4-4.1-1.5-5.6-0.7
	c1.4,0.7,5.6,1.7,3.1,3.4c-1.7,1.2-4.7-0.1-6.4-0.4c-2.6-0.4-5.1-0.3-7,1.4c-0.6,0.5-1,2-1.6,2.6c0.1,1.1-0.3,1.5-1.3,1.2
	c-0.8-0.3-1.1-0.2-1.1,0.4c-0.2,0.1-1.1,1.4-1.5,1.7c-0.3,0.3-1.6,2-1.7,2c-1.8,0.9-1.8-0.7-2.7,1.8c-0.5,1.3-0.3,1-0.3,2.1
	c0,0.5-0.4,2.4-0.3,2.5c0.2,0.8,2.9,1,2.8,2.4c0.5,0,1.5-0.7,2-0.9c0.1,0,2-0.2,2.5-0.2c-0.4,0,2.9,0.9,2.3,0.5
	c1,0.6,0.6,2.6,1.2,3.3c0.6,0.9,2.1,1.7,3,2.2c0.5,0,0.9,0.1,1.4,0.2c0.4,0.3,0.7,0.7,1,1c1.4,0.6,3.2-0.1,4.5,0.5
	c2.4,1.2-0.2,2.1-0.7,3.6c-0.7,2.2,1.5,2.6,2.8,3.5c0.9,0.6,2.2,1,2.8,1.4c1.1,0.8,1-0.3,1.4,1.4c0.3,1.4-1.5,4.2-2.6,4.8
	c-0.9,0.6-3.8,0.4-4.7,1.4c-1,1-0.1,3.6-1.6,4.5c-2.2,1.3-3.2-1.7-4.1,1.7c-0.6,2-0.1,3.9,0.3,5.9c0.8,4,1.5,8.4,1.2,12.6
	c-0.1,2,0.3,4.1,0.1,6c-0.1,1.7,0.4,3.4,0.2,5.3c1.4,0,1.5,0.5,2.4,1.1c0,0.3,0,0.6,0,0.8c0.4,0,0.8,0,1.2,0
	c1.7,0.6,2.9,0.3,4.4,1.5c1.3,1.1,2.6,1.5,3.7,2.6c0.3,0.3,0.1,1.2,0.6,1.5c1,0.7,1.2-0.4,2.1-0.3
	C158.1,101.5,157.9,101.1,157.9,100.6z"/>
<path class="st0" d="M252.6,103.8c-1-1.4-3.1-3.2-3.4-4.9c-0.3-1.6,2-3.3,1.1-4.6c-0.8-1.1-3-0.5-4.1-0.8c-1.5-0.4-3.2-1-4.3-1.8
	c0.1,0.1-0.6-1.3-0.8-1.5c-0.4-0.6-0.9-1.2-1.4-1.9c-0.6-0.9-1.5-2-1.5-3.1c0-0.6,0.9-0.9,1-1.6c0.1-1.1-0.6-1.8-0.7-2.7
	c-0.2-1.3,0.6-1.7,0.7-2.7c0.1-1.2-1.2-1.4-0.5-2.5c0.2-0.4,2.3-0.4,2.6-0.5c0.5-0.2,1.2-1,1.5-1.5c1.4-2.2-0.1-3.4-2-4.5
	c-0.6-0.3-1.6-0.5-2-0.9c-0.7-0.7-0.3-1.3-1.2-1.9c-1.2-0.9-2.7,0.1-3.9-0.5c-0.9-0.4-0.8-0.9-1.6-1.6c-0.3-0.3-1.1-0.4-1.6-0.8
	c-0.9-0.8-0.4-0.6-1-1.8c-0.8-1.5-1.9-3.6-2.2-5.2c-0.2-0.9,0.5-1.4,0.3-2.4c0,0.1-1-1-1-1.1c-0.8-1.9-1.3-4.2,0.5-5.4
	c0.1-1.7-3.5,0.7-4,0.6c-0.2-3-1.5-2.2-4-1.9c-1.2,0.1-2.7,0.1-3.9,0.1c-1.2,0-1.8,0.4-2.6,0.6c-0.4,0.1-1,0.2-1.5,0.3
	c-1.3,0.2-1.4-0.1-2.2-0.7c-0.6-0.4-0.1-0.9-0.8-1.2c-0.4-0.2-1,0.3-1.5,0.1c-0.6-0.2-4.9-3.5-4.9-3.5c-1.7,0.9,4.7,10.3,5.2,11.2
	c0.8,1.5,2.3,3.2,0,4.1c-1.3,0.5-2.9-0.7-4.3,0.4c-1.1,0.9-0.5,2.2-1.4,3c-1.2,1.2-4.6,0.2-6.3,0.7c-0.8,0.2-1.7,1.1-2.5,1.3
	c-0.2,0.1-0.4,0.2-0.5,0.3c-0.9,0.6-1.4,0.4-1.3-0.5c-0.5,0-0.6-0.3-1.1-0.3c-0.9,0-2.8,2.2-3.6,2.7c-1.1,0.6-1.5,0.8-2.8,0.7
	c-1.3-0.1-4.1-0.4-5.4-0.8c-1.6-0.5-1.7-2.2-2.9-2.5c-0.6-0.2-1.8,0.3-2.6,0.2c-1,0-1.9-0.3-2.8-0.4c-1-0.1-1.7-0.3-2.5-0.5
	c-2.7-0.8-4-2.7-7.1-2.6c-1.3,0.1-1.8,0.3-2.9,0.9c-0.7,0.4-0.8,0.8-1.7,1c-0.6,0.1-1.6-0.4-2-0.3c-1.9,0.6-1.3,3.3-2.7,4.6
	c-0.6,0.6-2.6,1-2.4,1.9c0.1,1,1.8,0.6,2.1,0.6c1.1,0.3,0-0.8,1.2,0.1c0.1,0.1,0,1,0.1,1.1c0.9,2.1,0.5,1.3-0.7,3.3
	c-2.3,3.8,3.3,1.5,5,2.4c0.3,0.1,1.5,1.7,1.5,2.1c0,1.3-1.8,1.7-2.6,2.1c-0.9,0.5-3.2,1.4-3.5,2.5c-0.6,1.9,2,2.5,2.8,3.8
	c2.3,3.9-2.6,4.3-2.2,6.7c0,0.2,2.2,2.5,2.6,2.9c0.7,0.7,2.4,1,2.9,1.7c0.5,0.7-0.1,1.2,0.2,1.9c0.3,0.6,0.9,1.1,1.2,1.5
	c0.9,1.3,0.6,2.8,3.1,2.6c0.1-1.1,0.1-1.8,1.4-1.6c0.1,1.6-0.2,3.4-0.4,4.9c-0.1,0.9-1.1,1.6,0,2.7c0.5-0.7,1.8-0.9,2.6-0.7
	c1.4,0.2,1.1,1.1,2.1,1.4c1.4,0.4,1.5-0.8,3.1-0.1c0.3,0.2,0.4,1,0.5,1.1c0.3,0.2,0.9-0.2,1.3,0c0.6,0.3,1.6,1.1,2.2,1.4
	c0.2,0.1,3,0.7,3.2,0.6c0.3-0.1,0.7-1.3,0.9-1.4c0.7-0.3,2.1-0.3,2.9-0.6c0.1,0,1-1.1,1.1-1.2c0.2-0.2,0.7-0.4,1-0.6
	c1.3-1.1,1.7-2.7,1.6-4.5c-0.1-2.2-0.9-1-1.3-2c-0.4-0.8,0.2-2.2,0.9-2.4c1.4-0.5,1.1,1.1,2.3,1.1c0.6,0,1.3-1.5,1.6-1.8
	c0.3-0.3,0.1-0.5,0.5-0.7c1.1-0.5,2,0.4,3-0.5c0.5-0.4,0.6-1.7,1.1-2.2c0.8-0.9,1.2-1,2.4-1.1c1.4-0.2,5.8-0.5,6.8,0.3
	c0.5,0.4,0,1.3,0.4,1.8c0.6,0.6,1.3,0.2,1.9,0.5c1.2,0.6,1.7,2.2,2.9,2.8c0.9,0.5,2.1,0.2,3.1,0.7c1,0.6,1.2,1.1,2.4,1.3
	c2.6,0.3,4.2-1.8,6.4-2.1c2.4-0.3,0.7,0.2,1.5,1.8c1.2,2.4,3.4,2,3.4,5.4c1,0,2.2,0.4,3.1,0.1c0.6-0.2,1.3-1,1.9-1.2
	c3.7-1.5,2.7,2.9,2.1,5.2c1.3,0,1.4,1.4,2.7,1.4c-0.3-0.7-1.8-1.3-1.9-1.6c0-0.2,1.5-1.6,1.8-1.7c0.8-0.5,1.8-0.5,2.6-0.9
	c0.5-0.3,1.3-1.5,2-1.4c0.1,1.3-0.6,2.8-0.3,4.1c1.2-0.1,1.6,0.5,1.2,1.6c0.3,0.1,0.5,0.1,0.8,0.2c0.3,0.3,1.2,1.4,1.7,1.6
	c1.3,0.5,0.3,0.3,1,0.1c0.5-0.2,1.4-1.6,1.8-1.9c0.3-0.2,1.4-0.6,1.7-0.8c0.7-0.6,0.9-1.9,2-2.6c0.1,2.9,2.7-0.9,3-1.2
	C252.7,106.1,254.3,106.1,252.6,103.8z"/>
</svg>
